<svg xmlns="http://www.w3.org/2000/svg" width="16" height="16" version="1.1">
 <defs>
   <style id="current-color-scheme" type="text/css">
   .ColorScheme-Text { color: #e9ecf2; } .ColorScheme-Highlight { color: #1AD6AB; }
  </style>
  <linearGradient id="arrongin" x1="0%" x2="0%" y1="0%" y2="100%">
   <stop offset="0%"    stop-color= "#dd9b44" stop-opacity="1"/>
   <stop offset="100%"  stop-color= "#ad6c16" stop-opacity="1"/>
  </linearGradient>
  <linearGradient id="aurora" x1="0%" x2="0%" y1="0%" y2="100%">
   <stop offset="0%"    stop-color= "#09D4DF" stop-opacity="1"/>
   <stop offset="100%"  stop-color= "#9269F4" stop-opacity="1"/>
  </linearGradient> 
  <linearGradient id="cyberblue" x1="0%" x2="0%" y1="0%" y2="100%">
   <stop offset="0%"    stop-color= "#07B3FF" stop-opacity="1"/>
   <stop offset="100%"  stop-color= "#007DE8" stop-opacity="1"/>
  </linearGradient>
  <linearGradient id="cyberneon" x1="0%" x2="0%" y1="0%" y2="100%">
    <stop offset="0%"   stop-color= "#0abdc6" stop-opacity="1"/>
    <stop offset="100%" stop-color= "#ea00d9" stop-opacity="1"/>
  </linearGradient>
  <linearGradient id="fitdance" x1="0%" x2="0%" y1="0%" y2="100%">
   <stop offset="0%"    stop-color= "#1AD6AB" stop-opacity="1"/>
   <stop offset="100%"  stop-color= "#329DB6" stop-opacity="1"/>
  </linearGradient>
  <linearGradient id="oomox" x1="0%" x2="0%" y1="0%" y2="100%">
   <stop offset="0%"    stop-color= "#f2bac9" stop-opacity="1"/>
   <stop offset="100%"  stop-color= "#d6c9de" stop-opacity="1"/>
  </linearGradient>
  <linearGradient id="rainblue" x1="0%" x2="0%" y1="0%" y2="100%">
   <stop offset="0%"    stop-color= "#00F260" stop-opacity="1"/>
   <stop offset="100%"  stop-color= "#0575E6" stop-opacity="1"/>
  </linearGradient>
  <linearGradient id="redcarbon" x1="0%" x2="0%" y1="0%" y2="100%">
   <stop offset="0%"    stop-color= "#FF6D57" stop-opacity="1"/>
   <stop offset="50%"   stop-color= "#FF5160" stop-opacity="1"/>
   <stop offset="100%"  stop-color= "#F50F22" stop-opacity="1"/>
  </linearGradient>
  <linearGradient id="sunrise" x1="0%" x2="0%" y1="0%" y2="100%">
   <stop offset="0%"    stop-color= "#FF8501" stop-opacity="1"/>
   <stop offset="100%"  stop-color= "#FFCB01" stop-opacity="1"/>
  </linearGradient>
  <linearGradient id="telinkrin" x1="0%" x2="0%" y1="0%" y2="100%">
   <stop offset="0%"    stop-color= "#b2ced6" stop-opacity="1"/>
   <stop offset="100%"  stop-color= "#6da5b7" stop-opacity="1"/>
  </linearGradient>
  <linearGradient id="60spsycho" x1="0%" x2="0%" y1="0%" y2="100%">
   <stop offset="0%"    stop-color= "#df5940" stop-opacity="1"/>
   <stop offset="25%"   stop-color= "#d8d15f" stop-opacity="1"/>
   <stop offset="50%"   stop-color= "#e9882a" stop-opacity="1"/>
   <stop offset="100%"  stop-color= "#279362" stop-opacity="1"/>
  </linearGradient>
  <linearGradient id="90ssummer" x1="0%" x2="0%" y1="0%" y2="100%">
   <stop offset="0%"    stop-color= "#f618c7" stop-opacity="1"/>
   <stop offset="20%"   stop-color= "#94ffab" stop-opacity="1"/>
   <stop offset="50%"   stop-color= "#fbfd54" stop-opacity="1"/>
   <stop offset="100%"  stop-color= "#0f83ae" stop-opacity="1"/>
  </linearGradient>
 </defs>
 <path fill="url(#oomox)" class="ColorScheme-Text" d="m14.68 12.246c-0.12082-0.01574-0.23438 0.03846-0.30396 0.13208l-0.473-0.06171 0.6814-0.70035c0.11044 0.02981 0.23264 0 0.31904-0.09027 0.12964-0.1359 0.12892-0.3555-0.000884-0.49037-0.12992-0.13505-0.3404-0.13454-0.47032 0.000803-0.08552 0.08965-0.11407 0.21567-0.08632 0.32994l-0.60894 0.62601 0.20301-0.80508c0.10742-0.03325 0.19836-0.11701 0.22899-0.23853 0.04663-0.18514-0.05949-0.37444-0.23694-0.42316-0.17763-0.04889-0.35954 0.06202-0.40616 0.247-0.03066 0.1214 0.009 0.24094 0.08689 0.3252l-0.22058 0.87431-0.24924-0.93998c0.07708-0.08506 0.11515-0.20512 0.08321-0.32631-0.04911-0.18433-0.23198-0.29268-0.40901-0.24197-0.31505 0.0908-0.33456 0.56304 0 0.66191l0.19548 0.73808c-0.14846 0.06703-1.1744 0.5296-1.2799 0.57762 0.07161-0.32782 0.05555-0.25547 0.3148-1.4394 0.0013 0.0073 0.01588-0.10446 0.01648-0.16038 0.01868-0.64586-0.55548-1.2414-1.3302-0.96483-0.03781 0.014177 0.0064-0.011363-0.79225 0.42785 0.18539-0.76275 0.31411-1.5763 0.37331-2.3449 0.85997 0.54535 1.2058-0.059314 1.2998-0.32082 0.01249-0.034713 1.0506-3.2669 1.0506-3.2669l0.71132-0.7437c0.10919 0.027624 0.22802 0.00313 0.31303-0.086 0.12972-0.13585 0.12901-0.35545-0.000913-0.49049-0.12981-0.13492-0.3404-0.13436-0.47021 0.000959-0.08501 0.089127-0.10831 0.21299-0.08153 0.32681l-0.61838 0.64649 0.20757-0.82226c0.10754-0.033462 0.19839-0.11724 0.22902-0.2387 0.04671-0.1852-0.0594-0.37449-0.23694-0.42315-0.17763-0.04889-0.35942 0.06192-0.40616 0.24696-0.03063 0.12135 0.009 0.24087 0.08698 0.32515l-0.22 0.8738-0.249-0.9398c0.07708-0.085166 0.11515-0.20517 0.08321-0.32636-0.0491-0.18433-0.2321-0.29269-0.40901-0.24192-0.17703 0.050975-0.2808 0.24192-0.2321 0.42672 0.03211 0.12084 0.12396 0.20321 0.23178 0.23517l0.22939 0.86497s-0.55918 1.14-1.1131 2.2698c-0.074-0.0773-0.148-0.1549-0.215-0.2244-0.091-0.095-0.174-0.1818-0.247-0.259-0.09-0.5551-0.238-1.0231-0.4346-1.4022 0.0773-0.1131 0.1238-0.2506 0.1238-0.3998 0-0.3821-0.29726-0.69167-0.66364-0.69167-0.035389 0-0.069324 0.00521-0.10323 0.010737l-0.3762-0.3921c0.00197-0.023559 0.00673-0.045971 0.00673-0.069843 0-0.46701-0.36253-0.84842-0.80993-0.84842-0.44737 0-0.8099 0.38141-0.8099 0.84842 0 0.023872 0.00476 0.046284 0.00673 0.069843l-0.3761 0.3921c-0.033906-0.00521-0.067841-0.010737-0.10323-0.010737-0.36638 0-0.66364 0.30957-0.66364 0.69167 0 0.1492 0.046511 0.28669 0.12376 0.39982-0.1962 0.3791-0.3445 0.847-0.4341 1.4022-0.0738 0.0771-0.1568 0.1639-0.2478 0.2589-0.0664 0.0695-0.1408 0.1472-0.2148 0.2245-0.5539-1.1298-1.1131-2.2698-1.1131-2.2698l0.2294-0.865c0.1078-0.032 0.1996-0.1143 0.2318-0.2351 0.0487-0.1849-0.0551-0.3758-0.2321-0.4268-0.177-0.0507-0.36 0.0576-0.4091 0.2419-0.031938 0.12119 0.00613 0.24123 0.083211 0.32636l-0.2492 0.9398-0.2206-0.8742c0.078-0.0842 0.1177-0.2038 0.087-0.3251-0.0467-0.1851-0.2285-0.2959-0.4061-0.247-0.1776 0.0487-0.2837 0.238-0.237 0.4232 0.0307 0.1214 0.1215 0.2052 0.229 0.2387l0.2076 0.8222-0.6183-0.6465c0.0268-0.1138 0.0035-0.2377-0.0815-0.3268-0.1299-0.1353-0.3404-0.1359-0.4702-0.0009-0.13 0.135-0.1307 0.3546-0.0009 0.4905 0.084979 0.088815 0.20381 0.11363 0.313 0.086l0.71132 0.7437s1.0382 3.2322 1.0506 3.2669c0.094076 0.26147 0.4399 0.86617 1.2998 0.32081 0.059229 0.76858 0.18795 1.5821 0.37331 2.3449-0.7986-0.4396-0.7544-0.4141-0.7922-0.4283-0.7747-0.2766-1.3489 0.3193-1.3302 0.9653 0.0005989 0.05587 0.015171 0.1673 0.016483 0.16038 0.25924 1.184 0.24319 1.1116 0.31479 1.4394-0.10557-0.04805-1.1315-0.51061-1.2799-0.57762l0.19548-0.73808c0.33456-0.09893 0.31505-0.57116 0-0.66192-0.17703-0.05077-0.35991 0.05765-0.40901 0.24198-0.031939 0.12116 0.00613 0.2412 0.083211 0.32631l-0.2493 0.94-0.2206-0.874c0.07785-0.08433 0.11755-0.2038 0.08689-0.3252-0.046625-0.18496-0.22853-0.2959-0.40616-0.247-0.17746 0.04868-0.28357 0.23803-0.23694 0.42316 0.030655 0.12152 0.12159 0.20528 0.22899 0.23852l0.20301 0.80509-0.60891-0.62601c0.027775-0.11427-0.0007984-0.24028-0.08632-0.32994-0.12992-0.13534-0.3404-0.13585-0.47032-0.000803-0.12981 0.13487-0.13052 0.35446-0.000884 0.49037 0.086405 0.09027 0.2086 0.12007 0.31904 0.09027l0.68138 0.70035-0.473 0.06171c-0.06958-0.09361-0.18313-0.1478-0.30396-0.13208-0.18228 0.02387-0.31152 0.19718-0.28882 0.38671 0.022728 0.18977 0.18898 0.32467 0.37146 0.30131 0.12082-0.01585 0.21792-0.09767 0.26321-0.20624l0.7394-0.097c0.077993 0.04514 2.2047 1.277 2.2047 1.277 0.23041 0.13344 0.51324 0.12033 0.73136-0.03388 0.21812-0.15422 0.33464-0.42333 0.30071-0.69578-0.086633-0.69557-0.16859-1.3506-0.16896-1.3537 0.044229 0.03044 1.2039 0.86168 1.792 1.2797 0.23096 0.26111 0.47799 0.41747 0.73459 0.41747 0.25659 0 0.50363-0.15638 0.73459-0.41747 0.58807-0.41804 1.7478-1.2493 1.792-1.2797-0.00037 0.0031-0.08233 0.65817-0.16896 1.3537-0.03394 0.27245 0.08261 0.54158 0.30071 0.69578 0.21815 0.15422 0.50095 0.16733 0.73136 0.03388 0 0 2.1268-1.2318 2.2047-1.277l0.73943 0.09653c0.04528 0.10862 0.14238 0.1904 0.26321 0.20624 0.18248 0.02335 0.34873-0.11154 0.37143-0.30134 0.02276-0.18956-0.10648-0.36284-0.28876-0.38671z"/>
</svg>
