<svg xmlns="http://www.w3.org/2000/svg" width="16" height="16" version="1.1">
 <defs>
   <style id="current-color-scheme" type="text/css">
   .ColorScheme-Text { color: #e9ecf2; } .ColorScheme-Highlight { color:#5294e2; }
  </style>
  <linearGradient id="arrongin" x1="0%" x2="0%" y1="0%" y2="100%">
   <stop offset="0%" style="stop-color:#dd9b44; stop-opacity:1"/>
   <stop offset="100%" style="stop-color:#ad6c16; stop-opacity:1"/>
  </linearGradient>
  <linearGradient id="aurora" x1="0%" x2="0%" y1="0%" y2="100%">
   <stop offset="0%" style="stop-color:#09D4DF; stop-opacity:1"/>
   <stop offset="100%" style="stop-color:#9269F4; stop-opacity:1"/>
  </linearGradient>
  <linearGradient id="cyberneon" x1="0%" x2="0%" y1="0%" y2="100%">
    <stop offset="0" style="stop-color:#0abdc6; stop-opacity:1"/>
    <stop offset="1" style="stop-color:#ea00d9; stop-opacity:1"/>
  </linearGradient>
  <linearGradient id="fitdance" x1="0%" x2="0%" y1="0%" y2="100%">
   <stop offset="0%" style="stop-color:#1AD6AB; stop-opacity:1"/>
   <stop offset="100%" style="stop-color:#329DB6; stop-opacity:1"/>
  </linearGradient>
  <linearGradient id="oomox" x1="0%" x2="0%" y1="0%" y2="100%">
   <stop offset="0%" style="stop-color:#f2bac9; stop-opacity:1"/>
   <stop offset="100%" style="stop-color:#d6c9de; stop-opacity:1"/>
  </linearGradient>
  <linearGradient id="rainblue" x1="0%" x2="0%" y1="0%" y2="100%">
   <stop offset="0%" style="stop-color:#00F260; stop-opacity:1"/>
   <stop offset="100%" style="stop-color:#0575E6; stop-opacity:1"/>
  </linearGradient>
  <linearGradient id="sunrise" x1="0%" x2="0%" y1="0%" y2="100%">
   <stop offset="0%" style="stop-color: #FF8501; stop-opacity:1"/>
   <stop offset="100%" style="stop-color: #FFCB01; stop-opacity:1"/>
  </linearGradient>
  <linearGradient id="telinkrin" x1="0%" x2="0%" y1="0%" y2="100%">
   <stop offset="0%" style="stop-color: #b2ced6; stop-opacity:1"/>
   <stop offset="100%" style="stop-color: #6da5b7; stop-opacity:1"/>
  </linearGradient>
  <linearGradient id="60spsycho" x1="0%" x2="0%" y1="0%" y2="100%">
   <stop offset="0%" style="stop-color: #df5940; stop-opacity:1"/>
   <stop offset="25%" style="stop-color: #d8d15f; stop-opacity:1"/>
   <stop offset="50%" style="stop-color: #e9882a; stop-opacity:1"/>
   <stop offset="100%" style="stop-color: #279362; stop-opacity:1"/>
  </linearGradient>
  <linearGradient id="90ssummer" x1="0%" x2="0%" y1="0%" y2="100%">
   <stop offset="0%" style="stop-color: #f618c7; stop-opacity:1"/>
   <stop offset="20%" style="stop-color: #94ffab; stop-opacity:1"/>
   <stop offset="50%" style="stop-color: #fbfd54; stop-opacity:1"/>
   <stop offset="100%" style="stop-color: #0f83ae; stop-opacity:1"/>
  </linearGradient>
 </defs>
 <path fill="url(#oomox)" class="ColorScheme-Text" fill-rule="evenodd" d="m12.4192 7.15145c0.6151-1.11114 0.7928-2.59566 0.701-4.02195-0.0627-2.07847-2.2443-3.233747-4.49765-3.1220899-1.25464 0.00172798-2.47449 0.08337044-3.66419 0.66947094-1.06606 0.460129-2.10221 1.200679-2.10118 2.340969 0.0019 2.10237 0.63976 3.78957 1.14814 4.98218h-0.80729c-1.77168 0-3.1979899 1.4027-3.1979899 3.14497 0 4.613 7.5137799 4.8434 8.3425599 4.8544 0.82878 0.0111 8.0727-0.0987 7.6386-4.8544 0-1.74227-1.4263-3.14497-3.198-3.14497h-0.8647c0.0311-0.05193 0.0624-0.10386 0.0936-0.15581l0.0026-0.00426 1e-4 -2.5e-4v-1e-5 -1e-5 -1e-5c0.1374-0.22831 0.275-0.45706 0.4044-0.68823zm-4.41918 0.45813c0.03728-0.20322 0.0572-0.41723 0.0572-0.63821 0-0.22097-0.01992-0.43496-0.0572-0.63816 0.18634-1.01566 0.80655-1.76178 1.54287-1.76178 0.88361 0 1.59991 1.07454 1.59991 2.39994 0 1.32552-0.7163 2.40009-1.59991 2.40009-0.73632 0-1.35653-0.74615-1.54287-1.76188zm-0.05719-0.63821c0 0.22098 0.01992 0.43499 0.05719 0.63821-0.18633 1.01573-0.80654 1.76188-1.54286 1.76188-0.88364 0-1.59994-1.07457-1.59994-2.40009 0-1.3254 0.7163-2.39994 1.59994-2.39994 0.73632 0 1.35653 0.74612 1.54286 1.76178-0.03727 0.2032-0.05719 0.41719-0.05719 0.63816zm1.25718 1.74294c0.44188 0 0.79999-0.53735 0.79999-1.20005s-0.35811-1.20004-0.79999-1.20004c-0.44176 0-0.80003 0.53734-0.80003 1.20004s0.35827 1.20005 0.80003 1.20005zm-1.59994-1.20005c0 0.6627-0.35827 1.20005-0.80003 1.20005-0.44188 0-0.80003-0.53735-0.80003-1.20005s0.35815-1.20004 0.80003-1.20004c0.44176 0 0.80003 0.53734 0.80003 1.20004z" clip-rule="evenodd"/>
</svg>
