<svg xmlns="http://www.w3.org/2000/svg" width="16" height="16" version="1.1">
 <defs>
   <style id="current-color-scheme" type="text/css">
   .ColorScheme-Text { color: #e9ecf2; } .ColorScheme-Highlight { color:#5294e2; }
  </style>
  <linearGradient id="arrongin" x1="0%" x2="0%" y1="0%" y2="100%">
   <stop offset="0%" style="stop-color:#dd9b44; stop-opacity:1"/>
   <stop offset="100%" style="stop-color:#ad6c16; stop-opacity:1"/>
  </linearGradient>
  <linearGradient id="aurora" x1="0%" x2="0%" y1="0%" y2="100%">
   <stop offset="0%" style="stop-color:#09D4DF; stop-opacity:1"/>
   <stop offset="100%" style="stop-color:#9269F4; stop-opacity:1"/>
  </linearGradient>
  <linearGradient id="cyberneon" x1="0%" x2="0%" y1="0%" y2="100%">
    <stop offset="0" style="stop-color:#0abdc6; stop-opacity:1"/>
    <stop offset="1" style="stop-color:#ea00d9; stop-opacity:1"/>
  </linearGradient>
  <linearGradient id="fitdance" x1="0%" x2="0%" y1="0%" y2="100%">
   <stop offset="0%" style="stop-color:#1AD6AB; stop-opacity:1"/>
   <stop offset="100%" style="stop-color:#329DB6; stop-opacity:1"/>
  </linearGradient>
  <linearGradient id="oomox" x1="0%" x2="0%" y1="0%" y2="100%">
   <stop offset="0%" style="stop-color:#f2bac9; stop-opacity:1"/>
   <stop offset="100%" style="stop-color:#d6c9de; stop-opacity:1"/>
  </linearGradient>
  <linearGradient id="rainblue" x1="0%" x2="0%" y1="0%" y2="100%">
   <stop offset="0%" style="stop-color:#00F260; stop-opacity:1"/>
   <stop offset="100%" style="stop-color:#0575E6; stop-opacity:1"/>
  </linearGradient>
  <linearGradient id="sunrise" x1="0%" x2="0%" y1="0%" y2="100%">
   <stop offset="0%" style="stop-color: #FF8501; stop-opacity:1"/>
   <stop offset="100%" style="stop-color: #FFCB01; stop-opacity:1"/>
  </linearGradient>
  <linearGradient id="telinkrin" x1="0%" x2="0%" y1="0%" y2="100%">
   <stop offset="0%" style="stop-color: #b2ced6; stop-opacity:1"/>
   <stop offset="100%" style="stop-color: #6da5b7; stop-opacity:1"/>
  </linearGradient>
  <linearGradient id="60spsycho" x1="0%" x2="0%" y1="0%" y2="100%">
   <stop offset="0%" style="stop-color: #df5940; stop-opacity:1"/>
   <stop offset="25%" style="stop-color: #d8d15f; stop-opacity:1"/>
   <stop offset="50%" style="stop-color: #e9882a; stop-opacity:1"/>
   <stop offset="100%" style="stop-color: #279362; stop-opacity:1"/>
  </linearGradient>
  <linearGradient id="90ssummer" x1="0%" x2="0%" y1="0%" y2="100%">
   <stop offset="0%" style="stop-color: #f618c7; stop-opacity:1"/>
   <stop offset="20%" style="stop-color: #94ffab; stop-opacity:1"/>
   <stop offset="50%" style="stop-color: #fbfd54; stop-opacity:1"/>
   <stop offset="100%" style="stop-color: #0f83ae; stop-opacity:1"/>
  </linearGradient>
 </defs>
 <path fill="url(#oomox)" class="ColorScheme-Text" d="M 11.017 1.38 C 10.098 0.961 9.076 0.727 8 0.727 C 7.697 0.727 7.399 0.746 7.106 0.781 C 6.024 2.278 5.463 4.709 5.508 6.198 C 5.508 6.198 5.437 8.411 6.953 9.196 C 6.953 9.196 8.317 9.793 9.245 7.861 C 9.245 7.861 9.884 6.77 9.624 4.305 C 9.624 4.305 9.873 4.349 9.901 4.388 C 9.929 4.427 10.45 6.286 10.084 7.851 C 10.084 7.851 9.747 9.691 8.09 10.111 C 6.433 10.532 5.142 9.514 4.266 8.556 C 3.616 7.844 2.651 5.938 2.172 3.649 C 1.265 4.862 0.727 6.368 0.727 8 C 0.727 9.133 0.986 10.204 1.448 11.16 C 3.038 11.633 7.155 12.579 9.769 10.663 C 11.49 9.402 11.268 7.381 11.268 7.381 C 11.239 5.845 10.304 4.318 10.304 4.318 C 13.942 7.609 11.792 11.266 11.792 11.266 C 10.793 13.305 8.744 14.611 6.947 15.197 C 7.291 15.247 7.642 15.273 8 15.273 C 12.017 15.273 15.273 12.017 15.273 8 C 15.273 6.276 14.673 4.692 13.67 3.445 C 13.313 3.47 12.898 3.484 12.467 3.47 C 12.467 3.47 10.531 3.561 9.446 4.102 C 9.446 4.102 8.637 4.463 7.828 5.075 C 7.828 5.075 7.656 5.161 7.664 5.476 C 7.671 5.791 7.499 6.629 6.926 7.12 C 6.926 7.12 6.517 7.33 6.722 7.632 C 6.722 7.632 6.998 8.033 7.387 7.611 C 7.387 7.611 8.391 6.579 8.452 4.915 C 8.452 4.915 8.77 4.643 9.271 4.564 C 9.271 4.564 9.364 7.06 8.125 8.313 C 8.125 8.313 6.946 9.597 6.568 7.692 C 6.568 7.692 6.107 5.877 8.483 3.721 C 8.483 3.721 10.074 2.133 11.017 1.38 Z M 8 16 C 3.582 16 0 12.418 0 8 C 0 3.582 3.582 0 8 0 C 12.418 0 16 3.582 16 8 C 16 12.418 12.418 16 8 16 Z"/>
</svg>
