<svg xmlns="http://www.w3.org/2000/svg" width="16" height="16" version="1.1">
 <defs>
   <style id="current-color-scheme" type="text/css">
   .ColorScheme-Text { color: #e9ecf2; } .ColorScheme-Highlight { color:#5294e2; }
  </style>
  <linearGradient id="arrongin" x1="0%" x2="0%" y1="0%" y2="100%">
   <stop offset="0%" style="stop-color:#dd9b44; stop-opacity:1"/>
   <stop offset="100%" style="stop-color:#ad6c16; stop-opacity:1"/>
  </linearGradient>
  <linearGradient id="aurora" x1="0%" x2="0%" y1="0%" y2="100%">
   <stop offset="0%" style="stop-color:#09D4DF; stop-opacity:1"/>
   <stop offset="100%" style="stop-color:#9269F4; stop-opacity:1"/>
  </linearGradient>
  <linearGradient id="cyberneon" x1="0%" x2="0%" y1="0%" y2="100%">
    <stop offset="0" style="stop-color:#0abdc6; stop-opacity:1"/>
    <stop offset="1" style="stop-color:#ea00d9; stop-opacity:1"/>
  </linearGradient>
  <linearGradient id="fitdance" x1="0%" x2="0%" y1="0%" y2="100%">
   <stop offset="0%" style="stop-color:#1AD6AB; stop-opacity:1"/>
   <stop offset="100%" style="stop-color:#329DB6; stop-opacity:1"/>
  </linearGradient>
  <linearGradient id="oomox" x1="0%" x2="0%" y1="0%" y2="100%">
   <stop offset="0%" style="stop-color:#f2bac9; stop-opacity:1"/>
   <stop offset="100%" style="stop-color:#d6c9de; stop-opacity:1"/>
  </linearGradient>
  <linearGradient id="rainblue" x1="0%" x2="0%" y1="0%" y2="100%">
   <stop offset="0%" style="stop-color:#00F260; stop-opacity:1"/>
   <stop offset="100%" style="stop-color:#0575E6; stop-opacity:1"/>
  </linearGradient>
  <linearGradient id="sunrise" x1="0%" x2="0%" y1="0%" y2="100%">
   <stop offset="0%" style="stop-color: #FF8501; stop-opacity:1"/>
   <stop offset="100%" style="stop-color: #FFCB01; stop-opacity:1"/>
  </linearGradient>
  <linearGradient id="telinkrin" x1="0%" x2="0%" y1="0%" y2="100%">
   <stop offset="0%" style="stop-color: #b2ced6; stop-opacity:1"/>
   <stop offset="100%" style="stop-color: #6da5b7; stop-opacity:1"/>
  </linearGradient>
  <linearGradient id="60spsycho" x1="0%" x2="0%" y1="0%" y2="100%">
   <stop offset="0%" style="stop-color: #df5940; stop-opacity:1"/>
   <stop offset="25%" style="stop-color: #d8d15f; stop-opacity:1"/>
   <stop offset="50%" style="stop-color: #e9882a; stop-opacity:1"/>
   <stop offset="100%" style="stop-color: #279362; stop-opacity:1"/>
  </linearGradient>
  <linearGradient id="90ssummer" x1="0%" x2="0%" y1="0%" y2="100%">
   <stop offset="0%" style="stop-color: #f618c7; stop-opacity:1"/>
   <stop offset="20%" style="stop-color: #94ffab; stop-opacity:1"/>
   <stop offset="50%" style="stop-color: #fbfd54; stop-opacity:1"/>
   <stop offset="100%" style="stop-color: #0f83ae; stop-opacity:1"/>
  </linearGradient>
 </defs>
 <path fill="url(#oomox)" class="ColorScheme-Text" fill-rule="evenodd" d="M 11.478 1.391 L 4.104 1.391 C 4.045 1.391 3.986 1.395 3.927 1.405 C 3.77 1.433 3.617 1.471 3.468 1.52 C 3.141 1.624 2.831 1.767 2.539 1.951 C 2.125 2.209 1.777 2.56 1.517 2.971 C 1.2 3.492 1.037 4.094 1.044 4.703 L 1.044 11.13 L 3.13 11.13 L 3.13 4.696 C 3.13 4.689 3.13 4.685 3.13 4.678 C 3.127 4.466 3.183 4.254 3.291 4.07 C 3.384 3.927 3.506 3.809 3.649 3.718 C 3.795 3.628 3.948 3.558 4.111 3.506 C 4.143 3.496 4.174 3.485 4.209 3.478 L 11.777 3.478 C 11.78 3.478 11.782 3.478 11.785 3.478 L 14.65 3.478 C 14.774 3.478 14.886 3.404 14.933 3.289 C 14.981 3.174 14.954 3.042 14.867 2.954 L 12.002 0.09 C 11.943 0.031 11.864 -0.001 11.781 0 C 11.613 0.002 11.478 0.139 11.478 0.307 L 11.478 1.391 L 11.478 1.391 L 11.478 1.391 Z M 4.522 14.609 L 11.895 14.609 C 11.955 14.609 12.014 14.605 12.073 14.595 C 12.229 14.567 12.382 14.529 12.532 14.48 C 12.859 14.376 13.168 14.233 13.461 14.049 C 13.875 13.791 14.222 13.44 14.483 13.029 C 14.8 12.508 14.963 11.906 14.956 11.297 L 14.956 4.87 L 12.869 4.87 L 12.869 11.304 C 12.869 11.311 12.869 11.315 12.869 11.322 C 12.873 11.534 12.817 11.746 12.709 11.93 C 12.615 12.073 12.494 12.191 12.351 12.282 C 12.205 12.372 12.052 12.442 11.888 12.494 C 11.857 12.504 11.826 12.515 11.791 12.522 L 4.223 12.522 C 4.22 12.522 4.217 12.522 4.215 12.522 L 1.35 12.522 C 1.226 12.522 1.114 12.596 1.067 12.711 C 1.019 12.826 1.045 12.958 1.133 13.046 L 3.998 15.91 C 4.056 15.969 4.136 16.001 4.219 16 C 4.387 15.998 4.522 15.861 4.522 15.693 L 4.522 14.609 L 4.522 14.609 L 4.522 14.609 Z M 6.145 6.261 L 6.377 6.261 C 6.889 6.261 7.304 6.677 7.304 7.189 L 7.304 8.116 C 7.304 8.628 6.889 9.044 6.377 9.044 L 6.145 9.044 C 5.633 9.044 5.217 8.628 5.217 8.116 L 5.217 7.189 C 5.217 6.677 5.633 6.261 6.145 6.261 L 6.145 6.261 Z M 9.623 6.261 L 9.855 6.261 C 10.367 6.261 10.783 6.677 10.783 7.189 L 10.783 8.116 C 10.783 8.628 10.367 9.044 9.855 9.044 L 9.623 9.044 C 9.111 9.044 8.696 8.628 8.696 8.116 L 8.696 7.189 C 8.696 6.677 9.111 6.261 9.623 6.261 Z"/>
</svg>
