<svg xmlns="http://www.w3.org/2000/svg" width="16" height="16" version="1.1">
 <defs>
   <style id="current-color-scheme" type="text/css">
   .ColorScheme-Text { color: #e9ecf2; } .ColorScheme-Highlight { color:#5294e2; }
  </style>
  <linearGradient id="arrongin" x1="0%" x2="0%" y1="0%" y2="100%">
   <stop offset="0%" style="stop-color:#dd9b44; stop-opacity:1"/>
   <stop offset="100%" style="stop-color:#ad6c16; stop-opacity:1"/>
  </linearGradient>
  <linearGradient id="aurora" x1="0%" x2="0%" y1="0%" y2="100%">
   <stop offset="0%" style="stop-color:#09D4DF; stop-opacity:1"/>
   <stop offset="100%" style="stop-color:#9269F4; stop-opacity:1"/>
  </linearGradient>
  <linearGradient id="cyberneon" x1="0%" x2="0%" y1="0%" y2="100%">
    <stop offset="0" style="stop-color:#0abdc6; stop-opacity:1"/>
    <stop offset="1" style="stop-color:#ea00d9; stop-opacity:1"/>
  </linearGradient>
  <linearGradient id="fitdance" x1="0%" x2="0%" y1="0%" y2="100%">
   <stop offset="0%" style="stop-color:#1AD6AB; stop-opacity:1"/>
   <stop offset="100%" style="stop-color:#329DB6; stop-opacity:1"/>
  </linearGradient>
  <linearGradient id="oomox" x1="0%" x2="0%" y1="0%" y2="100%">
   <stop offset="0%" style="stop-color:#f2bac9; stop-opacity:1"/>
   <stop offset="100%" style="stop-color:#d6c9de; stop-opacity:1"/>
  </linearGradient>
  <linearGradient id="rainblue" x1="0%" x2="0%" y1="0%" y2="100%">
   <stop offset="0%" style="stop-color:#00F260; stop-opacity:1"/>
   <stop offset="100%" style="stop-color:#0575E6; stop-opacity:1"/>
  </linearGradient>
  <linearGradient id="sunrise" x1="0%" x2="0%" y1="0%" y2="100%">
   <stop offset="0%" style="stop-color: #FF8501; stop-opacity:1"/>
   <stop offset="100%" style="stop-color: #FFCB01; stop-opacity:1"/>
  </linearGradient>
  <linearGradient id="telinkrin" x1="0%" x2="0%" y1="0%" y2="100%">
   <stop offset="0%" style="stop-color: #b2ced6; stop-opacity:1"/>
   <stop offset="100%" style="stop-color: #6da5b7; stop-opacity:1"/>
  </linearGradient>
  <linearGradient id="60spsycho" x1="0%" x2="0%" y1="0%" y2="100%">
   <stop offset="0%" style="stop-color: #df5940; stop-opacity:1"/>
   <stop offset="25%" style="stop-color: #d8d15f; stop-opacity:1"/>
   <stop offset="50%" style="stop-color: #e9882a; stop-opacity:1"/>
   <stop offset="100%" style="stop-color: #279362; stop-opacity:1"/>
  </linearGradient>
  <linearGradient id="90ssummer" x1="0%" x2="0%" y1="0%" y2="100%">
   <stop offset="0%" style="stop-color: #f618c7; stop-opacity:1"/>
   <stop offset="20%" style="stop-color: #94ffab; stop-opacity:1"/>
   <stop offset="50%" style="stop-color: #fbfd54; stop-opacity:1"/>
   <stop offset="100%" style="stop-color: #0f83ae; stop-opacity:1"/>
  </linearGradient>
 </defs>
 <path fill="url(#oomox)" class="ColorScheme-Text" d="M 7.4134496,15.93721 C 4.146945,15.629591 1.2732042,13.29326 0.41594743,10.248287 0.31415163,9.8867107 0.15744533,8.8540384 0.13166403,8.3748946 c -0.004081,-0.075882 -0.0282042,-0.064442 -0.0774511,0.036732 -0.1271191,0.2611571 -0.0116085,-0.8424416 0.1497362,-1.4305793 0.0828304,-0.3019405 0.1381639,-0.561077 0.1229629,-0.5758594 -0.0152041,-0.014783 -0.0825364,0.06696 -0.1496324,0.1816506 -0.114665,0.1959986 -0.1191089,0.1974918 -0.073966,0.024859 C 0.22584103,6.1431383 0.68208383,5.1741512 0.99722813,4.713169 1.2213075,4.3853945 1.3451221,4.1241086 1.3451221,3.9790121 c 0,-0.6323733 0.3841975,-1.6401286 0.8153416,-2.1386489 l 0.2189389,-0.2531555 0.051856,0.3633539 c 0.034014,0.2383424 0.1485057,0.5023732 0.332775,0.7674196 l 0.2809203,0.4040648 0.8310282,0.044242 c 0.4570658,0.024334 0.887156,0.067938 0.9557558,0.0969 0.083714,0.035344 0.2405819,-0.033336 0.4770559,-0.208868 0.4447931,-0.3301629 1.0707568,-0.5149527 1.5216418,-0.4492 l 0.333446,0.048625 -0.364826,0.2804314 c -0.378927,0.2912709 -0.845502,0.916819 -0.845502,1.1335821 0,0.1859511 0.222821,0.4814799 0.445619,0.5910251 0.108097,0.05315 0.408677,0.1191838 0.667956,0.146744 0.259279,0.027559 0.576369,0.085686 0.704644,0.1291703 0.201699,0.068376 0.226873,0.1051378 0.18622,0.2719349 -0.0881,0.3614624 -0.316275,0.559969 -1.066161,0.9275345 l -0.749409,0.3673317 -0.01441,0.4695082 C 6.1103726,7.5455353 6.0348226,7.6395888 5.7598862,7.429282 5.4984854,7.2293305 5.3383432,7.2316565 5.1461258,7.4381972 4.6995414,7.9180553 4.9750734,8.533652 5.9074382,9.1391319 c 0.3467854,0.2252017 0.8647024,0.2542712 1.4506374,0.081419 0.203973,-0.060172 0.55103,-0.1097615 0.771238,-0.1102 0.624998,-0.0012 1.223905,0.3602919 1.223905,0.738816 0,0.2202051 -0.126517,0.3006261 -0.373953,0.2377021 -0.105962,-0.02694 -0.412374,0.08135 -0.887026,0.313508 -0.665783,0.325638 -0.778472,0.357151 -1.376574,0.38496 -0.358286,0.01666 -0.7849094,-0.0056 -0.9480525,-0.04936 -0.1631427,-0.0438 -0.3090573,-0.06755 -0.3242552,-0.05277 -0.081467,0.07922 0.8259797,0.825515 1.2232397,1.006004 2.002135,0.909632 4.4528694,-0.142353 5.1034584,-2.1906754 0.183942,-0.5791276 0.202117,-1.5267129 0.03929,-2.0486599 -0.06188,-0.1983522 -0.112872,-0.3865982 -0.113322,-0.4183257 -0.0028,-0.1954698 0.90512,0.5818001 1.260282,1.0789614 0.315675,0.4418862 0.269823,0.2467318 -0.07147,-0.3041969 C 12.603503,7.3521863 12.228224,6.9826706 11.208413,6.1556455 9.6849966,4.9202143 9.1725706,3.6618229 9.5702216,2.1326555 9.7825876,1.3160052 10.479135,-0.00113429 10.698039,6.3142477e-6 10.727089,1.5181425e-4 10.816004,0.15430571 10.89563,0.34255601 c 0.102083,0.2413394 0.369364,0.5553959 0.906372,1.06498679 0.418878,0.3974918 0.782268,0.7227128 0.807533,0.7227128 0.02527,0 0.09581,-0.173563 0.156775,-0.3856979 l 0.110838,-0.3856979 0.119129,0.3741277 c 0.172371,0.541329 0.369528,0.8860412 0.815489,1.4257985 0.601689,0.7282374 1.117464,1.4975807 1.367921,2.0404207 0.262167,0.5682238 0.519564,1.4258299 0.519564,1.7311142 0,0.1502472 0.03036,0.2000398 0.104993,0.1721897 0.238782,-0.089104 0.264355,0.9832506 0.04779,2.0039556 -0.09883,0.4658019 -0.26436,0.9259068 -0.502177,1.3958608 -0.268197,0.529987 -0.358947,0.79658 -0.371946,1.092658 -0.0244,0.555791 -0.450925,1.370176 -0.942886,1.800307 -0.20763,0.181533 -0.640547,0.480554 -0.962036,0.664493 -0.321492,0.183941 -0.788839,0.527744 -1.03855,0.764008 -0.703677,0.665783 -1.502877,0.971646 -2.9174294,1.11653 -0.782266,0.08013 -0.820447,0.08006 -1.703561,-0.0032 z"/>
</svg>
