<svg xmlns="http://www.w3.org/2000/svg" width="16" height="16" version="1.1">
 <defs>
   <style id="current-color-scheme" type="text/css">
   .ColorScheme-Text { color: #e9ecf2; } .ColorScheme-Highlight { color:#5294e2; }
  </style>
  <linearGradient id="arrongin" x1="0%" x2="0%" y1="0%" y2="100%">
   <stop offset="0%" style="stop-color:#dd9b44; stop-opacity:1"/>
   <stop offset="100%" style="stop-color:#ad6c16; stop-opacity:1"/>
  </linearGradient>
  <linearGradient id="aurora" x1="0%" x2="0%" y1="0%" y2="100%">
   <stop offset="0%" style="stop-color:#09D4DF; stop-opacity:1"/>
   <stop offset="100%" style="stop-color:#9269F4; stop-opacity:1"/>
  </linearGradient>
  <linearGradient id="cyberneon" x1="0%" x2="0%" y1="0%" y2="100%">
    <stop offset="0" style="stop-color:#0abdc6; stop-opacity:1"/>
    <stop offset="1" style="stop-color:#ea00d9; stop-opacity:1"/>
  </linearGradient>
  <linearGradient id="fitdance" x1="0%" x2="0%" y1="0%" y2="100%">
   <stop offset="0%" style="stop-color:#1AD6AB; stop-opacity:1"/>
   <stop offset="100%" style="stop-color:#329DB6; stop-opacity:1"/>
  </linearGradient>
  <linearGradient id="oomox" x1="0%" x2="0%" y1="0%" y2="100%">
   <stop offset="0%" style="stop-color:#f2bac9; stop-opacity:1"/>
   <stop offset="100%" style="stop-color:#d6c9de; stop-opacity:1"/>
  </linearGradient>
  <linearGradient id="rainblue" x1="0%" x2="0%" y1="0%" y2="100%">
   <stop offset="0%" style="stop-color:#00F260; stop-opacity:1"/>
   <stop offset="100%" style="stop-color:#0575E6; stop-opacity:1"/>
  </linearGradient>
  <linearGradient id="sunrise" x1="0%" x2="0%" y1="0%" y2="100%">
   <stop offset="0%" style="stop-color: #FF8501; stop-opacity:1"/>
   <stop offset="100%" style="stop-color: #FFCB01; stop-opacity:1"/>
  </linearGradient>
  <linearGradient id="telinkrin" x1="0%" x2="0%" y1="0%" y2="100%">
   <stop offset="0%" style="stop-color: #b2ced6; stop-opacity:1"/>
   <stop offset="100%" style="stop-color: #6da5b7; stop-opacity:1"/>
  </linearGradient>
  <linearGradient id="60spsycho" x1="0%" x2="0%" y1="0%" y2="100%">
   <stop offset="0%" style="stop-color: #df5940; stop-opacity:1"/>
   <stop offset="25%" style="stop-color: #d8d15f; stop-opacity:1"/>
   <stop offset="50%" style="stop-color: #e9882a; stop-opacity:1"/>
   <stop offset="100%" style="stop-color: #279362; stop-opacity:1"/>
  </linearGradient>
  <linearGradient id="90ssummer" x1="0%" x2="0%" y1="0%" y2="100%">
   <stop offset="0%" style="stop-color: #f618c7; stop-opacity:1"/>
   <stop offset="20%" style="stop-color: #94ffab; stop-opacity:1"/>
   <stop offset="50%" style="stop-color: #fbfd54; stop-opacity:1"/>
   <stop offset="100%" style="stop-color: #0f83ae; stop-opacity:1"/>
  </linearGradient>
 </defs>
 <path fill="url(#oomox)" class="ColorScheme-Text" d="M 1.784 15.237 C 1.832 14.772 2.109 13.769 2.797 11.569 C 3.961 7.847 4.691 3.616 4.381 2.386 C 4.304 2.081 4.296 1.924 4.352 1.853 C 4.528 1.634 5.235 1.395 5.817 1.358 C 7.019 1.333 6.959 1.778 6.92 2.746 C 6.884 3.614 6.655 5.245 6.442 6.339 C 6.376 6.678 6.341 7.006 6.364 7.069 C 6.398 7.162 6.721 7.181 8.257 7.18 C 9.275 7.18 10.149 7.152 10.199 7.119 C 10.355 7.017 10.446 6.672 11.105 3.678 C 11.458 2.077 11.807 0.66 11.881 0.53 C 12.049 0.234 12.463 0 12.82 0 C 13.184 0 13.825 0.202 14.045 0.387 L 14.222 0.535 L 14.053 1.037 C 13.666 2.186 12.591 7.313 12.169 10.022 C 12.058 10.738 11.9 11.668 11.819 12.089 C 11.643 13.001 11.639 13.349 11.797 13.771 C 12.047 14.438 12.035 14.503 11.628 14.689 C 11.427 14.781 10.966 14.908 10.603 14.971 C 9.378 15.185 9.004 14.912 9.003 13.805 C 9.003 13.06 9.072 12.662 9.542 10.705 C 9.749 9.843 9.918 9.069 9.918 8.984 C 9.918 8.839 9.881 8.832 9.389 8.883 C 9.098 8.912 8.209 8.941 7.413 8.947 C 6.617 8.952 5.942 8.981 5.914 9.01 C 5.885 9.04 5.728 9.661 5.564 10.391 C 5.4 11.121 5.105 12.322 4.909 13.06 C 4.712 13.798 4.537 14.622 4.519 14.891 C 4.498 15.21 4.443 15.42 4.362 15.495 C 4.176 15.665 3.26 15.935 2.683 15.989 C 1.98 16.063 1.732 15.754 1.784 15.237 L 1.784 15.237 Z"/>
</svg>
