<svg xmlns="http://www.w3.org/2000/svg" width="16" height="16" version="1.1">
 <defs>
   <style id="current-color-scheme" type="text/css">
   .ColorScheme-Text { color: #e9ecf2; } .ColorScheme-Highlight { color:#5294e2; }
  </style>
  <linearGradient id="arrongin" x1="0%" x2="0%" y1="0%" y2="100%">
   <stop offset="0%" style="stop-color:#dd9b44; stop-opacity:1"/>
   <stop offset="100%" style="stop-color:#ad6c16; stop-opacity:1"/>
  </linearGradient>
  <linearGradient id="aurora" x1="0%" x2="0%" y1="0%" y2="100%">
   <stop offset="0%" style="stop-color:#09D4DF; stop-opacity:1"/>
   <stop offset="100%" style="stop-color:#9269F4; stop-opacity:1"/>
  </linearGradient>
  <linearGradient id="cyberneon" x1="0%" x2="0%" y1="0%" y2="100%">
    <stop offset="0" style="stop-color:#0abdc6; stop-opacity:1"/>
    <stop offset="1" style="stop-color:#ea00d9; stop-opacity:1"/>
  </linearGradient>
  <linearGradient id="fitdance" x1="0%" x2="0%" y1="0%" y2="100%">
   <stop offset="0%" style="stop-color:#1AD6AB; stop-opacity:1"/>
   <stop offset="100%" style="stop-color:#329DB6; stop-opacity:1"/>
  </linearGradient>
  <linearGradient id="oomox" x1="0%" x2="0%" y1="0%" y2="100%">
   <stop offset="0%" style="stop-color:#f2bac9; stop-opacity:1"/>
   <stop offset="100%" style="stop-color:#d6c9de; stop-opacity:1"/>
  </linearGradient>
  <linearGradient id="rainblue" x1="0%" x2="0%" y1="0%" y2="100%">
   <stop offset="0%" style="stop-color:#00F260; stop-opacity:1"/>
   <stop offset="100%" style="stop-color:#0575E6; stop-opacity:1"/>
  </linearGradient>
  <linearGradient id="sunrise" x1="0%" x2="0%" y1="0%" y2="100%">
   <stop offset="0%" style="stop-color: #FF8501; stop-opacity:1"/>
   <stop offset="100%" style="stop-color: #FFCB01; stop-opacity:1"/>
  </linearGradient>
  <linearGradient id="telinkrin" x1="0%" x2="0%" y1="0%" y2="100%">
   <stop offset="0%" style="stop-color: #b2ced6; stop-opacity:1"/>
   <stop offset="100%" style="stop-color: #6da5b7; stop-opacity:1"/>
  </linearGradient>
  <linearGradient id="60spsycho" x1="0%" x2="0%" y1="0%" y2="100%">
   <stop offset="0%" style="stop-color: #df5940; stop-opacity:1"/>
   <stop offset="25%" style="stop-color: #d8d15f; stop-opacity:1"/>
   <stop offset="50%" style="stop-color: #e9882a; stop-opacity:1"/>
   <stop offset="100%" style="stop-color: #279362; stop-opacity:1"/>
  </linearGradient>
  <linearGradient id="90ssummer" x1="0%" x2="0%" y1="0%" y2="100%">
   <stop offset="0%" style="stop-color: #f618c7; stop-opacity:1"/>
   <stop offset="20%" style="stop-color: #94ffab; stop-opacity:1"/>
   <stop offset="50%" style="stop-color: #fbfd54; stop-opacity:1"/>
   <stop offset="100%" style="stop-color: #0f83ae; stop-opacity:1"/>
  </linearGradient>
 </defs>
 <path fill="url(#oomox)" class="ColorScheme-Text" d="M 6.006 0.131 C 5.887 0.236 5.857 0.394 5.857 0.579 C 5.857 0.921 5.976 1.342 6.036 1.5 C 6.036 1.5 6.271 3.269 6.301 3.479 C 6.032 3.506 5.701 3.532 5.522 3.585 L 5.283 3.585 C 4.776 3.611 4.298 3.637 4.089 3.822 L 4 3.9 L 4.089 4.006 C 4.239 4.164 4.298 4.611 4.358 5.085 C 4.507 6.058 4.686 7.342 5.581 7.815 L 5.76 7.894 L 5.76 7.71 C 5.76 7.71 5.79 7.631 5.79 7.526 C 5.79 7.447 5.76 7.315 5.731 7.131 C 5.969 7.158 6.331 7.21 6.51 7.21 C 6.54 7.421 7.461 16 7.461 16 L 7.759 16 C 7.759 16 8.197 7.527 8.197 7.263 C 8.405 7.263 9.221 7.29 9.49 7.316 C 9.43 7.474 9.191 8.132 9.191 8.132 L 9.609 7.79 C 9.728 7.711 12.324 5.559 11.966 4.19 C 11.847 3.743 11.429 3.427 10.743 3.269 L 10.683 3.269 C 10.295 3.269 9.211 3.296 8.316 3.348 C 8.346 2.664 8.346 2.368 8.346 2.184 L 8.346 1.947 C 8.346 1.816 8.386 1.632 8.505 1.5 C 8.624 1.342 8.774 1.211 8.774 1.053 C 8.774 1 8.744 0.947 8.714 0.895 C 8.535 0.658 6.931 0.053 6.364 0 C 6.185 0.026 6.066 0.053 6.006 0.132 L 6.006 0.131 Z M 6.182 4.374 L 6.331 4.374 C 6.331 4.611 6.42 6.342 6.45 6.579 C 6.211 6.552 5.79 6.5 5.611 6.5 C 5.522 6.157 5.492 5.789 5.462 5.421 C 5.432 5.105 5.402 4.716 5.343 4.427 C 5.611 4.427 6.182 4.374 6.182 4.374 L 6.182 4.374 Z M 8.256 5.263 C 8.256 5.263 8.286 4.558 8.286 4.348 C 8.674 4.4 9.072 4.427 9.549 4.427 L 10.087 4.427 C 10.087 4.532 10.057 4.664 10.057 4.664 C 9.997 5.243 9.907 6 9.639 6.684 C 9.46 6.684 8.465 6.631 8.226 6.605 C 8.226 6.421 8.256 5.263 8.256 5.263 L 8.256 5.263 Z"/>
</svg>
