<svg xmlns="http://www.w3.org/2000/svg" width="16" height="16" version="1.1">
 <defs>
   <style id="current-color-scheme" type="text/css">
   .ColorScheme-Text { color: #e9ecf2; } .ColorScheme-Highlight { color:#5294e2; }
  </style>
  <linearGradient id="arrongin" x1="0%" x2="0%" y1="0%" y2="100%">
   <stop offset="0%" style="stop-color:#dd9b44; stop-opacity:1"/>
   <stop offset="100%" style="stop-color:#ad6c16; stop-opacity:1"/>
  </linearGradient>
  <linearGradient id="aurora" x1="0%" x2="0%" y1="0%" y2="100%">
   <stop offset="0%" style="stop-color:#09D4DF; stop-opacity:1"/>
   <stop offset="100%" style="stop-color:#9269F4; stop-opacity:1"/>
  </linearGradient>
  <linearGradient id="cyberneon" x1="0%" x2="0%" y1="0%" y2="100%">
    <stop offset="0" style="stop-color:#0abdc6; stop-opacity:1"/>
    <stop offset="1" style="stop-color:#ea00d9; stop-opacity:1"/>
  </linearGradient>
  <linearGradient id="fitdance" x1="0%" x2="0%" y1="0%" y2="100%">
   <stop offset="0%" style="stop-color:#1AD6AB; stop-opacity:1"/>
   <stop offset="100%" style="stop-color:#329DB6; stop-opacity:1"/>
  </linearGradient>
  <linearGradient id="oomox" x1="0%" x2="0%" y1="0%" y2="100%">
   <stop offset="0%" style="stop-color:#f2bac9; stop-opacity:1"/>
   <stop offset="100%" style="stop-color:#d6c9de; stop-opacity:1"/>
  </linearGradient>
  <linearGradient id="rainblue" x1="0%" x2="0%" y1="0%" y2="100%">
   <stop offset="0%" style="stop-color:#00F260; stop-opacity:1"/>
   <stop offset="100%" style="stop-color:#0575E6; stop-opacity:1"/>
  </linearGradient>
  <linearGradient id="sunrise" x1="0%" x2="0%" y1="0%" y2="100%">
   <stop offset="0%" style="stop-color: #FF8501; stop-opacity:1"/>
   <stop offset="100%" style="stop-color: #FFCB01; stop-opacity:1"/>
  </linearGradient>
  <linearGradient id="telinkrin" x1="0%" x2="0%" y1="0%" y2="100%">
   <stop offset="0%" style="stop-color: #b2ced6; stop-opacity:1"/>
   <stop offset="100%" style="stop-color: #6da5b7; stop-opacity:1"/>
  </linearGradient>
  <linearGradient id="60spsycho" x1="0%" x2="0%" y1="0%" y2="100%">
   <stop offset="0%" style="stop-color: #df5940; stop-opacity:1"/>
   <stop offset="25%" style="stop-color: #d8d15f; stop-opacity:1"/>
   <stop offset="50%" style="stop-color: #e9882a; stop-opacity:1"/>
   <stop offset="100%" style="stop-color: #279362; stop-opacity:1"/>
  </linearGradient>
  <linearGradient id="90ssummer" x1="0%" x2="0%" y1="0%" y2="100%">
   <stop offset="0%" style="stop-color: #f618c7; stop-opacity:1"/>
   <stop offset="20%" style="stop-color: #94ffab; stop-opacity:1"/>
   <stop offset="50%" style="stop-color: #fbfd54; stop-opacity:1"/>
   <stop offset="100%" style="stop-color: #0f83ae; stop-opacity:1"/>
  </linearGradient>
 </defs>
 <path fill="url(#oomox)" class="ColorScheme-Text" fill-rule="evenodd" d="M 0 2.286 C 0 1.024 1.024 0 2.286 0 C 3.547 0 4.571 1.024 4.571 2.286 C 4.571 3.547 3.547 4.571 2.286 4.571 C 1.024 4.571 0 3.547 0 2.286 L 0 2.286 L 0 2.286 Z M 11.429 2.286 C 11.429 1.024 12.453 0 13.714 0 C 14.976 0 16 1.024 16 2.286 C 16 3.547 14.976 4.571 13.714 4.571 C 12.453 4.571 11.429 3.547 11.429 2.286 L 11.429 2.286 L 11.429 2.286 Z M 1.913 11.778 C 3.169 14.389 5.489 15.998 8 16 C 10.51 15.995 12.828 14.387 14.082 11.778 L 13.228 11.778 C 11.897 13.564 9.997 14.587 8 14.593 C 6.003 14.588 4.102 13.565 2.77 11.778 L 1.913 11.778 L 1.913 11.778 Z M 5.714 8 C 6.017 8 6.308 8.12 6.522 8.335 C 6.737 8.549 6.857 8.84 6.857 9.143 C 6.857 9.446 6.737 9.737 6.522 9.951 C 6.308 10.165 6.017 10.286 5.714 10.286 C 5.411 10.286 5.12 10.165 4.906 9.951 C 4.692 9.737 4.571 9.446 4.571 9.143 C 4.571 8.84 4.692 8.549 4.906 8.335 C 5.12 8.12 5.411 8 5.714 8 L 5.714 8 L 5.714 8 Z M 10.286 8 C 10.589 8 10.879 8.12 11.094 8.335 C 11.308 8.549 11.428 8.84 11.428 9.143 C 11.428 9.446 11.308 9.737 11.094 9.951 C 10.879 10.165 10.589 10.286 10.286 10.286 C 9.982 10.286 9.692 10.165 9.477 9.951 C 9.263 9.737 9.143 9.446 9.143 9.143 C 9.143 8.84 9.263 8.549 9.477 8.335 C 9.692 8.12 9.982 8 10.286 8 L 10.286 8 L 10.286 8 Z M 8 5.714 C 5.475 5.714 3.428 7.249 3.428 9.143 C 3.428 10.052 3.91 10.924 4.767 11.567 C 5.625 12.21 6.787 12.571 8 12.571 C 9.212 12.571 10.375 12.21 11.232 11.567 C 12.09 10.924 12.571 10.052 12.571 9.143 C 12.571 7.249 10.525 5.714 8 5.714 L 8 5.714 L 8 5.714 Z"/>
</svg>
