<svg xmlns="http://www.w3.org/2000/svg" width="16" height="16" version="1.1">
 <defs>
   <style id="current-color-scheme" type="text/css">
   .ColorScheme-Text { color: #e9ecf2; } .ColorScheme-Highlight { color:#5294e2; }
  </style>
  <linearGradient id="arrongin" x1="0%" x2="0%" y1="0%" y2="100%">
   <stop offset="0%" style="stop-color:#dd9b44; stop-opacity:1"/>
   <stop offset="100%" style="stop-color:#ad6c16; stop-opacity:1"/>
  </linearGradient>
  <linearGradient id="aurora" x1="0%" x2="0%" y1="0%" y2="100%">
   <stop offset="0%" style="stop-color:#09D4DF; stop-opacity:1"/>
   <stop offset="100%" style="stop-color:#9269F4; stop-opacity:1"/>
  </linearGradient>
  <linearGradient id="cyberneon" x1="0%" x2="0%" y1="0%" y2="100%">
    <stop offset="0" style="stop-color:#0abdc6; stop-opacity:1"/>
    <stop offset="1" style="stop-color:#ea00d9; stop-opacity:1"/>
  </linearGradient>
  <linearGradient id="fitdance" x1="0%" x2="0%" y1="0%" y2="100%">
   <stop offset="0%" style="stop-color:#1AD6AB; stop-opacity:1"/>
   <stop offset="100%" style="stop-color:#329DB6; stop-opacity:1"/>
  </linearGradient>
  <linearGradient id="oomox" x1="0%" x2="0%" y1="0%" y2="100%">
   <stop offset="0%" style="stop-color:#f2bac9; stop-opacity:1"/>
   <stop offset="100%" style="stop-color:#d6c9de; stop-opacity:1"/>
  </linearGradient>
  <linearGradient id="rainblue" x1="0%" x2="0%" y1="0%" y2="100%">
   <stop offset="0%" style="stop-color:#00F260; stop-opacity:1"/>
   <stop offset="100%" style="stop-color:#0575E6; stop-opacity:1"/>
  </linearGradient>
  <linearGradient id="sunrise" x1="0%" x2="0%" y1="0%" y2="100%">
   <stop offset="0%" style="stop-color: #FF8501; stop-opacity:1"/>
   <stop offset="100%" style="stop-color: #FFCB01; stop-opacity:1"/>
  </linearGradient>
  <linearGradient id="telinkrin" x1="0%" x2="0%" y1="0%" y2="100%">
   <stop offset="0%" style="stop-color: #b2ced6; stop-opacity:1"/>
   <stop offset="100%" style="stop-color: #6da5b7; stop-opacity:1"/>
  </linearGradient>
  <linearGradient id="60spsycho" x1="0%" x2="0%" y1="0%" y2="100%">
   <stop offset="0%" style="stop-color: #df5940; stop-opacity:1"/>
   <stop offset="25%" style="stop-color: #d8d15f; stop-opacity:1"/>
   <stop offset="50%" style="stop-color: #e9882a; stop-opacity:1"/>
   <stop offset="100%" style="stop-color: #279362; stop-opacity:1"/>
  </linearGradient>
  <linearGradient id="90ssummer" x1="0%" x2="0%" y1="0%" y2="100%">
   <stop offset="0%" style="stop-color: #f618c7; stop-opacity:1"/>
   <stop offset="20%" style="stop-color: #94ffab; stop-opacity:1"/>
   <stop offset="50%" style="stop-color: #fbfd54; stop-opacity:1"/>
   <stop offset="100%" style="stop-color: #0f83ae; stop-opacity:1"/>
  </linearGradient>
 </defs>
 <path fill="url(#oomox)" class="ColorScheme-Text" d="M 8.025 1.333 C 7.952 1.34 7.895 1.389 7.877 1.476 C 7.866 1.531 7.871 1.622 7.889 1.685 C 7.907 1.747 7.921 1.821 7.921 1.852 C 7.921 1.882 7.949 1.946 7.981 1.995 C 8.037 2.078 8.037 2.087 7.994 2.147 C 7.933 2.234 7.825 2.295 7.701 2.314 C 7.6 2.329 7.598 2.332 7.598 2.444 C 7.598 2.548 7.586 2.566 7.479 2.642 C 7.414 2.688 7.31 2.733 7.247 2.743 C 7.159 2.757 7.112 2.785 7.042 2.866 C 6.935 2.99 6.704 3.1 6.597 3.077 C 6.557 3.068 6.491 3.028 6.449 2.987 C 6.358 2.898 6.245 2.888 6.2 2.965 C 6.151 3.05 6.194 3.154 6.329 3.276 C 6.399 3.339 6.454 3.409 6.454 3.433 C 6.454 3.502 6.346 3.611 6.235 3.654 C 6.023 3.735 5.982 3.836 6.085 4.023 C 6.115 4.076 6.153 4.17 6.171 4.231 C 6.216 4.385 6.15 4.573 6.015 4.671 C 5.903 4.753 5.888 4.851 5.975 4.924 C 6.086 5.016 6.05 5.083 5.84 5.172 C 5.536 5.302 5.456 5.466 5.564 5.739 C 5.627 5.9 5.621 5.934 5.516 6.008 C 5.415 6.079 5.36 6.171 5.285 6.391 C 5.221 6.58 5.177 6.637 5.042 6.716 C 4.901 6.799 4.705 7.068 4.705 7.181 C 4.705 7.261 4.928 7.599 5.102 7.784 C 5.198 7.886 5.233 8.051 5.183 8.164 C 5.123 8.301 4.981 8.446 4.861 8.494 C 4.749 8.539 4.746 8.539 4.618 8.476 C 4.547 8.441 4.422 8.343 4.341 8.258 C 4.156 8.065 4.089 8.057 3.987 8.217 C 3.933 8.302 3.915 8.366 3.915 8.478 C 3.915 8.65 3.904 8.657 3.605 8.688 C 3.418 8.707 3.329 8.745 3.14 8.883 C 3.01 8.978 2.984 8.979 2.876 8.895 C 2.829 8.859 2.666 8.791 2.514 8.744 C 2.267 8.668 2.229 8.648 2.161 8.557 C 2.119 8.5 2.077 8.426 2.068 8.39 C 2.037 8.27 1.619 7.707 1.519 7.651 C 1.495 7.637 1.38 7.587 1.263 7.539 C 1.065 7.457 1.038 7.452 0.83 7.466 C 0.563 7.483 0.424 7.548 0.26 7.732 C 0.13 7.878 0.088 7.974 0.049 8.221 C -0.042 8.792 -0.02 8.869 0.234 8.888 C 0.414 8.902 0.469 8.941 0.583 9.132 C 0.624 9.2 0.676 9.264 0.699 9.276 C 0.743 9.297 1.013 9.399 1.247 9.481 C 1.407 9.538 1.483 9.599 1.624 9.779 C 1.68 9.851 1.774 9.958 1.834 10.019 C 1.893 10.079 1.94 10.149 1.94 10.175 C 1.94 10.201 1.877 10.282 1.8 10.356 C 1.641 10.506 1.627 10.568 1.7 10.793 C 1.733 10.896 1.765 10.935 1.862 10.993 C 1.929 11.032 2.038 11.11 2.104 11.166 C 2.225 11.268 2.226 11.269 2.182 11.346 C 2.158 11.389 2.124 11.432 2.107 11.442 C 2.09 11.451 2.058 11.499 2.036 11.547 C 2 11.627 2.001 11.645 2.054 11.74 C 2.1 11.822 2.108 11.87 2.093 11.971 C 2.078 12.074 2.086 12.113 2.13 12.172 C 2.161 12.212 2.207 12.299 2.235 12.363 C 2.311 12.543 2.323 12.55 2.789 12.733 C 2.874 12.767 2.899 12.796 2.949 12.924 C 2.982 13.008 3.022 13.124 3.038 13.182 C 3.086 13.35 3.242 13.453 3.45 13.453 C 3.568 13.453 3.689 13.494 3.689 13.533 C 3.689 13.582 3.881 13.805 3.987 13.88 C 4.044 13.92 4.132 13.958 4.19 13.958 C 4.275 13.964 4.324 13.997 4.492 14.16 C 4.602 14.266 4.733 14.406 4.784 14.471 C 4.835 14.536 4.917 14.609 4.967 14.633 L 4.967 14.637 C 5.062 14.681 5.114 14.68 5.736 14.628 C 6.05 14.602 6.105 14.576 6.146 14.437 C 6.196 14.268 6.156 14.181 5.995 14.108 C 5.863 14.048 5.858 14.047 5.734 14.091 C 5.617 14.128 5.596 14.128 5.473 14.091 C 5.4 14.069 5.293 14.045 5.235 14.036 C 5.097 14.017 5.101 13.98 5.249 13.919 C 5.401 13.856 5.443 13.856 5.532 13.92 C 5.681 14.028 5.766 13.961 5.732 13.764 C 5.717 13.679 5.729 13.661 5.888 13.517 C 5.982 13.432 6.113 13.334 6.179 13.301 C 6.284 13.248 6.324 13.243 6.497 13.257 C 6.665 13.27 6.708 13.265 6.786 13.22 C 6.887 13.162 6.895 13.124 6.843 12.946 C 6.813 12.841 6.816 12.817 6.865 12.733 C 6.938 12.608 7.067 12.492 7.132 12.492 C 7.203 12.492 7.385 12.592 7.46 12.673 C 7.515 12.731 7.546 12.736 7.743 12.745 C 7.864 12.753 7.977 12.753 7.993 12.753 C 8.008 12.753 8.118 12.746 8.236 12.738 C 8.426 12.722 8.471 12.728 8.634 12.788 C 8.735 12.825 8.897 12.873 8.994 12.894 C 9.196 12.937 9.258 12.98 9.347 13.142 C 9.423 13.281 9.457 13.311 9.711 13.464 C 9.997 13.638 10.205 13.652 10.494 13.517 C 10.568 13.482 10.653 13.454 10.684 13.454 C 10.773 13.454 10.882 13.347 10.922 13.22 C 10.956 13.112 10.963 13.103 11.059 13.103 C 11.116 13.103 11.184 13.084 11.215 13.058 C 11.245 13.033 11.307 13.013 11.353 13.013 C 11.464 13.013 11.505 12.97 11.505 12.854 C 11.505 12.777 11.524 12.743 11.605 12.678 C 11.808 12.513 11.823 12.509 11.972 12.569 C 12.177 12.652 12.268 12.639 12.637 12.465 C 12.755 12.409 12.884 12.363 12.924 12.363 C 12.968 12.363 13.072 12.416 13.184 12.494 C 13.452 12.68 13.553 12.663 13.64 12.417 C 13.696 12.256 13.687 12.235 13.494 12.1 C 13.311 11.971 13.296 11.942 13.358 11.825 C 13.422 11.706 13.534 11.645 13.812 11.58 C 14.044 11.526 14.112 11.495 14.507 11.264 C 14.701 11.151 14.783 11.118 14.868 11.118 C 15.278 11.118 15.48 10.726 15.525 9.841 C 15.532 9.709 15.559 9.615 15.638 9.451 C 15.837 9.039 15.878 8.904 15.92 8.515 C 15.947 8.273 15.951 8.109 15.935 8.042 C 15.918 7.975 15.925 7.771 15.956 7.445 C 16.035 6.6 16.018 6.436 15.825 6.175 C 15.769 6.101 15.739 6.02 15.726 5.91 C 15.703 5.723 15.638 5.557 15.48 5.284 C 15.35 5.061 15.284 4.972 15.071 4.743 C 14.867 4.525 14.86 4.504 14.865 4.231 C 14.869 4.058 14.857 3.962 14.824 3.89 C 14.798 3.835 14.778 3.75 14.778 3.702 C 14.778 3.642 14.761 3.607 14.72 3.588 C 14.64 3.548 14.281 3.541 14.24 3.578 C 14.222 3.595 14.201 3.664 14.193 3.73 C 14.181 3.825 14.163 3.857 14.113 3.879 C 14.018 3.918 13.809 3.8 13.734 3.665 C 13.703 3.609 13.631 3.532 13.574 3.492 C 13.399 3.368 13.373 3.337 13.353 3.228 C 13.337 3.138 13.347 3.1 13.417 2.985 C 13.517 2.822 13.555 2.559 13.492 2.477 C 13.429 2.394 13.282 2.343 13.155 2.363 C 13.052 2.379 13.037 2.392 12.967 2.527 C 12.92 2.618 12.849 2.701 12.783 2.747 C 12.724 2.787 12.634 2.852 12.583 2.892 C 12.479 2.973 12.363 2.985 12.24 2.926 C 12.169 2.893 12.158 2.871 12.141 2.723 C 12.126 2.593 12.102 2.531 12.025 2.432 C 11.971 2.362 11.919 2.26 11.909 2.205 C 11.897 2.132 11.866 2.087 11.796 2.037 C 11.743 2 11.68 1.936 11.657 1.895 C 11.602 1.797 11.459 1.719 11.336 1.719 C 11.25 1.719 11.212 1.742 11.054 1.896 C 10.953 1.994 10.847 2.082 10.817 2.091 C 10.786 2.101 10.691 2.082 10.586 2.044 C 10.387 1.97 10.309 1.964 10.209 2.015 C 10.151 2.047 10.122 2.046 10.026 2.015 C 9.875 1.966 9.802 1.986 9.727 2.097 C 9.607 2.275 9.49 2.269 9.448 2.08 C 9.425 1.977 9.34 1.928 9.178 1.927 C 9.114 1.927 9.004 1.899 8.926 1.863 C 8.764 1.787 8.649 1.782 8.454 1.84 C 8.32 1.879 8.313 1.878 8.276 1.832 C 8.242 1.789 8.243 1.772 8.29 1.702 C 8.365 1.591 8.359 1.53 8.264 1.437 C 8.186 1.359 8.098 1.325 8.025 1.333 Z M 10.494 3.115 C 10.68 3.103 10.91 3.125 11.233 3.185 C 11.356 3.207 11.544 3.24 11.652 3.256 C 11.759 3.272 11.903 3.294 11.972 3.305 C 12.15 3.332 12.262 3.394 12.333 3.506 C 12.388 3.593 12.389 3.605 12.35 3.633 C 12.291 3.673 12.295 3.703 12.362 3.742 C 12.394 3.761 12.417 3.803 12.417 3.841 C 12.417 3.941 12.467 4.008 12.541 4.008 C 12.641 4.008 12.682 4.07 12.642 4.16 C 12.624 4.2 12.613 4.25 12.617 4.27 C 12.623 4.297 12.607 4.306 12.57 4.297 C 12.347 4.257 12.224 4.304 12.283 4.407 C 12.307 4.45 12.299 4.469 12.225 4.525 C 12.125 4.603 12.114 4.657 12.198 4.657 C 12.233 4.657 12.262 4.677 12.271 4.709 C 12.289 4.776 12.302 4.775 12.39 4.696 C 12.454 4.638 12.468 4.635 12.518 4.668 C 12.567 4.7 12.573 4.729 12.566 4.895 C 12.556 5.152 12.609 5.536 12.667 5.631 C 12.758 5.78 12.783 5.976 12.751 6.282 C 12.735 6.438 12.714 6.66 12.705 6.774 C 12.691 6.939 12.673 6.996 12.621 7.055 C 12.549 7.136 12.543 7.192 12.555 7.683 C 12.562 7.953 12.568 7.974 12.646 8.077 C 12.692 8.136 12.754 8.189 12.785 8.198 C 12.841 8.212 12.842 8.212 12.783 8.282 C 12.75 8.32 12.724 8.374 12.724 8.4 C 12.724 8.441 12.739 8.444 12.807 8.432 C 12.878 8.419 12.894 8.425 12.917 8.484 C 12.952 8.572 13.022 8.575 13.062 8.493 C 13.088 8.44 13.112 8.431 13.228 8.43 C 13.348 8.429 13.366 8.437 13.381 8.491 C 13.401 8.567 13.462 8.591 13.537 8.553 C 13.614 8.515 13.656 8.558 13.726 8.744 C 13.795 8.927 13.796 9.032 13.73 9.166 C 13.647 9.334 13.424 9.482 13.028 9.633 C 12.848 9.702 12.774 9.747 12.69 9.838 C 12.514 10.03 12.465 10.104 12.471 10.711 C 12.48 11.691 12.481 11.676 12.419 11.79 C 12.388 11.847 12.369 11.915 12.337 11.942 L 12.337 11.938 C 12.291 11.977 12.223 11.989 12.008 11.999 C 11.858 12.004 11.726 12.001 11.715 11.99 C 11.685 11.958 11.295 11.939 11.15 11.958 C 11.103 11.964 11.094 11.95 11.094 11.869 C 11.094 11.772 11.004 11.647 10.979 11.709 C 10.928 11.834 10.803 11.848 10.803 11.729 C 10.803 11.637 10.711 11.649 10.672 11.745 C 10.63 11.852 10.537 11.857 10.562 11.754 C 10.614 11.543 10.615 11.514 10.573 11.514 C 10.498 11.514 10.463 11.449 10.496 11.369 C 10.538 11.266 10.506 11.155 10.431 11.145 C 10.375 11.138 10.37 11.12 10.363 10.942 C 10.359 10.835 10.356 10.699 10.356 10.639 C 10.357 10.509 10.284 10.519 10.148 10.419 C 10.087 10.374 10.05 10.323 10.05 10.287 C 10.05 10.255 10.032 10.206 10.01 10.178 C 9.971 10.129 9.969 10.129 9.9 10.19 C 9.837 10.245 9.814 10.249 9.682 10.233 C 9.493 10.209 9.23 10.194 8.81 10.18 C 8.504 10.17 8.316 10.146 8.248 10.106 C 8.233 10.098 8.078 10.077 7.903 10.061 C 7.728 10.045 7.543 10.017 7.491 9.996 C 7.439 9.977 7.333 9.959 7.255 9.959 C 7.176 9.959 6.995 9.943 6.852 9.924 C 6.564 9.886 6.474 9.7 6.417 9.536 C 6.401 9.489 6.349 9.427 6.302 9.399 C 6.221 9.349 6.217 9.34 6.226 9.191 C 6.232 9.095 6.253 9.019 6.282 8.99 C 6.32 8.95 6.323 8.924 6.296 8.82 C 6.267 8.703 6.268 8.694 6.333 8.649 C 6.37 8.622 6.401 8.585 6.401 8.566 C 6.401 8.546 6.428 8.516 6.46 8.5 C 6.506 8.478 6.516 8.455 6.504 8.4 C 6.493 8.35 6.508 8.301 6.555 8.237 C 6.62 8.147 6.62 8.144 6.57 8.101 C 6.519 8.058 6.52 8.051 6.614 7.889 C 6.703 7.737 6.708 7.715 6.677 7.637 C 6.622 7.494 6.747 7.297 7.069 7.018 C 7.301 6.816 7.343 6.769 7.399 6.626 C 7.434 6.537 7.488 6.405 7.52 6.334 C 7.551 6.262 7.587 6.169 7.599 6.126 C 7.612 6.083 7.666 5.963 7.722 5.859 C 7.803 5.707 7.901 5.592 8.227 5.275 C 8.45 5.058 8.679 4.817 8.736 4.74 C 8.954 4.444 8.992 4.382 9.021 4.284 C 9.038 4.228 9.104 4.118 9.168 4.038 C 9.285 3.892 9.375 3.754 9.451 3.602 C 9.551 3.402 9.87 3.23 10.319 3.137 C 10.374 3.126 10.431 3.119 10.494 3.115 Z M 10.038 6.262 C 10.014 6.27 9.985 6.284 9.95 6.307 C 9.894 6.344 9.817 6.394 9.778 6.419 C 9.503 6.595 9.277 6.847 9.277 6.979 C 9.276 7.032 9.164 7.246 9.06 7.394 C 9.02 7.449 8.979 7.543 8.967 7.603 C 8.956 7.663 8.93 7.76 8.911 7.821 C 8.879 7.919 8.88 8.202 8.929 8.254 C 8.998 8.326 9.19 8.408 9.356 8.434 L 9.356 8.434 C 9.427 8.445 9.749 8.457 10.072 8.457 C 10.763 8.461 10.877 8.439 10.981 8.283 C 11.085 8.126 11.114 7.762 11.086 7.671 C 11.056 7.573 10.983 7.491 10.926 7.491 C 10.842 7.491 10.667 7.377 10.651 7.311 C 10.642 7.275 10.61 7.186 10.58 7.115 C 10.493 6.91 10.455 6.811 10.415 6.689 C 10.379 6.575 10.176 6.304 10.095 6.262 C 10.081 6.255 10.062 6.255 10.038 6.262 Z"/>
</svg>
