<svg xmlns="http://www.w3.org/2000/svg" width="16" height="16" version="1.1">
 <defs>
   <style id="current-color-scheme" type="text/css">
   .ColorScheme-Text { color: #e9ecf2; } .ColorScheme-Highlight { color:#5294e2; }
  </style>
  <linearGradient id="arrongin" x1="0%" x2="0%" y1="0%" y2="100%">
   <stop offset="0%" style="stop-color:#dd9b44; stop-opacity:1"/>
   <stop offset="100%" style="stop-color:#ad6c16; stop-opacity:1"/>
  </linearGradient>
  <linearGradient id="aurora" x1="0%" x2="0%" y1="0%" y2="100%">
   <stop offset="0%" style="stop-color:#09D4DF; stop-opacity:1"/>
   <stop offset="100%" style="stop-color:#9269F4; stop-opacity:1"/>
  </linearGradient>
  <linearGradient id="cyberneon" x1="0%" x2="0%" y1="0%" y2="100%">
    <stop offset="0" style="stop-color:#0abdc6; stop-opacity:1"/>
    <stop offset="1" style="stop-color:#ea00d9; stop-opacity:1"/>
  </linearGradient>
  <linearGradient id="fitdance" x1="0%" x2="0%" y1="0%" y2="100%">
   <stop offset="0%" style="stop-color:#1AD6AB; stop-opacity:1"/>
   <stop offset="100%" style="stop-color:#329DB6; stop-opacity:1"/>
  </linearGradient>
  <linearGradient id="oomox" x1="0%" x2="0%" y1="0%" y2="100%">
   <stop offset="0%" style="stop-color:#f2bac9; stop-opacity:1"/>
   <stop offset="100%" style="stop-color:#d6c9de; stop-opacity:1"/>
  </linearGradient>
  <linearGradient id="rainblue" x1="0%" x2="0%" y1="0%" y2="100%">
   <stop offset="0%" style="stop-color:#00F260; stop-opacity:1"/>
   <stop offset="100%" style="stop-color:#0575E6; stop-opacity:1"/>
  </linearGradient>
  <linearGradient id="sunrise" x1="0%" x2="0%" y1="0%" y2="100%">
   <stop offset="0%" style="stop-color: #FF8501; stop-opacity:1"/>
   <stop offset="100%" style="stop-color: #FFCB01; stop-opacity:1"/>
  </linearGradient>
  <linearGradient id="telinkrin" x1="0%" x2="0%" y1="0%" y2="100%">
   <stop offset="0%" style="stop-color: #b2ced6; stop-opacity:1"/>
   <stop offset="100%" style="stop-color: #6da5b7; stop-opacity:1"/>
  </linearGradient>
  <linearGradient id="60spsycho" x1="0%" x2="0%" y1="0%" y2="100%">
   <stop offset="0%" style="stop-color: #df5940; stop-opacity:1"/>
   <stop offset="25%" style="stop-color: #d8d15f; stop-opacity:1"/>
   <stop offset="50%" style="stop-color: #e9882a; stop-opacity:1"/>
   <stop offset="100%" style="stop-color: #279362; stop-opacity:1"/>
  </linearGradient>
  <linearGradient id="90ssummer" x1="0%" x2="0%" y1="0%" y2="100%">
   <stop offset="0%" style="stop-color: #f618c7; stop-opacity:1"/>
   <stop offset="20%" style="stop-color: #94ffab; stop-opacity:1"/>
   <stop offset="50%" style="stop-color: #fbfd54; stop-opacity:1"/>
   <stop offset="100%" style="stop-color: #0f83ae; stop-opacity:1"/>
  </linearGradient>
 </defs>
 <path fill="url(#oomox)" class="ColorScheme-Text" opacity=".5" d="m7.8059 3.00093c-2.86085 0-6.14672 1.54448-7.8059 4.148l5.3428 2.7793c0.4637-0.9736 1.4454-1.5944 2.5238-1.5959 1.0787 0.0012 2.1943 0.622 2.6581 1.5959l5.4753-2.7793c-1.9294-2.73744-5.3333-4.148-8.1941-4.148z"/>
 <path fill="url(#oomox)" class="ColorScheme-Text" d="m11.1856 4.53046-0.2076 0.65868-1.5531 4.91906c-0.2507-0.38247-0.6331-0.65947-1.0746-0.77867-0.9958-0.2668-2.0194 0.3242-2.2862 1.31997-0.2669 0.9958 0.3241 2.0193 1.3199 2.2861 0.8049 0.2151 1.655-0.1293 2.0832-0.844 0.0076-0.0126 0.0143-0.0257 0.0216-0.0385 0.0324-0.0573 0.0617-0.1162 0.0879-0.1765 0.0074-0.017 0.0152-0.0335 0.0221-0.0507 0.0279-0.0686 0.0518-0.1388 0.0714-0.2102 0.0031-0.0133 0.0061-0.0267 0.0089-0.0401l1.7354-5.73727c0.1518 0.2658 0.2841 0.8838 0.4067 1.2415 0.1463 0.4268 0.2271 1.0193 0.1665 1.4172-0.0607 0.3978-0.2399 0.748-0.6779 1.0544-0.1169 0.0683-0.1848 0.1969-0.1768 0.332 0.0081 0.13507 0.0907 0.25377 0.2149 0.30757 0.1242 0.0539 0.2686 0.0336 0.3727-0.0529 0.5853-0.40947 0.8887-0.96787 0.9745-1.53087 0.1669-1.2665-0.5244-2.3338-1.1312-3.3545-0.112-0.24225-0.2521-0.48149-0.3783-0.72227z"/>
</svg>
