<svg xmlns="http://www.w3.org/2000/svg" width="16" height="16" version="1.1">
 <defs>
   <style id="current-color-scheme" type="text/css">
   .ColorScheme-Text { color: #e9ecf2; } .ColorScheme-Highlight { color:#5294e2; }
  </style>
  <linearGradient id="arrongin" x1="0%" x2="0%" y1="0%" y2="100%">
   <stop offset="0%" style="stop-color:#dd9b44; stop-opacity:1"/>
   <stop offset="100%" style="stop-color:#ad6c16; stop-opacity:1"/>
  </linearGradient>
  <linearGradient id="aurora" x1="0%" x2="0%" y1="0%" y2="100%">
   <stop offset="0%" style="stop-color:#09D4DF; stop-opacity:1"/>
   <stop offset="100%" style="stop-color:#9269F4; stop-opacity:1"/>
  </linearGradient>
  <linearGradient id="cyberneon" x1="0%" x2="0%" y1="0%" y2="100%">
    <stop offset="0" style="stop-color:#0abdc6; stop-opacity:1"/>
    <stop offset="1" style="stop-color:#ea00d9; stop-opacity:1"/>
  </linearGradient>
  <linearGradient id="fitdance" x1="0%" x2="0%" y1="0%" y2="100%">
   <stop offset="0%" style="stop-color:#1AD6AB; stop-opacity:1"/>
   <stop offset="100%" style="stop-color:#329DB6; stop-opacity:1"/>
  </linearGradient>
  <linearGradient id="oomox" x1="0%" x2="0%" y1="0%" y2="100%">
   <stop offset="0%" style="stop-color:#f2bac9; stop-opacity:1"/>
   <stop offset="100%" style="stop-color:#d6c9de; stop-opacity:1"/>
  </linearGradient>
  <linearGradient id="rainblue" x1="0%" x2="0%" y1="0%" y2="100%">
   <stop offset="0%" style="stop-color:#00F260; stop-opacity:1"/>
   <stop offset="100%" style="stop-color:#0575E6; stop-opacity:1"/>
  </linearGradient>
  <linearGradient id="sunrise" x1="0%" x2="0%" y1="0%" y2="100%">
   <stop offset="0%" style="stop-color: #FF8501; stop-opacity:1"/>
   <stop offset="100%" style="stop-color: #FFCB01; stop-opacity:1"/>
  </linearGradient>
  <linearGradient id="telinkrin" x1="0%" x2="0%" y1="0%" y2="100%">
   <stop offset="0%" style="stop-color: #b2ced6; stop-opacity:1"/>
   <stop offset="100%" style="stop-color: #6da5b7; stop-opacity:1"/>
  </linearGradient>
  <linearGradient id="60spsycho" x1="0%" x2="0%" y1="0%" y2="100%">
   <stop offset="0%" style="stop-color: #df5940; stop-opacity:1"/>
   <stop offset="25%" style="stop-color: #d8d15f; stop-opacity:1"/>
   <stop offset="50%" style="stop-color: #e9882a; stop-opacity:1"/>
   <stop offset="100%" style="stop-color: #279362; stop-opacity:1"/>
  </linearGradient>
  <linearGradient id="90ssummer" x1="0%" x2="0%" y1="0%" y2="100%">
   <stop offset="0%" style="stop-color: #f618c7; stop-opacity:1"/>
   <stop offset="20%" style="stop-color: #94ffab; stop-opacity:1"/>
   <stop offset="50%" style="stop-color: #fbfd54; stop-opacity:1"/>
   <stop offset="100%" style="stop-color: #0f83ae; stop-opacity:1"/>
  </linearGradient>
 </defs>
 <path fill="url(#oomox)" class="ColorScheme-Text" d="M 6.33 0.011 L 3.942 1.013 C 3.86 1.046 3.814 1.126 3.845 1.205 L 4.115 1.841 C 4.149 1.921 4.228 1.952 4.308 1.918 L 4.847 1.706 L 5.001 2.111 L 4.77 2.207 C 4.394 2.356 4.389 2.371 4.539 2.746 L 5.136 4.191 L 4.635 4.384 C 3.065 5.022 2.304 6.823 2.94 8.391 L 3.556 9.893 C 4.002 9.462 4.585 9.185 5.252 9.18 L 4.654 7.697 C 4.403 7.069 4.704 6.356 5.329 6.098 L 5.829 5.906 L 6.099 6.541 L 8.815 5.443 L 7.274 1.629 C 7.125 1.251 7.13 1.246 6.754 1.398 L 6.465 1.513 L 6.311 1.109 L 6.716 0.935 C 6.798 0.902 6.827 0.806 6.793 0.724 L 6.543 0.107 C 6.509 0.027 6.412 -0.023 6.33 0.01 L 6.33 0.011 Z M 9.201 6.406 L 6.465 7.505 L 6.793 8.314 L 7.756 8.718 L 9.105 8.16 L 9.528 7.216 L 9.201 6.406 Z M 11.802 8.506 C 11.741 8.516 11.682 8.536 11.628 8.564 L 6.716 10.548 C 6.376 10.12 5.861 9.835 5.271 9.835 C 4.249 9.835 3.421 10.663 3.421 11.685 C 3.424 12.601 4.095 13.379 5.001 13.515 C 5.016 13.546 5.027 13.58 5.04 13.611 C 5.23 14.079 5.531 14.459 5.887 14.767 L 4.038 14.767 C 3.697 14.767 3.421 15.043 3.421 15.384 L 3.421 16 L 13.285 16 L 13.285 15.384 C 13.285 15.041 13.01 14.767 12.668 14.767 L 10.414 14.767 L 12.302 14.035 C 12.779 13.852 13.027 13.317 12.841 12.841 C 12.753 12.613 12.577 12.429 12.353 12.332 C 12.129 12.234 11.875 12.23 11.647 12.32 L 8.353 13.592 C 7.725 13.846 7.011 13.544 6.754 12.918 C 6.745 12.893 6.725 12.85 6.716 12.822 C 6.971 12.504 7.113 12.111 7.12 11.703 L 12.091 9.7 C 12.372 9.594 12.538 9.3 12.48 9.004 C 12.423 8.708 12.16 8.497 11.859 8.506 L 11.802 8.506 L 11.802 8.506 Z M 5.271 11.068 C 5.61 11.068 5.887 11.346 5.887 11.685 C 5.887 12.024 5.61 12.301 5.271 12.301 C 4.932 12.301 4.654 12.024 4.654 11.685 C 4.654 11.346 4.932 11.068 5.271 11.068 Z"/>
</svg>
