<svg xmlns="http://www.w3.org/2000/svg" width="16" height="16" version="1.1">
 <defs>
   <style id="current-color-scheme" type="text/css">
   .ColorScheme-Text { color: #e9ecf2; } .ColorScheme-Highlight { color:#5294e2; }
  </style>
  <linearGradient id="arrongin" x1="0%" x2="0%" y1="0%" y2="100%">
   <stop offset="0%" style="stop-color:#dd9b44; stop-opacity:1"/>
   <stop offset="100%" style="stop-color:#ad6c16; stop-opacity:1"/>
  </linearGradient>
  <linearGradient id="aurora" x1="0%" x2="0%" y1="0%" y2="100%">
   <stop offset="0%" style="stop-color:#09D4DF; stop-opacity:1"/>
   <stop offset="100%" style="stop-color:#9269F4; stop-opacity:1"/>
  </linearGradient>
  <linearGradient id="cyberneon" x1="0%" x2="0%" y1="0%" y2="100%">
    <stop offset="0" style="stop-color:#0abdc6; stop-opacity:1"/>
    <stop offset="1" style="stop-color:#ea00d9; stop-opacity:1"/>
  </linearGradient>
  <linearGradient id="fitdance" x1="0%" x2="0%" y1="0%" y2="100%">
   <stop offset="0%" style="stop-color:#1AD6AB; stop-opacity:1"/>
   <stop offset="100%" style="stop-color:#329DB6; stop-opacity:1"/>
  </linearGradient>
  <linearGradient id="oomox" x1="0%" x2="0%" y1="0%" y2="100%">
   <stop offset="0%" style="stop-color:#f2bac9; stop-opacity:1"/>
   <stop offset="100%" style="stop-color:#d6c9de; stop-opacity:1"/>
  </linearGradient>
  <linearGradient id="rainblue" x1="0%" x2="0%" y1="0%" y2="100%">
   <stop offset="0%" style="stop-color:#00F260; stop-opacity:1"/>
   <stop offset="100%" style="stop-color:#0575E6; stop-opacity:1"/>
  </linearGradient>
  <linearGradient id="sunrise" x1="0%" x2="0%" y1="0%" y2="100%">
   <stop offset="0%" style="stop-color: #FF8501; stop-opacity:1"/>
   <stop offset="100%" style="stop-color: #FFCB01; stop-opacity:1"/>
  </linearGradient>
  <linearGradient id="telinkrin" x1="0%" x2="0%" y1="0%" y2="100%">
   <stop offset="0%" style="stop-color: #b2ced6; stop-opacity:1"/>
   <stop offset="100%" style="stop-color: #6da5b7; stop-opacity:1"/>
  </linearGradient>
  <linearGradient id="60spsycho" x1="0%" x2="0%" y1="0%" y2="100%">
   <stop offset="0%" style="stop-color: #df5940; stop-opacity:1"/>
   <stop offset="25%" style="stop-color: #d8d15f; stop-opacity:1"/>
   <stop offset="50%" style="stop-color: #e9882a; stop-opacity:1"/>
   <stop offset="100%" style="stop-color: #279362; stop-opacity:1"/>
  </linearGradient>
  <linearGradient id="90ssummer" x1="0%" x2="0%" y1="0%" y2="100%">
   <stop offset="0%" style="stop-color: #f618c7; stop-opacity:1"/>
   <stop offset="20%" style="stop-color: #94ffab; stop-opacity:1"/>
   <stop offset="50%" style="stop-color: #fbfd54; stop-opacity:1"/>
   <stop offset="100%" style="stop-color: #0f83ae; stop-opacity:1"/>
  </linearGradient>
 </defs>
 <path fill="url(#oomox)" class="ColorScheme-Text" fill-rule="evenodd" d="M 1.56 12.945 C 1.635 12.629 1.801 12.355 2.117 12.267 C 2.925 12.04 2.265 10.893 2.296 10.862 C 2.327 10.831 2.676 11.293 2.828 11.426 C 3.216 11.766 3.447 11.507 3.854 11.385 C 4.596 11.163 4.909 10.405 4.309 9.02 C 4.113 8.567 3.895 7.91 3.827 7.676 C 3.613 6.944 3.705 6.519 3.968 7.022 C 4.232 7.528 4.954 8.272 5.552 8.185 C 6.233 8.085 6.695 7.272 6.801 6.431 C 6.804 6.073 6.809 5.697 6.586 5.214 C 6.255 4.498 6.229 4.122 6.476 3.612 L 6.648 3.256 L 6.756 3.686 C 6.893 4.231 7.279 4.489 7.879 4.713 C 8.166 4.821 8.49 5.02 8.695 5.216 C 9.038 5.547 9.114 6.175 8.883 6.809 C 8.812 7.014 8.709 7.274 8.563 7.63 C 7.954 9.109 7.955 9.62 8.564 9.977 C 8.966 10.213 9.853 10.195 10.434 9.944 C 11.142 9.636 11.394 9.054 11.395 8.089 C 11.395 7.597 11.398 7.589 11.546 7.722 C 11.629 7.798 11.831 8.13 11.996 8.461 C 12.362 9.198 12.398 9.771 12.116 10.392 C 11.907 10.855 12.18 11.066 12.479 11.066 C 12.632 11.066 12.804 10.954 13.08 10.674 C 13.293 10.458 13.499 10.281 13.539 10.281 C 13.612 10.281 13.57 11.031 13.462 11.655 C 13.452 11.693 14.158 12.29 14.5 12.703 C 14.508 12.67 14.514 12.637 14.521 12.603 C 14.551 12.437 14.576 12.269 14.594 12.101 C 14.616 11.898 14.634 11.694 14.645 11.489 C 14.659 11.249 14.668 11.009 14.673 10.768 C 14.68 10.492 14.682 10.215 14.682 9.939 C 14.682 9.939 14.682 9.938 14.682 9.938 L 14.682 6.062 C 14.682 6.062 14.682 6.061 14.682 6.061 C 14.682 5.785 14.68 5.508 14.673 5.232 C 14.668 4.991 14.659 4.751 14.645 4.511 C 14.634 4.306 14.616 4.102 14.594 3.899 C 14.576 3.731 14.551 3.563 14.521 3.397 C 14.496 3.266 14.465 3.136 14.428 3.008 C 14.399 2.912 14.365 2.818 14.324 2.727 C 14.295 2.662 14.26 2.599 14.22 2.541 C 14.19 2.496 14.155 2.454 14.117 2.416 C 14.079 2.377 14.037 2.343 13.992 2.313 C 13.933 2.274 13.871 2.238 13.806 2.209 C 13.714 2.168 13.62 2.134 13.524 2.106 C 13.395 2.068 13.265 2.037 13.134 2.013 C 12.967 1.982 12.799 1.957 12.631 1.939 C 12.427 1.917 12.223 1.899 12.018 1.888 C 11.778 1.874 11.537 1.865 11.297 1.86 C 11.02 1.854 10.742 1.851 10.466 1.851 L 10.466 1.851 C 10.466 1.851 10.465 1.851 10.465 1.851 L 5.535 1.851 C 5.535 1.851 5.534 1.851 5.534 1.851 C 5.258 1.851 4.98 1.854 4.703 1.86 C 4.463 1.865 4.222 1.874 3.982 1.888 C 3.777 1.899 3.573 1.917 3.369 1.939 C 3.201 1.957 3.033 1.982 2.866 2.013 C 2.735 2.037 2.605 2.068 2.476 2.106 C 2.38 2.134 2.286 2.168 2.194 2.209 C 2.129 2.238 2.067 2.274 2.008 2.313 C 1.963 2.343 1.921 2.377 1.883 2.416 C 1.845 2.454 1.81 2.496 1.78 2.541 C 1.74 2.599 1.705 2.662 1.676 2.727 C 1.635 2.818 1.601 2.912 1.572 3.008 C 1.535 3.136 1.504 3.266 1.479 3.397 C 1.449 3.563 1.424 3.731 1.406 3.899 C 1.384 4.102 1.366 4.306 1.355 4.511 C 1.341 4.751 1.332 4.991 1.327 5.232 C 1.32 5.508 1.318 5.785 1.318 6.061 C 1.318 6.061 1.318 6.062 1.318 6.062 L 1.318 9.938 C 1.318 9.938 1.318 9.939 1.318 9.939 C 1.318 10.215 1.32 10.492 1.327 10.768 C 1.332 11.009 1.341 11.249 1.355 11.489 C 1.366 11.694 1.384 11.898 1.406 12.101 C 1.424 12.269 1.449 12.437 1.479 12.603 C 1.501 12.718 1.527 12.832 1.56 12.945 Z M 10.465 0.533 C 15.308 0.533 16 1.224 16 6.062 L 16 9.938 C 16 14.776 15.308 15.467 10.465 15.467 L 5.535 15.467 C 0.692 15.467 0 14.776 0 9.938 L 0 8 L 0 6.062 C 0 1.224 0.692 0.533 5.535 0.533 L 10.465 0.533 L 10.465 0.533 Z"/>
</svg>
