<svg xmlns="http://www.w3.org/2000/svg" width="16" height="16" version="1.1">
 <defs>
   <style id="current-color-scheme" type="text/css">
   .ColorScheme-Text { color: #e9ecf2; } .ColorScheme-Highlight { color:#5294e2; }
  </style>
  <linearGradient id="arrongin" x1="0%" x2="0%" y1="0%" y2="100%">
   <stop offset="0%" style="stop-color:#dd9b44; stop-opacity:1"/>
   <stop offset="100%" style="stop-color:#ad6c16; stop-opacity:1"/>
  </linearGradient>
  <linearGradient id="aurora" x1="0%" x2="0%" y1="0%" y2="100%">
   <stop offset="0%" style="stop-color:#09D4DF; stop-opacity:1"/>
   <stop offset="100%" style="stop-color:#9269F4; stop-opacity:1"/>
  </linearGradient>
  <linearGradient id="cyberneon" x1="0%" x2="0%" y1="0%" y2="100%">
    <stop offset="0" style="stop-color:#0abdc6; stop-opacity:1"/>
    <stop offset="1" style="stop-color:#ea00d9; stop-opacity:1"/>
  </linearGradient>
  <linearGradient id="fitdance" x1="0%" x2="0%" y1="0%" y2="100%">
   <stop offset="0%" style="stop-color:#1AD6AB; stop-opacity:1"/>
   <stop offset="100%" style="stop-color:#329DB6; stop-opacity:1"/>
  </linearGradient>
  <linearGradient id="oomox" x1="0%" x2="0%" y1="0%" y2="100%">
   <stop offset="0%" style="stop-color:#f2bac9; stop-opacity:1"/>
   <stop offset="100%" style="stop-color:#d6c9de; stop-opacity:1"/>
  </linearGradient>
  <linearGradient id="rainblue" x1="0%" x2="0%" y1="0%" y2="100%">
   <stop offset="0%" style="stop-color:#00F260; stop-opacity:1"/>
   <stop offset="100%" style="stop-color:#0575E6; stop-opacity:1"/>
  </linearGradient>
  <linearGradient id="sunrise" x1="0%" x2="0%" y1="0%" y2="100%">
   <stop offset="0%" style="stop-color: #FF8501; stop-opacity:1"/>
   <stop offset="100%" style="stop-color: #FFCB01; stop-opacity:1"/>
  </linearGradient>
  <linearGradient id="telinkrin" x1="0%" x2="0%" y1="0%" y2="100%">
   <stop offset="0%" style="stop-color: #b2ced6; stop-opacity:1"/>
   <stop offset="100%" style="stop-color: #6da5b7; stop-opacity:1"/>
  </linearGradient>
  <linearGradient id="60spsycho" x1="0%" x2="0%" y1="0%" y2="100%">
   <stop offset="0%" style="stop-color: #df5940; stop-opacity:1"/>
   <stop offset="25%" style="stop-color: #d8d15f; stop-opacity:1"/>
   <stop offset="50%" style="stop-color: #e9882a; stop-opacity:1"/>
   <stop offset="100%" style="stop-color: #279362; stop-opacity:1"/>
  </linearGradient>
  <linearGradient id="90ssummer" x1="0%" x2="0%" y1="0%" y2="100%">
   <stop offset="0%" style="stop-color: #f618c7; stop-opacity:1"/>
   <stop offset="20%" style="stop-color: #94ffab; stop-opacity:1"/>
   <stop offset="50%" style="stop-color: #fbfd54; stop-opacity:1"/>
   <stop offset="100%" style="stop-color: #0f83ae; stop-opacity:1"/>
  </linearGradient>
 </defs>
 <path fill="url(#oomox)" class="ColorScheme-Text" d="M 11.593 1.23 C 11.341 1.109 11.101 1.035 10.873 1.011 C 10.642 0.987 10.431 1.003 10.24 1.057 C 10.049 1.112 9.881 1.202 9.735 1.327 C 9.589 1.452 9.473 1.605 9.386 1.785 C 9.331 1.899 9.291 2.005 9.265 2.103 C 9.238 2.204 9.22 2.293 9.211 2.37 C 9.201 2.45 9.198 2.517 9.201 2.57 C 9.203 2.624 9.202 2.671 9.206 2.693 L 9.23 2.932 C 9.242 3.043 9.23 3.129 9.195 3.189 C 9.162 3.252 9.099 3.288 9.006 3.297 C 8.984 3.299 8.961 3.299 8.935 3.298 C 8.91 3.297 8.887 3.294 8.867 3.29 L 5.102 1.478 L 3.876 4.025 C 3.872 4.045 3.869 4.068 3.868 4.094 C 3.866 4.119 3.867 4.143 3.869 4.164 C 3.878 4.257 3.914 4.32 3.977 4.353 C 4.037 4.388 4.123 4.4 4.234 4.389 L 4.473 4.364 C 4.495 4.361 4.542 4.362 4.596 4.359 C 4.649 4.356 4.716 4.36 4.796 4.37 C 4.873 4.378 4.962 4.396 5.063 4.423 C 5.161 4.449 5.267 4.49 5.381 4.544 C 5.561 4.631 5.714 4.747 5.839 4.893 C 5.964 5.039 6.054 5.208 6.109 5.398 C 6.163 5.589 6.179 5.8 6.155 6.031 C 6.13 6.259 6.057 6.499 5.936 6.751 C 5.814 7.003 5.676 7.214 5.52 7.381 C 5.363 7.545 5.196 7.667 5.018 7.745 C 4.84 7.824 4.655 7.86 4.462 7.853 C 4.27 7.846 4.078 7.796 3.885 7.703 C 3.773 7.65 3.674 7.593 3.585 7.532 C 3.497 7.472 3.423 7.415 3.361 7.36 C 3.299 7.305 3.249 7.256 3.211 7.213 C 3.175 7.167 3.161 7.137 3.15 7.114 L 3.019 6.911 C 2.959 6.817 2.896 6.757 2.831 6.732 C 2.767 6.704 2.695 6.715 2.616 6.766 C 2.598 6.777 2.579 6.792 2.56 6.809 C 2.541 6.826 2.525 6.842 2.512 6.858 L 0.707 10.605 L 4.471 12.417 C 4.491 12.421 4.514 12.424 4.54 12.425 C 4.566 12.427 4.589 12.426 4.611 12.424 C 4.704 12.415 4.767 12.379 4.8 12.317 C 4.835 12.256 4.847 12.17 4.835 12.06 L 4.811 11.82 C 4.807 11.798 4.808 11.751 4.805 11.697 C 4.803 11.644 4.806 11.577 4.816 11.497 C 4.825 11.42 4.843 11.331 4.87 11.23 C 4.896 11.132 4.936 11.026 4.991 10.912 C 5.077 10.732 5.194 10.58 5.34 10.454 C 5.486 10.329 5.654 10.239 5.845 10.185 C 6.035 10.13 6.246 10.114 6.478 10.138 C 6.705 10.163 6.945 10.236 7.198 10.357 C 7.45 10.479 7.66 10.617 7.828 10.773 C 7.992 10.93 8.113 11.098 8.192 11.276 C 8.27 11.453 8.306 11.639 8.3 11.831 C 8.293 12.023 8.243 12.216 8.15 12.409 C 8.096 12.52 8.039 12.62 7.979 12.708 C 7.919 12.796 7.861 12.87 7.806 12.932 C 7.752 12.994 7.703 13.044 7.659 13.082 C 7.613 13.118 7.583 13.132 7.56 13.144 L 7.357 13.274 C 7.264 13.334 7.204 13.397 7.178 13.462 C 7.15 13.526 7.162 13.598 7.212 13.677 C 7.224 13.695 7.238 13.714 7.255 13.733 C 7.272 13.752 7.289 13.768 7.304 13.782 L 9.834 15 L 11.639 11.253 C 11.652 11.237 11.668 11.221 11.687 11.204 C 11.707 11.187 11.725 11.173 11.743 11.161 C 11.822 11.111 11.894 11.099 11.958 11.127 C 12.023 11.153 12.086 11.212 12.146 11.306 L 12.277 11.509 C 12.288 11.532 12.302 11.562 12.339 11.608 C 12.376 11.651 12.427 11.701 12.488 11.755 C 12.55 11.81 12.624 11.867 12.713 11.928 C 12.801 11.988 12.901 12.045 13.012 12.099 C 13.205 12.191 13.397 12.242 13.59 12.248 C 13.782 12.255 13.967 12.219 14.145 12.141 C 14.323 12.062 14.49 11.94 14.647 11.777 C 14.803 11.609 14.941 11.399 15.063 11.146 C 15.184 10.894 15.257 10.654 15.282 10.427 C 15.306 10.195 15.291 9.984 15.236 9.794 C 15.181 9.603 15.091 9.434 14.966 9.288 C 14.841 9.142 14.688 9.026 14.508 8.94 C 14.395 8.885 14.289 8.845 14.19 8.819 C 14.089 8.792 14 8.774 13.923 8.765 C 13.843 8.755 13.776 8.751 13.723 8.754 C 13.669 8.757 13.622 8.756 13.601 8.76 L 13.361 8.784 C 13.25 8.795 13.164 8.783 13.104 8.749 C 13.042 8.716 13.006 8.653 12.996 8.559 C 12.994 8.538 12.994 8.515 12.995 8.489 C 12.996 8.463 12.999 8.44 13.003 8.42 L 14.229 5.873 L 11.699 4.654 C 11.684 4.641 11.668 4.625 11.651 4.606 C 11.634 4.587 11.619 4.568 11.608 4.55 C 11.557 4.471 11.545 4.399 11.574 4.335 C 11.599 4.27 11.659 4.207 11.752 4.147 L 11.955 4.016 C 11.979 4.005 12.008 3.991 12.055 3.955 C 12.098 3.917 12.147 3.867 12.202 3.805 C 12.256 3.743 12.314 3.669 12.374 3.581 C 12.434 3.492 12.491 3.393 12.545 3.281 C 12.638 3.088 12.688 2.896 12.695 2.704 C 12.701 2.511 12.665 2.326 12.587 2.148 C 12.508 1.97 12.387 1.803 12.223 1.646 C 12.055 1.49 11.845 1.352 11.593 1.23 L 11.593 1.23 Z"/>
</svg>
