<svg xmlns="http://www.w3.org/2000/svg" width="16" height="16" version="1.1">
 <defs>
   <style id="current-color-scheme" type="text/css">
   .ColorScheme-Text { color: #e9ecf2; } .ColorScheme-Highlight { color:#5294e2; }
  </style>
  <linearGradient id="arrongin" x1="0%" x2="0%" y1="0%" y2="100%">
   <stop offset="0%" style="stop-color:#dd9b44; stop-opacity:1"/>
   <stop offset="100%" style="stop-color:#ad6c16; stop-opacity:1"/>
  </linearGradient>
  <linearGradient id="aurora" x1="0%" x2="0%" y1="0%" y2="100%">
   <stop offset="0%" style="stop-color:#09D4DF; stop-opacity:1"/>
   <stop offset="100%" style="stop-color:#9269F4; stop-opacity:1"/>
  </linearGradient>
  <linearGradient id="cyberneon" x1="0%" x2="0%" y1="0%" y2="100%">
    <stop offset="0" style="stop-color:#0abdc6; stop-opacity:1"/>
    <stop offset="1" style="stop-color:#ea00d9; stop-opacity:1"/>
  </linearGradient>
  <linearGradient id="fitdance" x1="0%" x2="0%" y1="0%" y2="100%">
   <stop offset="0%" style="stop-color:#1AD6AB; stop-opacity:1"/>
   <stop offset="100%" style="stop-color:#329DB6; stop-opacity:1"/>
  </linearGradient>
  <linearGradient id="oomox" x1="0%" x2="0%" y1="0%" y2="100%">
   <stop offset="0%" style="stop-color:#f2bac9; stop-opacity:1"/>
   <stop offset="100%" style="stop-color:#d6c9de; stop-opacity:1"/>
  </linearGradient>
  <linearGradient id="rainblue" x1="0%" x2="0%" y1="0%" y2="100%">
   <stop offset="0%" style="stop-color:#00F260; stop-opacity:1"/>
   <stop offset="100%" style="stop-color:#0575E6; stop-opacity:1"/>
  </linearGradient>
  <linearGradient id="sunrise" x1="0%" x2="0%" y1="0%" y2="100%">
   <stop offset="0%" style="stop-color: #FF8501; stop-opacity:1"/>
   <stop offset="100%" style="stop-color: #FFCB01; stop-opacity:1"/>
  </linearGradient>
  <linearGradient id="telinkrin" x1="0%" x2="0%" y1="0%" y2="100%">
   <stop offset="0%" style="stop-color: #b2ced6; stop-opacity:1"/>
   <stop offset="100%" style="stop-color: #6da5b7; stop-opacity:1"/>
  </linearGradient>
  <linearGradient id="60spsycho" x1="0%" x2="0%" y1="0%" y2="100%">
   <stop offset="0%" style="stop-color: #df5940; stop-opacity:1"/>
   <stop offset="25%" style="stop-color: #d8d15f; stop-opacity:1"/>
   <stop offset="50%" style="stop-color: #e9882a; stop-opacity:1"/>
   <stop offset="100%" style="stop-color: #279362; stop-opacity:1"/>
  </linearGradient>
  <linearGradient id="90ssummer" x1="0%" x2="0%" y1="0%" y2="100%">
   <stop offset="0%" style="stop-color: #f618c7; stop-opacity:1"/>
   <stop offset="20%" style="stop-color: #94ffab; stop-opacity:1"/>
   <stop offset="50%" style="stop-color: #fbfd54; stop-opacity:1"/>
   <stop offset="100%" style="stop-color: #0f83ae; stop-opacity:1"/>
  </linearGradient>
 </defs>
 <path fill="url(#oomox)" class="ColorScheme-Text" fill-rule="evenodd" d="M 5.092 9.879 C 4.874 9.417 4.751 8.923 4.713 8.424 L 4.713 8.424 C 4.65 7.721 4.755 7.004 5.04 6.345 C 4.79 6.434 4.54 6.526 4.301 6.623 C 3.416 6.98 2.629 7.409 2.177 7.769 C 1.983 7.923 1.89 8.033 1.835 8.104 C 1.89 8.175 1.983 8.285 2.177 8.439 C 2.629 8.799 3.416 9.228 4.301 9.585 C 4.556 9.689 4.823 9.787 5.092 9.879 Z M 7.645 12.358 C 10.108 13.967 14.052 15.662 15.372 14.343 C 16.438 13.277 15.537 10.5 14.295 8.173 C 15.621 5.764 16.64 2.783 15.521 1.664 C 14.124 0.267 9.825 2.202 7.373 3.889 L 7.373 3.889 C 4.407 4.453 0 6.126 0 8.104 C 0 10.148 4.708 11.867 7.645 12.358 Z M 12.635 10.727 C 12.829 10.48 13.028 10.214 13.232 9.92 L 13.232 9.92 C 13.295 10.055 13.354 10.187 13.41 10.319 C 13.777 11.184 14.026 12.03 14.091 12.595 C 14.118 12.837 14.106 12.978 14.095 13.066 C 14.007 13.077 13.866 13.089 13.624 13.061 C 13.059 12.996 12.213 12.748 11.349 12.381 C 11.176 12.307 11.001 12.228 10.825 12.147 C 11.555 11.851 12.179 11.355 12.635 10.727 Z M 8.307 10.681 L 8.307 10.681 C 7.774 10.337 7.388 10.038 7.196 9.846 C 6.166 8.815 6.166 7.197 7.196 6.167 C 7.476 5.887 7.799 5.683 8.144 5.562 C 8.544 5.498 8.891 5.46 9.106 5.46 L 9.106 5.46 C 9.553 5.46 9.971 5.566 10.338 5.755 C 10.53 5.863 10.71 6.002 10.875 6.167 L 10.875 6.167 L 10.875 6.167 C 11.022 6.313 11.23 6.572 11.487 6.948 C 11.657 7.294 11.75 7.686 11.75 8.104 C 11.75 9.585 10.587 10.748 9.106 10.748 C 8.914 10.748 8.617 10.718 8.307 10.681 Z M 13.006 6.047 L 13.006 6.047 C 13.059 6.115 13.113 6.191 13.167 6.269 C 13.301 5.981 13.422 5.709 13.532 5.45 C 13.903 4.574 14.156 3.716 14.221 3.143 C 14.249 2.897 14.237 2.755 14.226 2.665 C 14.137 2.654 13.994 2.642 13.749 2.67 C 13.176 2.736 12.318 2.988 11.441 3.36 C 11.084 3.511 10.719 3.686 10.366 3.878 C 10.442 3.903 10.518 3.928 10.59 3.962 C 10.702 4.001 10.811 4.048 10.919 4.101 C 11.347 4.306 11.747 4.586 12.102 4.94 C 12.372 5.211 12.682 5.591 13.006 6.047 Z"/>
</svg>
