<svg xmlns="http://www.w3.org/2000/svg" width="16" height="16" version="1.1">
 <defs>
   <style id="current-color-scheme" type="text/css">
   .ColorScheme-Text { color: #e9ecf2; } .ColorScheme-Highlight { color:#5294e2; }
  </style>
  <linearGradient id="arrongin" x1="0%" x2="0%" y1="0%" y2="100%">
   <stop offset="0%" style="stop-color:#dd9b44; stop-opacity:1"/>
   <stop offset="100%" style="stop-color:#ad6c16; stop-opacity:1"/>
  </linearGradient>
  <linearGradient id="aurora" x1="0%" x2="0%" y1="0%" y2="100%">
   <stop offset="0%" style="stop-color:#09D4DF; stop-opacity:1"/>
   <stop offset="100%" style="stop-color:#9269F4; stop-opacity:1"/>
  </linearGradient>
  <linearGradient id="cyberneon" x1="0%" x2="0%" y1="0%" y2="100%">
    <stop offset="0" style="stop-color:#0abdc6; stop-opacity:1"/>
    <stop offset="1" style="stop-color:#ea00d9; stop-opacity:1"/>
  </linearGradient>
  <linearGradient id="fitdance" x1="0%" x2="0%" y1="0%" y2="100%">
   <stop offset="0%" style="stop-color:#1AD6AB; stop-opacity:1"/>
   <stop offset="100%" style="stop-color:#329DB6; stop-opacity:1"/>
  </linearGradient>
  <linearGradient id="oomox" x1="0%" x2="0%" y1="0%" y2="100%">
   <stop offset="0%" style="stop-color:#f2bac9; stop-opacity:1"/>
   <stop offset="100%" style="stop-color:#d6c9de; stop-opacity:1"/>
  </linearGradient>
  <linearGradient id="rainblue" x1="0%" x2="0%" y1="0%" y2="100%">
   <stop offset="0%" style="stop-color:#00F260; stop-opacity:1"/>
   <stop offset="100%" style="stop-color:#0575E6; stop-opacity:1"/>
  </linearGradient>
  <linearGradient id="sunrise" x1="0%" x2="0%" y1="0%" y2="100%">
   <stop offset="0%" style="stop-color: #FF8501; stop-opacity:1"/>
   <stop offset="100%" style="stop-color: #FFCB01; stop-opacity:1"/>
  </linearGradient>
  <linearGradient id="telinkrin" x1="0%" x2="0%" y1="0%" y2="100%">
   <stop offset="0%" style="stop-color: #b2ced6; stop-opacity:1"/>
   <stop offset="100%" style="stop-color: #6da5b7; stop-opacity:1"/>
  </linearGradient>
  <linearGradient id="60spsycho" x1="0%" x2="0%" y1="0%" y2="100%">
   <stop offset="0%" style="stop-color: #df5940; stop-opacity:1"/>
   <stop offset="25%" style="stop-color: #d8d15f; stop-opacity:1"/>
   <stop offset="50%" style="stop-color: #e9882a; stop-opacity:1"/>
   <stop offset="100%" style="stop-color: #279362; stop-opacity:1"/>
  </linearGradient>
  <linearGradient id="90ssummer" x1="0%" x2="0%" y1="0%" y2="100%">
   <stop offset="0%" style="stop-color: #f618c7; stop-opacity:1"/>
   <stop offset="20%" style="stop-color: #94ffab; stop-opacity:1"/>
   <stop offset="50%" style="stop-color: #fbfd54; stop-opacity:1"/>
   <stop offset="100%" style="stop-color: #0f83ae; stop-opacity:1"/>
  </linearGradient>
 </defs>
 <path fill="url(#oomox)" class="ColorScheme-Text" fill-rule="evenodd" d="M 6.851 6.71 C 6.851 7.441 6.851 8.172 6.851 8.904 L 6.851 8.904 C 7.39 9.435 7.929 9.966 8.468 10.497 C 8.468 10.498 8.468 10.498 8.468 10.498 L 8.468 10.498 C 8.931 10.954 9.394 11.411 9.857 11.868 C 11.106 13.107 12.356 14.346 13.587 15.603 L 16 15.656 L 16 15.656 L 15.851 13.34 L 12.663 10.146 C 12.666 10.146 12.669 10.146 12.672 10.146 L 10.782 8.282 C 10.782 8.282 10.782 8.282 10.782 8.282 L 9.165 6.688 C 8.394 6.694 7.622 6.702 6.851 6.71 L 6.851 6.71 Z M 6.828 15.286 C 5.776 15.151 5.026 14.922 4.047 14.437 C 3.571 14.201 3.527 14.177 3.436 14.094 C 3.393 14.056 3.346 14.024 3.33 14.024 C 3.247 14.024 2.434 13.372 2.128 13.06 C 1.967 12.895 1.698 12.588 1.574 12.428 C 1.305 12.079 1.162 11.881 1.162 11.858 C 1.162 11.845 1.126 11.784 1.083 11.722 C 0.955 11.541 0.745 11.131 0.594 10.769 C 0.092 9.565 -0.099 8.241 0.049 6.991 C 0.169 5.978 0.458 5.018 0.855 4.315 C 0.932 4.18 0.994 4.061 0.994 4.05 C 0.994 4.008 1.474 3.335 1.658 3.118 C 2.011 2.701 2.684 2.059 2.91 1.923 C 3.164 1.771 3.26 1.703 3.26 1.675 C 3.26 1.658 3.279 1.644 3.301 1.644 C 3.324 1.644 3.442 1.582 3.564 1.506 C 3.994 1.239 5.152 0.72 5.318 0.72 C 5.352 0.721 5.465 0.694 5.568 0.662 C 6.181 0.471 7.111 0.346 7.94 0.344 C 8.917 0.341 10.066 0.527 10.857 0.815 C 11.273 0.967 11.868 1.228 12.079 1.353 C 12.194 1.421 12.295 1.476 12.305 1.476 C 12.348 1.476 12.85 1.821 13.17 2.071 C 13.451 2.291 14.02 2.851 14.399 3.28 C 14.755 3.684 15.39 4.901 15.571 5.526 C 15.925 6.751 16.005 7.7 15.85 8.841 C 15.771 9.422 15.628 9.962 15.361 10.688 C 15.254 10.98 14.998 11.464 14.951 11.464 C 14.926 11.464 14.38 10.937 13.737 10.293 L 12.568 9.123 L 12.636 8.827 C 12.684 8.616 12.703 8.322 12.703 7.805 C 12.702 7.063 12.647 6.702 12.439 6.09 C 12.274 5.604 11.824 4.819 11.571 4.575 C 11.531 4.537 11.463 4.462 11.419 4.407 C 11.288 4.245 10.895 3.91 10.627 3.732 C 9.828 3.201 8.973 2.945 8.003 2.945 C 6.884 2.945 5.871 3.298 4.965 4.005 C 4.639 4.259 3.974 5.008 3.974 5.121 C 3.974 5.147 3.959 5.169 3.941 5.169 C 3.895 5.169 3.533 5.902 3.453 6.155 C 3.417 6.271 3.358 6.459 3.322 6.575 C 3.147 7.129 3.149 8.509 3.324 9.072 C 3.495 9.619 3.556 9.781 3.701 10.069 C 4.084 10.831 4.653 11.478 5.348 11.941 C 5.639 12.135 6.121 12.375 6.408 12.469 C 7.087 12.692 7.155 12.702 7.961 12.702 C 8.388 12.702 8.806 12.688 8.891 12.67 L 9.044 12.637 L 10.119 13.695 L 11.193 14.754 L 10.994 14.832 C 9.873 15.272 8.168 15.458 6.828 15.286 L 6.828 15.286 Z"/>
</svg>
