<svg xmlns="http://www.w3.org/2000/svg" width="16" height="16" version="1.1">
 <defs>
   <style id="current-color-scheme" type="text/css">
   .ColorScheme-Text { color: #e9ecf2; } .ColorScheme-Highlight { color:#5294e2; }
  </style>
  <linearGradient id="arrongin" x1="0%" x2="0%" y1="0%" y2="100%">
   <stop offset="0%" style="stop-color:#dd9b44; stop-opacity:1"/>
   <stop offset="100%" style="stop-color:#ad6c16; stop-opacity:1"/>
  </linearGradient>
  <linearGradient id="aurora" x1="0%" x2="0%" y1="0%" y2="100%">
   <stop offset="0%" style="stop-color:#09D4DF; stop-opacity:1"/>
   <stop offset="100%" style="stop-color:#9269F4; stop-opacity:1"/>
  </linearGradient>
  <linearGradient id="cyberneon" x1="0%" x2="0%" y1="0%" y2="100%">
    <stop offset="0" style="stop-color:#0abdc6; stop-opacity:1"/>
    <stop offset="1" style="stop-color:#ea00d9; stop-opacity:1"/>
  </linearGradient>
  <linearGradient id="fitdance" x1="0%" x2="0%" y1="0%" y2="100%">
   <stop offset="0%" style="stop-color:#1AD6AB; stop-opacity:1"/>
   <stop offset="100%" style="stop-color:#329DB6; stop-opacity:1"/>
  </linearGradient>
  <linearGradient id="oomox" x1="0%" x2="0%" y1="0%" y2="100%">
   <stop offset="0%" style="stop-color:#f2bac9; stop-opacity:1"/>
   <stop offset="100%" style="stop-color:#d6c9de; stop-opacity:1"/>
  </linearGradient>
  <linearGradient id="rainblue" x1="0%" x2="0%" y1="0%" y2="100%">
   <stop offset="0%" style="stop-color:#00F260; stop-opacity:1"/>
   <stop offset="100%" style="stop-color:#0575E6; stop-opacity:1"/>
  </linearGradient>
  <linearGradient id="sunrise" x1="0%" x2="0%" y1="0%" y2="100%">
   <stop offset="0%" style="stop-color: #FF8501; stop-opacity:1"/>
   <stop offset="100%" style="stop-color: #FFCB01; stop-opacity:1"/>
  </linearGradient>
  <linearGradient id="telinkrin" x1="0%" x2="0%" y1="0%" y2="100%">
   <stop offset="0%" style="stop-color: #b2ced6; stop-opacity:1"/>
   <stop offset="100%" style="stop-color: #6da5b7; stop-opacity:1"/>
  </linearGradient>
  <linearGradient id="60spsycho" x1="0%" x2="0%" y1="0%" y2="100%">
   <stop offset="0%" style="stop-color: #df5940; stop-opacity:1"/>
   <stop offset="25%" style="stop-color: #d8d15f; stop-opacity:1"/>
   <stop offset="50%" style="stop-color: #e9882a; stop-opacity:1"/>
   <stop offset="100%" style="stop-color: #279362; stop-opacity:1"/>
  </linearGradient>
  <linearGradient id="90ssummer" x1="0%" x2="0%" y1="0%" y2="100%">
   <stop offset="0%" style="stop-color: #f618c7; stop-opacity:1"/>
   <stop offset="20%" style="stop-color: #94ffab; stop-opacity:1"/>
   <stop offset="50%" style="stop-color: #fbfd54; stop-opacity:1"/>
   <stop offset="100%" style="stop-color: #0f83ae; stop-opacity:1"/>
  </linearGradient>
 </defs>
 <path fill="url(#oomox)" class="ColorScheme-Text" d="M 11.921 0 C 10.175 -0.002 6.61 0.73 6.229 1.197 C 6.115 1.338 6.111 1.481 6.214 1.784 C 6.447 2.464 6.596 3.603 6.086 6.923 C 5.495 10.772 5.246 12.105 5.112 12.241 C 5.057 12.297 4.766 12.229 4.465 12.09 C 3.723 11.747 2.574 11.744 2.028 12.083 C 0.401 13.094 1.118 15.179 3.36 15.924 L 3.36 15.925 C 3.531 15.982 4.012 16.013 4.43 15.995 C 5.019 15.97 5.327 15.879 5.792 15.589 C 6.679 15.039 7.1 14.102 7.578 11.621 C 7.785 10.546 7.965 9.56 8 9.524 C 8.035 9.488 8.286 9.792 8.536 10.103 C 10.157 12.128 11.194 12.952 12.368 12.952 C 12.733 12.952 12.967 12.912 12.967 12.824 C 12.967 12.746 12.68 12.43 12.328 12.077 C 11.325 11.033 10.884 9.498 9.905 8.381 L 10.386 8.13 C 13.624 6.127 15.513 3.156 14.648 1.426 C 14.139 0.41 13.358 0.001 11.921 0 Z M 11.342 2.667 C 11.946 2.665 12.489 2.724 12.729 2.86 C 12.988 3.006 13.02 3.049 12.833 3.001 C 12.614 2.946 12.484 3.04 12.156 3.497 C 11.645 4.211 10.822 4.974 9.863 5.628 C 8.725 6.403 8.458 6.551 8.391 6.446 C 8.306 6.313 8.811 3.273 8.946 3.108 C 9.164 2.841 10.337 2.67 11.342 2.667 Z"/>
</svg>
