<svg xmlns="http://www.w3.org/2000/svg" width="16" height="16" version="1.1">
 <defs>
   <style id="current-color-scheme" type="text/css">
   .ColorScheme-Text { color: #e9ecf2; } .ColorScheme-Highlight { color:#5294e2; }
  </style>
  <linearGradient id="arrongin" x1="0%" x2="0%" y1="0%" y2="100%">
   <stop offset="0%" style="stop-color:#dd9b44; stop-opacity:1"/>
   <stop offset="100%" style="stop-color:#ad6c16; stop-opacity:1"/>
  </linearGradient>
  <linearGradient id="aurora" x1="0%" x2="0%" y1="0%" y2="100%">
   <stop offset="0%" style="stop-color:#09D4DF; stop-opacity:1"/>
   <stop offset="100%" style="stop-color:#9269F4; stop-opacity:1"/>
  </linearGradient>
  <linearGradient id="cyberneon" x1="0%" x2="0%" y1="0%" y2="100%">
    <stop offset="0" style="stop-color:#0abdc6; stop-opacity:1"/>
    <stop offset="1" style="stop-color:#ea00d9; stop-opacity:1"/>
  </linearGradient>
  <linearGradient id="fitdance" x1="0%" x2="0%" y1="0%" y2="100%">
   <stop offset="0%" style="stop-color:#1AD6AB; stop-opacity:1"/>
   <stop offset="100%" style="stop-color:#329DB6; stop-opacity:1"/>
  </linearGradient>
  <linearGradient id="oomox" x1="0%" x2="0%" y1="0%" y2="100%">
   <stop offset="0%" style="stop-color:#f2bac9; stop-opacity:1"/>
   <stop offset="100%" style="stop-color:#d6c9de; stop-opacity:1"/>
  </linearGradient>
  <linearGradient id="rainblue" x1="0%" x2="0%" y1="0%" y2="100%">
   <stop offset="0%" style="stop-color:#00F260; stop-opacity:1"/>
   <stop offset="100%" style="stop-color:#0575E6; stop-opacity:1"/>
  </linearGradient>
  <linearGradient id="sunrise" x1="0%" x2="0%" y1="0%" y2="100%">
   <stop offset="0%" style="stop-color: #FF8501; stop-opacity:1"/>
   <stop offset="100%" style="stop-color: #FFCB01; stop-opacity:1"/>
  </linearGradient>
  <linearGradient id="telinkrin" x1="0%" x2="0%" y1="0%" y2="100%">
   <stop offset="0%" style="stop-color: #b2ced6; stop-opacity:1"/>
   <stop offset="100%" style="stop-color: #6da5b7; stop-opacity:1"/>
  </linearGradient>
  <linearGradient id="60spsycho" x1="0%" x2="0%" y1="0%" y2="100%">
   <stop offset="0%" style="stop-color: #df5940; stop-opacity:1"/>
   <stop offset="25%" style="stop-color: #d8d15f; stop-opacity:1"/>
   <stop offset="50%" style="stop-color: #e9882a; stop-opacity:1"/>
   <stop offset="100%" style="stop-color: #279362; stop-opacity:1"/>
  </linearGradient>
  <linearGradient id="90ssummer" x1="0%" x2="0%" y1="0%" y2="100%">
   <stop offset="0%" style="stop-color: #f618c7; stop-opacity:1"/>
   <stop offset="20%" style="stop-color: #94ffab; stop-opacity:1"/>
   <stop offset="50%" style="stop-color: #fbfd54; stop-opacity:1"/>
   <stop offset="100%" style="stop-color: #0f83ae; stop-opacity:1"/>
  </linearGradient>
 </defs>
 <path fill="url(#oomox)" class="ColorScheme-Text" fill-rule="evenodd" d="M 8.698 0 C 7.216 0 5.795 0.589 4.747 1.637 C 3.7 2.684 3.111 4.106 3.111 5.587 C 3.112 5.624 3.113 5.66 3.115 5.696 C 3.114 5.731 3.107 5.763 3.107 5.798 C 3.108 5.886 3.109 5.974 3.115 6.062 C 3.115 6.08 3.114 6.097 3.114 6.114 L 3.114 7.156 L 3.107 7.544 L 1.831 9.556 C 1.538 10.115 1.815 10.463 2.445 10.471 L 3.114 10.481 L 3.114 12.052 C 3.114 12.709 3.728 13.26 4.388 13.26 L 5.905 13.28 L 5.913 15.994 Q 6.145 16.01 12.207 15.983 L 12.2 10.197 C 12.2 10.106 12.195 10.031 12.193 9.946 C 13.516 8.886 14.286 7.282 14.286 5.587 C 14.286 4.106 13.697 2.684 12.649 1.637 C 11.602 0.589 10.18 0 8.698 0 L 8.698 0 Z M 7.956 5.195 C 7.956 4.617 8.426 4.147 9.004 4.147 C 9.582 4.147 10.051 4.617 10.051 5.195 C 10.051 5.773 9.582 6.242 9.004 6.242 C 8.426 6.242 7.956 5.773 7.956 5.195 L 7.956 5.195 L 7.956 5.195 Z M 9.004 3.449 C 9.968 3.449 10.75 4.23 10.75 5.195 C 10.75 6.159 9.968 6.941 9.004 6.941 C 8.039 6.941 7.258 6.159 7.258 5.195 C 7.258 4.23 8.039 3.449 9.004 3.449 L 9.004 3.449 L 9.004 3.449 L 9.004 3.449 Z M 9.004 2.052 C 7.268 2.052 5.861 3.459 5.861 5.195 C 5.861 6.93 7.268 8.338 9.004 8.338 C 10.74 8.338 12.147 6.93 12.147 5.195 C 12.147 3.459 10.74 2.052 9.004 2.052 L 9.004 2.052 L 9.004 2.052 L 9.004 2.052 Z"/>
</svg>
