<svg xmlns="http://www.w3.org/2000/svg" width="16" height="16" version="1.1">
 <defs>
   <style id="current-color-scheme" type="text/css">
   .ColorScheme-Text { color: #e9ecf2; } .ColorScheme-Highlight { color:#5294e2; }
  </style>
  <linearGradient id="arrongin" x1="0%" x2="0%" y1="0%" y2="100%">
   <stop offset="0%" style="stop-color:#dd9b44; stop-opacity:1"/>
   <stop offset="100%" style="stop-color:#ad6c16; stop-opacity:1"/>
  </linearGradient>
  <linearGradient id="aurora" x1="0%" x2="0%" y1="0%" y2="100%">
   <stop offset="0%" style="stop-color:#09D4DF; stop-opacity:1"/>
   <stop offset="100%" style="stop-color:#9269F4; stop-opacity:1"/>
  </linearGradient>
  <linearGradient id="cyberneon" x1="0%" x2="0%" y1="0%" y2="100%">
    <stop offset="0" style="stop-color:#0abdc6; stop-opacity:1"/>
    <stop offset="1" style="stop-color:#ea00d9; stop-opacity:1"/>
  </linearGradient>
  <linearGradient id="fitdance" x1="0%" x2="0%" y1="0%" y2="100%">
   <stop offset="0%" style="stop-color:#1AD6AB; stop-opacity:1"/>
   <stop offset="100%" style="stop-color:#329DB6; stop-opacity:1"/>
  </linearGradient>
  <linearGradient id="oomox" x1="0%" x2="0%" y1="0%" y2="100%">
   <stop offset="0%" style="stop-color:#f2bac9; stop-opacity:1"/>
   <stop offset="100%" style="stop-color:#d6c9de; stop-opacity:1"/>
  </linearGradient>
  <linearGradient id="rainblue" x1="0%" x2="0%" y1="0%" y2="100%">
   <stop offset="0%" style="stop-color:#00F260; stop-opacity:1"/>
   <stop offset="100%" style="stop-color:#0575E6; stop-opacity:1"/>
  </linearGradient>
  <linearGradient id="sunrise" x1="0%" x2="0%" y1="0%" y2="100%">
   <stop offset="0%" style="stop-color: #FF8501; stop-opacity:1"/>
   <stop offset="100%" style="stop-color: #FFCB01; stop-opacity:1"/>
  </linearGradient>
  <linearGradient id="telinkrin" x1="0%" x2="0%" y1="0%" y2="100%">
   <stop offset="0%" style="stop-color: #b2ced6; stop-opacity:1"/>
   <stop offset="100%" style="stop-color: #6da5b7; stop-opacity:1"/>
  </linearGradient>
  <linearGradient id="60spsycho" x1="0%" x2="0%" y1="0%" y2="100%">
   <stop offset="0%" style="stop-color: #df5940; stop-opacity:1"/>
   <stop offset="25%" style="stop-color: #d8d15f; stop-opacity:1"/>
   <stop offset="50%" style="stop-color: #e9882a; stop-opacity:1"/>
   <stop offset="100%" style="stop-color: #279362; stop-opacity:1"/>
  </linearGradient>
  <linearGradient id="90ssummer" x1="0%" x2="0%" y1="0%" y2="100%">
   <stop offset="0%" style="stop-color: #f618c7; stop-opacity:1"/>
   <stop offset="20%" style="stop-color: #94ffab; stop-opacity:1"/>
   <stop offset="50%" style="stop-color: #fbfd54; stop-opacity:1"/>
   <stop offset="100%" style="stop-color: #0f83ae; stop-opacity:1"/>
  </linearGradient>
 </defs>
 <path fill="url(#oomox)" class="ColorScheme-Text" fill-rule="evenodd" d="M 11.107 3.09 C 10.568 3.388 10.097 3.854 9.676 4.384 C 8.923 5.331 8.274 6.534 7.615 7.714 C 6.955 8.894 6.286 10.051 5.566 10.875 C 5.179 11.319 4.793 11.658 4.387 11.866 C 4.137 11.537 3.741 11.328 3.297 11.328 C 2.864 11.328 2.476 11.526 2.228 11.844 C 1.834 11.655 1.459 11.367 1.138 11.063 C 0.632 10.584 0.107 9.838 0 9.687 L 0 11.495 C 0.046 11.541 0.323 11.826 0.372 11.872 C 0.792 12.27 1.313 12.688 1.92 12.962 C 2.038 13.615 2.61 14.114 3.297 14.114 C 3.979 14.114 4.547 13.622 4.672 12.977 C 5.326 12.677 5.902 12.185 6.406 11.607 C 7.236 10.656 7.924 9.445 8.588 8.258 C 9.251 7.071 9.89 5.906 10.548 5.077 C 10.861 4.684 11.165 4.378 11.469 4.177 C 11.713 4.468 12.08 4.644 12.488 4.644 C 12.934 4.644 13.332 4.433 13.583 4.102 C 14.059 4.303 14.546 4.615 14.965 4.943 C 15.315 5.217 15.778 5.551 16 5.766 C 15.994 5.237 15.97 4.752 15.926 4.31 C 15.864 4.259 15.717 4.117 15.651 4.066 C 15.14 3.666 14.532 3.247 13.862 2.978 C 13.729 2.341 13.164 1.858 12.488 1.858 C 11.774 1.858 11.185 2.397 11.107 3.09 Z M 14.079 13.281 L 14.079 14.142 L 10.1 14.142 L 12.257 11.31 L 10.1 8.478 L 14.079 8.478 L 14.079 9.338 L 11.837 9.338 L 13.338 11.31 L 11.837 13.281 L 14.079 13.281 Z"/>
</svg>
