<svg xmlns="http://www.w3.org/2000/svg" width="24" height="24" version="1.1">
 <defs>
   <style id="current-color-scheme" type="text/css">
   .ColorScheme-Text { color: #e9ecf2; } .ColorScheme-Highlight { color: #1AD6AB; }
  </style>
  <linearGradient id="arrongin" x1="0%" x2="0%" y1="0%" y2="100%">
   <stop offset="0%"    stop-color= "#dd9b44" stop-opacity="1"/>
   <stop offset="100%"  stop-color= "#ad6c16" stop-opacity="1"/>
  </linearGradient>
  <linearGradient id="aurora" x1="0%" x2="0%" y1="0%" y2="100%">
   <stop offset="0%"    stop-color= "#09D4DF" stop-opacity="1"/>
   <stop offset="100%"  stop-color= "#9269F4" stop-opacity="1"/>
  </linearGradient> 
  <linearGradient id="cyberblue" x1="0%" x2="0%" y1="0%" y2="100%">
   <stop offset="0%"    stop-color= "#07B3FF" stop-opacity="1"/>
   <stop offset="100%"  stop-color= "#007DE8" stop-opacity="1"/>
  </linearGradient>
  <linearGradient id="cyberneon" x1="0%" x2="0%" y1="0%" y2="100%">
    <stop offset="0%"   stop-color= "#0abdc6" stop-opacity="1"/>
    <stop offset="100%" stop-color= "#ea00d9" stop-opacity="1"/>
  </linearGradient>
  <linearGradient id="fitdance" x1="0%" x2="0%" y1="0%" y2="100%">
   <stop offset="0%"    stop-color= "#1AD6AB" stop-opacity="1"/>
   <stop offset="100%"  stop-color= "#329DB6" stop-opacity="1"/>
  </linearGradient>
  <linearGradient id="oomox" x1="0%" x2="0%" y1="0%" y2="100%">
   <stop offset="0%"    stop-color= "#f2bac9" stop-opacity="1"/>
   <stop offset="100%"  stop-color= "#d6c9de" stop-opacity="1"/>
  </linearGradient>
  <linearGradient id="rainblue" x1="0%" x2="0%" y1="0%" y2="100%">
   <stop offset="0%"    stop-color= "#00F260" stop-opacity="1"/>
   <stop offset="100%"  stop-color= "#0575E6" stop-opacity="1"/>
  </linearGradient>
  <linearGradient id="redcarbon" x1="0%" x2="0%" y1="0%" y2="100%">
   <stop offset="0%"    stop-color= "#FF6D57" stop-opacity="1"/>
   <stop offset="50%"   stop-color= "#FF5160" stop-opacity="1"/>
   <stop offset="100%"  stop-color= "#F50F22" stop-opacity="1"/>
  </linearGradient>
  <linearGradient id="sunrise" x1="0%" x2="0%" y1="0%" y2="100%">
   <stop offset="0%"    stop-color= "#FF8501" stop-opacity="1"/>
   <stop offset="100%"  stop-color= "#FFCB01" stop-opacity="1"/>
  </linearGradient>
  <linearGradient id="telinkrin" x1="0%" x2="0%" y1="0%" y2="100%">
   <stop offset="0%"    stop-color= "#b2ced6" stop-opacity="1"/>
   <stop offset="100%"  stop-color= "#6da5b7" stop-opacity="1"/>
  </linearGradient>
  <linearGradient id="60spsycho" x1="0%" x2="0%" y1="0%" y2="100%">
   <stop offset="0%"    stop-color= "#df5940" stop-opacity="1"/>
   <stop offset="25%"   stop-color= "#d8d15f" stop-opacity="1"/>
   <stop offset="50%"   stop-color= "#e9882a" stop-opacity="1"/>
   <stop offset="100%"  stop-color= "#279362" stop-opacity="1"/>
  </linearGradient>
  <linearGradient id="90ssummer" x1="0%" x2="0%" y1="0%" y2="100%">
   <stop offset="0%"    stop-color= "#f618c7" stop-opacity="1"/>
   <stop offset="20%"   stop-color= "#94ffab" stop-opacity="1"/>
   <stop offset="50%"   stop-color= "#fbfd54" stop-opacity="1"/>
   <stop offset="100%"  stop-color= "#0f83ae" stop-opacity="1"/>
  </linearGradient>
 </defs>
 <path fill="url(#oomox)" class="ColorScheme-Text" d="M 10.029297 1 C 9.8821968 1.003 9.7293125 1.0169625 9.5703125 1.0390625 C 9.0034125 1.1178625 8.3186875 1.3915281 7.5546875 1.7988281 C 6.0140875 0.94570816 4.8138406 0.89374685 3.8066406 1.1542969 C 2.7378406 1.4307969 1.868925 1.88425 0.515625 1.84375 L 0 1.828125 L 0 16 L 11.787109 16 C 11.304109 15.467 11 14.769 11 14 C 11 12.816 11.707844 11.790686 12.714844 11.304688 C 12.227844 11.167687 11.735453 11.018814 11.189453 10.882812 C 10.210453 10.637814 9.0982 10.696187 8 11.367188 L 8 2.6699219 C 8.7033 2.2844219 9.2453875 2.0717125 9.6796875 2.0078125 C 9.9188875 1.9726125 10.131891 1.9756531 10.337891 2.0019531 C 10.543891 2.0284531 10.743219 2.079125 10.949219 2.140625 C 11.484219 2.300425 12.143 2.5531719 13 2.7011719 L 13 11.1875 C 13.315 11.0735 13.648 11 14 11 C 14.352 11 14.685 11.0735 15 11.1875 L 15 1.8457031 L 14.482422 1.8632812 C 12.966422 1.9184812 12.212422 1.464575 11.232422 1.171875 C 10.865422 1.062075 10.471297 0.99098 10.029297 1 z M 5.21875 1.9941406 C 5.71765 2.0327406 6.2822 2.213475 7 2.609375 L 7 11.335938 C 5.8956 10.693937 4.7902064 10.645672 3.8164062 10.888672 C 3.1632062 11.050672 2.5692 11.237672 2 11.388672 L 2 2.6640625 C 2.8021 2.5160625 3.4740875 2.2830125 4.0546875 2.1328125 C 4.2857875 2.0730125 4.5090812 2.024 4.7382812 2 C 4.8932813 1.9838 5.05235 1.9813406 5.21875 1.9941406 z M 14 12 A 2 2 0 0 0 12 14 A 2 2 0 0 0 14 16 A 2 2 0 0 0 16 14 A 2 2 0 0 0 14 12 z" transform="translate(4 4)"/>
</svg>
