<svg xmlns="http://www.w3.org/2000/svg" width="42" height="4">
 <g transform="translate(0,-1048.3622)">
  <path d="m 1,1048.3622 40,0 c 1,0 1,0 1,1 l 0,2 c 0,1 0,1 -1,1 l -40,0 c -1,0 -1,0 -1,-1 l 0,-2 c 0,-1 0,-1 1,-1 z" fill="#baf2e9"/>
 </g>
</svg>
