<svg xmlns="http://www.w3.org/2000/svg" width="16" height="16" version="1.1">
 <defs>
   <style id="current-color-scheme" type="text/css">
   .ColorScheme-Text { color: #e9ecf2; } .ColorScheme-Highlight { color: #1AD6AB; }
  </style>
  <linearGradient id="arrongin" x1="0%" x2="0%" y1="0%" y2="100%">
   <stop offset="0%" style="stop-color: #dd9b44; stop-opacity: 1"/>
   <stop offset="100%" style="stop-color: #ad6c16; stop-opacity: 1"/>
  </linearGradient>
  <linearGradient id="aurora" x1="0%" x2="0%" y1="0%" y2="100%">
   <stop offset="0%" style="stop-color: #09D4DF; stop-opacity: 1"/>
   <stop offset="100%" style="stop-color: #9269F4; stop-opacity: 1"/>
  </linearGradient>
  <linearGradient id="cyberneon" x1="0%" x2="0%" y1="0%" y2="100%">
    <stop offset="0" style="stop-color: #0abdc6; stop-opacity: 1"/>
    <stop offset="1" style="stop-color: #ea00d9; stop-opacity: 1"/>
  </linearGradient>
  <linearGradient id="fitdance" x1="0%" x2="0%" y1="0%" y2="100%">
   <stop offset="0%" style="stop-color: #1AD6AB; stop-opacity: 1"/>
   <stop offset="100%" style="stop-color: #329DB6; stop-opacity: 1"/>
  </linearGradient>
  <linearGradient id="oomox" x1="0%" x2="0%" y1="0%" y2="100%">
   <stop offset="0%" style="stop-color: #f2bac9; stop-opacity: 1"/>
   <stop offset="100%" style="stop-color: #d6c9de; stop-opacity: 1"/>
  </linearGradient>
  <linearGradient id="rainblue" x1="0%" x2="0%" y1="0%" y2="100%">
   <stop offset="0%" style="stop-color: #00F260; stop-opacity: 1"/>
   <stop offset="100%" style="stop-color: #0575E6; stop-opacity: 1"/>
  </linearGradient>
  <linearGradient id="sunrise" x1="0%" x2="0%" y1="0%" y2="100%">
   <stop offset="0%" style="stop-color: #FF8501; stop-opacity: 1"/>
   <stop offset="100%" style="stop-color: #FFCB01; stop-opacity: 1"/>
  </linearGradient>
  <linearGradient id="telinkrin" x1="0%" x2="0%" y1="0%" y2="100%">
   <stop offset="0%" style="stop-color: #b2ced6; stop-opacity: 1"/>
   <stop offset="100%" style="stop-color: #6da5b7; stop-opacity: 1"/>
  </linearGradient>
  <linearGradient id="60spsycho" x1="0%" x2="0%" y1="0%" y2="100%">
   <stop offset="0%" style="stop-color: #df5940; stop-opacity: 1"/>
   <stop offset="25%" style="stop-color: #d8d15f; stop-opacity: 1"/>
   <stop offset="50%" style="stop-color: #e9882a; stop-opacity: 1"/>
   <stop offset="100%" style="stop-color: #279362; stop-opacity: 1"/>
  </linearGradient>
  <linearGradient id="90ssummer" x1="0%" x2="0%" y1="0%" y2="100%">
   <stop offset="0%" style="stop-color: #f618c7; stop-opacity: 1"/>
   <stop offset="20%" style="stop-color: #94ffab; stop-opacity: 1"/>
   <stop offset="50%" style="stop-color: #fbfd54; stop-opacity: 1"/>
   <stop offset="100%" style="stop-color: #0f83ae; stop-opacity: 1"/>
  </linearGradient>
 </defs>
 <path fill="url(#oomox)" class="ColorScheme-Text" d="M 1.018959,1.0002458 C -0.33039237,0.97432991 -0.34428757,3.0057835 1.0052919,2.9983063 V 13.98764 C 0.9862466,15.333483 3.006064,15.336844 3.002634,14.0013 H 2.998724 V 1.9700075 C 2.9823279,1.4325888 2.5466551,1.0002999 2.0049393,1.0002458 Z M 3.9983765,1.999276 v 10.989333 h 1.0055046 v 1.272204 c 0,0.726096 0.7263062,0.725857 0.7263062,0.725857 h 0.273341 0.9996475 v -1.998061 h 1.9992935 v 1.994159 h 1.9992947 v -1.994159 h 1.999294 v 1.99611 h 0.999647 0.273342 c 0,0 0.726306,2.39e-4 0.726306,-0.725859 v -1.270251 h 0.300676 C 15.688692,12.988609 16,12.682558 16,12.301776 V 2.6861093 C 16,2.3053269 15.688692,1.999276 15.301029,1.999276 Z m 2.0051518,1.9980606 h 3.9985887 c 0.838573,-3.496e-4 1.304946,0.9691083 0.780974,1.6234241 L 8.0848251,8.992488 h 1.9172919 c 1.351845,-0.019111 1.351845,2.017167 0,1.998061 H 6.0035283 C 5.1649552,10.990898 4.6985819,10.02144 5.2225539,9.3671243 L 7.9208209,5.995397 H 6.0035283 c -1.3518457,0.019102 -1.3518457,-2.0171671 0,-1.9980604 z m 6.5055167,0 h 1.991484 c 0.399153,8.51e-5 0.637212,0.4446352 0.415869,0.77659 l -1.476042,2.2205008 h 1.060173 c 0.6759,-0.00949 0.6759,1.008559 0,0.9990303 h -1.991484 c -0.400037,0.0015 -0.639659,-0.4438991 -0.417822,-0.7765902 l 1.476042,-2.2205007 h -1.05822 c -0.675923,0.00955 -0.675923,-1.0085836 0,-0.9990302 z"/>
</svg>
