<svg xmlns="http://www.w3.org/2000/svg" width="16" height="16" version="1.1">
 <defs>
   <style id="current-color-scheme" type="text/css">
   .ColorScheme-Text { color: #e9ecf2; } .ColorScheme-Highlight { color: #1AD6AB; }
  </style>
  <linearGradient id="arrongin" x1="0%" x2="0%" y1="0%" y2="100%">
   <stop offset="0%" style="stop-color: #dd9b44; stop-opacity: 1"/>
   <stop offset="100%" style="stop-color: #ad6c16; stop-opacity: 1"/>
  </linearGradient>
  <linearGradient id="aurora" x1="0%" x2="0%" y1="0%" y2="100%">
   <stop offset="0%" style="stop-color: #09D4DF; stop-opacity: 1"/>
   <stop offset="100%" style="stop-color: #9269F4; stop-opacity: 1"/>
  </linearGradient>
  <linearGradient id="cyberneon" x1="0%" x2="0%" y1="0%" y2="100%">
    <stop offset="0" style="stop-color: #0abdc6; stop-opacity: 1"/>
    <stop offset="1" style="stop-color: #ea00d9; stop-opacity: 1"/>
  </linearGradient>
  <linearGradient id="fitdance" x1="0%" x2="0%" y1="0%" y2="100%">
   <stop offset="0%" style="stop-color: #1AD6AB; stop-opacity: 1"/>
   <stop offset="100%" style="stop-color: #329DB6; stop-opacity: 1"/>
  </linearGradient>
  <linearGradient id="oomox" x1="0%" x2="0%" y1="0%" y2="100%">
   <stop offset="0%" style="stop-color: #f2bac9; stop-opacity: 1"/>
   <stop offset="100%" style="stop-color: #d6c9de; stop-opacity: 1"/>
  </linearGradient>
  <linearGradient id="rainblue" x1="0%" x2="0%" y1="0%" y2="100%">
   <stop offset="0%" style="stop-color: #00F260; stop-opacity: 1"/>
   <stop offset="100%" style="stop-color: #0575E6; stop-opacity: 1"/>
  </linearGradient>
  <linearGradient id="sunrise" x1="0%" x2="0%" y1="0%" y2="100%">
   <stop offset="0%" style="stop-color: #FF8501; stop-opacity: 1"/>
   <stop offset="100%" style="stop-color: #FFCB01; stop-opacity: 1"/>
  </linearGradient>
  <linearGradient id="telinkrin" x1="0%" x2="0%" y1="0%" y2="100%">
   <stop offset="0%" style="stop-color: #b2ced6; stop-opacity: 1"/>
   <stop offset="100%" style="stop-color: #6da5b7; stop-opacity: 1"/>
  </linearGradient>
  <linearGradient id="60spsycho" x1="0%" x2="0%" y1="0%" y2="100%">
   <stop offset="0%" style="stop-color: #df5940; stop-opacity: 1"/>
   <stop offset="25%" style="stop-color: #d8d15f; stop-opacity: 1"/>
   <stop offset="50%" style="stop-color: #e9882a; stop-opacity: 1"/>
   <stop offset="100%" style="stop-color: #279362; stop-opacity: 1"/>
  </linearGradient>
  <linearGradient id="90ssummer" x1="0%" x2="0%" y1="0%" y2="100%">
   <stop offset="0%" style="stop-color: #f618c7; stop-opacity: 1"/>
   <stop offset="20%" style="stop-color: #94ffab; stop-opacity: 1"/>
   <stop offset="50%" style="stop-color: #fbfd54; stop-opacity: 1"/>
   <stop offset="100%" style="stop-color: #0f83ae; stop-opacity: 1"/>
  </linearGradient>
 </defs>
 <path fill="url(#oomox)" class="ColorScheme-Text" d="M 7.5 0.94726562 C 3.4051875 0.94726562 0 4.0677344 0 7.9785156 C 0 11.889766 3.4051875 15.009766 7.5 15.009766 A 0.93759375 0.93759375 0 0 0 7.5019531 15.009766 C 8.0757031 15.008828 8.6385156 14.899141 9.1972656 14.775391 C 10.348516 15.533828 11.694453 16.216563 13.291016 15.929688 A 0.93759375 0.93759375 0 0 0 13.806641 14.365234 C 13.260081 13.787734 12.971953 13.426953 12.955078 12.658203 C 14.202891 11.375703 14.998125 9.7438281 15 7.9785156 C 15 4.0677344 11.595 0.94726562 7.5 0.94726562 z M 7.5 2.9453125 C 10.578405 2.9453125 12.998913 5.2275022 13 7.9765625 C 12.9988 9.1420178 12.473953 10.286679 11.521484 11.265625 L 10.9375 11.865234 L 10.955078 12.701172 C 10.961978 13.018036 11.115323 13.290459 11.203125 13.587891 C 10.911627 13.444641 10.62978 13.324786 10.296875 13.105469 L 9.5917969 12.638672 L 8.765625 12.820312 C 8.2411543 12.936473 7.8208158 13.009045 7.5 13.009766 C 4.421107 13.009766 2 10.728947 2 7.9785156 C 2 5.2286916 4.4211375 2.9453125 7.5 2.9453125 z M 4.4785156 8.4941406 A 0.50005 0.50005 0 0 0 4.0253906 9.1582031 C 4.0253906 9.1582031 4.2095038 9.6773428 4.7363281 10.128906 C 5.2631524 10.58047 6.15 11 7.5 11 C 8.85 11 9.7368475 10.58047 10.263672 10.128906 C 10.790496 9.6773428 10.974609 9.1582031 10.974609 9.1582031 A 0.50028184 0.50028184 0 0 0 10.025391 8.8417969 C 10.025391 8.8417969 9.959504 9.0726574 9.6113281 9.3710938 C 9.2631524 9.66953 8.65 10 7.5 10 C 6.35 10 5.7368476 9.66953 5.3886719 9.3710938 C 5.0404962 9.0726574 4.9746094 8.8417969 4.9746094 8.8417969 A 0.50005 0.50005 0 0 0 4.4785156 8.4941406 z"/>
 <circle fill="currentColor" class="ColorScheme-Highlight" cx="7.5" cy="6.5" r="1.5"/>
</svg>
