<svg xmlns="http://www.w3.org/2000/svg" width="16" height="16" version="1.1">
 <defs>
   <style id="current-color-scheme" type="text/css">
   .ColorScheme-Text { color: #e9ecf2; } .ColorScheme-Highlight { color:#5294e2; }
  </style>
  <linearGradient id="arrongin" x1="0%" x2="0%" y1="0%" y2="100%">
   <stop offset="0%" style="stop-color:#dd9b44; stop-opacity:1"/>
   <stop offset="100%" style="stop-color:#ad6c16; stop-opacity:1"/>
  </linearGradient>
  <linearGradient id="aurora" x1="0%" x2="0%" y1="0%" y2="100%">
   <stop offset="0%" style="stop-color:#09D4DF; stop-opacity:1"/>
   <stop offset="100%" style="stop-color:#9269F4; stop-opacity:1"/>
  </linearGradient>
  <linearGradient id="cyberneon" x1="0%" x2="0%" y1="0%" y2="100%">
    <stop offset="0" style="stop-color:#0abdc6; stop-opacity:1"/>
    <stop offset="1" style="stop-color:#ea00d9; stop-opacity:1"/>
  </linearGradient>
  <linearGradient id="fitdance" x1="0%" x2="0%" y1="0%" y2="100%">
   <stop offset="0%" style="stop-color:#1AD6AB; stop-opacity:1"/>
   <stop offset="100%" style="stop-color:#329DB6; stop-opacity:1"/>
  </linearGradient>
  <linearGradient id="oomox" x1="0%" x2="0%" y1="0%" y2="100%">
   <stop offset="0%" style="stop-color:#f2bac9; stop-opacity:1"/>
   <stop offset="100%" style="stop-color:#d6c9de; stop-opacity:1"/>
  </linearGradient>
  <linearGradient id="rainblue" x1="0%" x2="0%" y1="0%" y2="100%">
   <stop offset="0%" style="stop-color:#00F260; stop-opacity:1"/>
   <stop offset="100%" style="stop-color:#0575E6; stop-opacity:1"/>
  </linearGradient>
  <linearGradient id="sunrise" x1="0%" x2="0%" y1="0%" y2="100%">
   <stop offset="0%" style="stop-color: #FF8501; stop-opacity:1"/>
   <stop offset="100%" style="stop-color: #FFCB01; stop-opacity:1"/>
  </linearGradient>
  <linearGradient id="telinkrin" x1="0%" x2="0%" y1="0%" y2="100%">
   <stop offset="0%" style="stop-color: #b2ced6; stop-opacity:1"/>
   <stop offset="100%" style="stop-color: #6da5b7; stop-opacity:1"/>
  </linearGradient>
  <linearGradient id="60spsycho" x1="0%" x2="0%" y1="0%" y2="100%">
   <stop offset="0%" style="stop-color: #df5940; stop-opacity:1"/>
   <stop offset="25%" style="stop-color: #d8d15f; stop-opacity:1"/>
   <stop offset="50%" style="stop-color: #e9882a; stop-opacity:1"/>
   <stop offset="100%" style="stop-color: #279362; stop-opacity:1"/>
  </linearGradient>
  <linearGradient id="90ssummer" x1="0%" x2="0%" y1="0%" y2="100%">
   <stop offset="0%" style="stop-color: #f618c7; stop-opacity:1"/>
   <stop offset="20%" style="stop-color: #94ffab; stop-opacity:1"/>
   <stop offset="50%" style="stop-color: #fbfd54; stop-opacity:1"/>
   <stop offset="100%" style="stop-color: #0f83ae; stop-opacity:1"/>
  </linearGradient>
 </defs>
 <path fill="url(#oomox)" class="ColorScheme-Text" d="M 4.2695312 0 L 4.2695312 0.091796875 L 4.2695312 1.2226562 C 4.2695312 1.2923753 4.2121719 1.3476563 4.1425781 1.3476562 L 3.8613281 1.3476562 L 3.7714844 1.3476562 L 3.7714844 1.4394531 L 3.7714844 2.0390625 L 3.7714844 2.125 L 3.7714844 2.1289062 L 3.8613281 2.1289062 L 5.3261719 2.1289062 L 5.4160156 2.1289062 L 5.4160156 2.0390625 L 5.4160156 1.4394531 L 5.4160156 1.3476562 L 5.3261719 1.3476562 L 5.0429688 1.3476562 C 4.9732817 1.3476562 4.9179688 1.292375 4.9179688 1.2226562 L 4.9179688 0.091796875 L 4.9179688 0 L 4.8261719 0 L 4.3613281 0 L 4.2695312 0 z M 6.5410156 0 L 6.5410156 0.091796875 L 6.5410156 1.2226562 C 6.5410156 1.2923753 6.4837502 1.3476563 6.4140625 1.3476562 L 6.1328125 1.3476562 L 6.0410156 1.3476562 L 6.0410156 1.4394531 L 6.0410156 2.0390625 L 6.0410156 2.1289062 L 6.1328125 2.1289062 L 7.5976562 2.1289062 L 7.6875 2.1289062 L 7.6875 2.0390625 L 7.6875 1.4394531 L 7.6875 1.3476562 L 7.5976562 1.3476562 L 7.3164062 1.3476562 C 7.2467182 1.3476562 7.1894531 1.292375 7.1894531 1.2226562 L 7.1894531 0.091796875 L 7.1894531 0 L 7.0976562 0 L 6.6328125 0 L 6.5410156 0 z M 8.8105469 0 L 8.8105469 0.091796875 L 8.8105469 1.2226562 C 8.8105469 1.2923753 8.7552657 1.3476563 8.6855469 1.3476562 L 8.4023438 1.3476562 L 8.3125 1.3476562 L 8.3125 1.4394531 L 8.3125 2.0390625 L 8.3125 2.125 L 8.3125 2.1289062 L 8.4023438 2.1289062 L 9.8671875 2.1289062 L 9.9589844 2.1289062 L 9.9589844 2.0390625 L 9.9589844 1.4394531 L 9.9589844 1.3476562 L 9.8671875 1.3476562 L 9.5859375 1.3476562 C 9.5163755 1.3476562 9.4589844 1.292375 9.4589844 1.2226562 L 9.4589844 0.091796875 L 9.4589844 0 L 9.3691406 0 L 8.9023438 0 L 8.8105469 0 z M 11.082031 0 L 11.082031 0.091796875 L 11.082031 1.2226562 C 11.082031 1.2923753 11.026625 1.3476563 10.957031 1.3476562 L 10.673828 1.3476562 L 10.583984 1.3476562 L 10.583984 1.4394531 L 10.583984 2.0390625 L 10.583984 2.1289062 L 10.673828 2.1289062 L 12.138672 2.1289062 L 12.228516 2.1289062 L 12.228516 2.0390625 L 12.228516 1.4394531 L 12.228516 1.3476562 L 12.138672 1.3476562 L 11.855469 1.3476562 C 11.785779 1.3476562 11.728516 1.292375 11.728516 1.2226562 L 11.728516 0.091796875 L 11.728516 0 L 11.638672 0 L 11.173828 0 L 11.082031 0 z M 4.3964844 2.7851562 C 3.4914532 2.7851562 2.7558594 3.5208751 2.7558594 4.4257812 L 2.7558594 11.574219 C 2.7558594 12.479375 3.4914531 13.212891 4.3964844 13.212891 L 11.605469 13.212891 C 12.5105 13.212891 13.244141 12.479375 13.244141 11.574219 L 13.244141 4.4257812 C 13.244141 3.520875 12.5105 2.7851562 11.605469 2.7851562 L 4.3964844 2.7851562 z M 4.484375 3.6484375 L 5.7089844 3.6484375 C 5.8997656 3.6484375 6.0017031 3.8732657 5.8769531 4.0175781 L 3.9316406 6.2675781 C 3.8983276 6.3061411 3.8588747 6.3298125 3.8164062 6.3398438 C 3.8154375 6.3400625 3.8135 6.3395937 3.8125 6.3398438 C 3.6838125 6.3680312 3.5410156 6.2752812 3.5410156 6.1210938 L 3.5410156 4.5917969 C 3.5410156 4.0734844 3.9660626 3.6484375 4.484375 3.6484375 z M 1.3476562 3.7714844 L 1.3476562 3.8613281 L 1.3476562 4.1445312 C 1.3476562 4.2142193 1.292375 4.2714844 1.2226562 4.2714844 L 0.091796875 4.2714844 L 0 4.2714844 L 0 4.3613281 L 0 4.8261719 L 0 4.9179688 L 0.091796875 4.9179688 L 1.2226562 4.9179688 C 1.2923753 4.9179688 1.3476563 4.9731562 1.3476562 5.0429688 L 1.3476562 5.3261719 L 1.3476562 5.4179688 L 1.4394531 5.4179688 L 2.0390625 5.4179688 L 2.1289062 5.4179688 L 2.1289062 5.3261719 L 2.1289062 3.8613281 L 2.1289062 3.7714844 L 2.0390625 3.7714844 L 1.4394531 3.7714844 L 1.3476562 3.7714844 z M 13.871094 3.7714844 L 13.871094 3.8613281 L 13.871094 5.3261719 L 13.871094 5.4179688 L 13.960938 5.4179688 L 14.560547 5.4179688 L 14.652344 5.4179688 L 14.652344 5.3261719 L 14.652344 5.0429688 C 14.652344 4.9732817 14.707625 4.9179688 14.777344 4.9179688 L 15.908203 4.9179688 L 15.994141 4.9179688 L 16 4.9179688 L 16 4.8261719 L 16 4.3613281 L 16 4.2695312 L 15.908203 4.2695312 L 14.777344 4.2695312 C 14.707624 4.2695312 14.652344 4.2122656 14.652344 4.1425781 L 14.652344 3.8613281 L 14.652344 3.7714844 L 14.560547 3.7714844 L 13.960938 3.7714844 L 13.871094 3.7714844 z M 1.3476562 6.0410156 L 1.3476562 6.1328125 L 1.3476562 6.4140625 C 1.3476562 6.4837495 1.292375 6.5410156 1.2226562 6.5410156 L 0.091796875 6.5410156 L 0 6.5410156 L 0 6.6308594 L 0 7.0976562 L 0 7.1894531 L 0.091796875 7.1894531 L 1.2226562 7.1894531 C 1.2923753 7.1894531 1.3476563 7.2447654 1.3476562 7.3144531 L 1.3476562 7.5957031 L 1.3476562 7.6875 L 1.4394531 7.6875 L 2.0390625 7.6875 L 2.1289062 7.6875 L 2.1289062 7.5957031 L 2.1289062 6.1328125 L 2.1289062 6.0410156 L 2.0390625 6.0410156 L 1.4394531 6.0410156 L 1.3535156 6.0410156 L 1.3476562 6.0410156 z M 13.871094 6.0410156 L 13.871094 6.1328125 L 13.871094 7.5976562 L 13.871094 7.6875 L 13.960938 7.6875 L 14.560547 7.6875 L 14.652344 7.6875 L 14.652344 7.5976562 L 14.652344 7.3164062 C 14.652344 7.2467182 14.707625 7.1894531 14.777344 7.1894531 L 15.908203 7.1894531 L 16 7.1894531 L 16 7.0976562 L 16 6.6328125 L 16 6.5410156 L 15.908203 6.5410156 L 14.777344 6.5410156 C 14.707624 6.5410156 14.652344 6.4837502 14.652344 6.4140625 L 14.652344 6.1328125 L 14.652344 6.0410156 L 14.560547 6.0410156 L 13.960938 6.0410156 L 13.875 6.0410156 L 13.871094 6.0410156 z M 5.9335938 6.8066406 C 6.155875 6.8066406 6.3478906 6.8696252 6.5058594 6.9960938 C 6.6646719 7.1236562 6.7684063 7.3149375 6.8125 7.5625 L 6.8261719 7.6347656 L 6.8261719 7.6425781 L 6.25 7.6425781 L 6.2363281 7.5898438 C 6.2165468 7.5113437 6.1816563 7.4465157 6.1328125 7.3964844 C 6.0876563 7.3508282 6.0226875 7.3300781 5.9335938 7.3300781 C 5.8835308 7.3300781 5.8382497 7.3369246 5.8007812 7.3535156 C 5.7635312 7.3701096 5.7333904 7.394281 5.7089844 7.421875 C 5.6922654 7.440062 5.6789378 7.4590779 5.6679688 7.4824219 C 5.6572188 7.5052339 5.648063 7.538094 5.640625 7.578125 C 5.632685 7.621312 5.6267969 7.6760309 5.6230469 7.7421875 C 5.6187669 7.8106875 5.6171875 7.8961249 5.6171875 8 C 5.6171875 8.104 5.6187669 8.1895625 5.6230469 8.2578125 C 5.6268269 8.3240935 5.632718 8.3786562 5.640625 8.421875 C 5.648065 8.461812 5.6569688 8.4943901 5.6679688 8.5175781 C 5.6786877 8.5405151 5.6910633 8.560532 5.7070312 8.578125 C 5.7324373 8.606938 5.7628442 8.6295154 5.8007812 8.6464844 C 5.8381562 8.6630784 5.8835631 8.6699219 5.9335938 8.6699219 C 6.0230628 8.6699219 6.0885156 8.6475935 6.1347656 8.6015625 C 6.1844526 8.5516245 6.2207034 8.4885313 6.2402344 8.4101562 L 6.2519531 8.3574219 L 6.7480469 8.3574219 L 6.8261719 8.3574219 L 6.8125 8.4375 C 6.7684363 8.6850642 6.6646719 8.8764375 6.5058594 9.0039062 C 6.3478906 9.1304688 6.155875 9.1933594 5.9335938 9.1933594 C 5.7962812 9.1933594 5.6737187 9.1710469 5.5703125 9.1269531 C 5.46775 9.0836406 5.3735468 9.02175 5.2910156 8.9414062 C 5.2287656 8.8791562 5.181125 8.8141094 5.1484375 8.7480469 C 5.1157185 8.6831099 5.092782 8.6108281 5.078125 8.5332031 C 5.064219 8.4592341 5.0560474 8.37975 5.0527344 8.2890625 C 5.0496744 8.2032505 5.046875 8.1066875 5.046875 8 C 5.046875 7.8935625 5.0496744 7.796625 5.0527344 7.7109375 C 5.0560444 7.6213435 5.064094 7.5397969 5.078125 7.4667969 C 5.0925317 7.3895156 5.1155625 7.3173593 5.1484375 7.2519531 C 5.181 7.1862656 5.2296094 7.12025 5.2910156 7.0585938 C 5.3747344 6.9774063 5.468 6.9144062 5.5703125 6.8710938 C 5.6734687 6.8272812 5.79625 6.8066406 5.9335938 6.8066406 z M 7.2480469 6.8828125 L 8.1289062 6.8828125 C 8.2453437 6.8828125 8.3522031 6.901375 8.4472656 6.9375 C 8.5422346 6.975219 8.6219688 7.0301714 8.6875 7.0957031 C 8.751469 7.1611401 8.8015 7.2394219 8.8359375 7.3261719 C 8.8703745 7.4146719 8.8886719 7.5067344 8.8886719 7.6035156 C 8.8886719 7.7002026 8.8703745 7.7939219 8.8359375 7.8808594 C 8.8015 7.9693597 8.7515 8.0457969 8.6875 8.1113281 C 8.6219375 8.1784532 8.5422343 8.2319375 8.4472656 8.2695312 C 8.3522031 8.3073751 8.2453437 8.3242187 8.1289062 8.3242188 L 7.796875 8.3242188 L 7.7949219 8.3242188 L 7.7890625 8.3242188 L 7.7890625 9.1171875 L 7.2480469 9.1171875 L 7.2480469 6.8828125 z M 9.2304688 6.8828125 L 9.7714844 6.8828125 L 9.7714844 8.3164062 C 9.7715781 8.4219687 9.798344 8.5008593 9.8515625 8.5566406 C 9.9044065 8.6117036 9.976063 8.6386719 10.070312 8.6386719 C 10.165033 8.6386719 10.237329 8.6119526 10.291016 8.5566406 C 10.345206 8.5009536 10.371094 8.4218437 10.371094 8.3164062 L 10.371094 6.8828125 L 10.910156 6.8828125 L 10.910156 8.3320312 C 10.910156 8.4531251 10.88785 8.5636095 10.84375 8.6621094 C 10.80006 8.7601094 10.738422 8.8459531 10.662109 8.9160156 C 10.586049 8.9855776 10.497297 9.0399062 10.396484 9.078125 C 10.296016 9.116187 10.186438 9.1367188 10.070312 9.1367188 C 9.9545938 9.1367188 9.8446093 9.116188 9.7441406 9.078125 C 9.6428271 9.0397813 9.5520937 8.9853593 9.4765625 8.9160156 C 9.4001249 8.8459531 9.340375 8.7603594 9.296875 8.6621094 C 9.2528125 8.5634532 9.2304687 8.452875 9.2304688 8.3320312 L 9.2304688 6.8828125 z M 7.7226562 7.3144531 L 7.7226562 7.890625 L 8.109375 7.890625 C 8.204437 7.890625 8.2779374 7.864969 8.3320312 7.8125 C 8.3861252 7.761688 8.4121089 7.6903281 8.4121094 7.6035156 C 8.4121094 7.5166093 8.3861249 7.4485938 8.3320312 7.3945312 C 8.2779687 7.3420312 8.2044688 7.3144531 8.109375 7.3144531 L 7.7226562 7.3144531 z M 1.3476562 8.3125 L 1.3476562 8.4023438 L 1.3476562 8.6835938 C 1.3476562 8.7532817 1.292375 8.8105469 1.2226562 8.8105469 L 0.091796875 8.8105469 L 0 8.8105469 L 0 8.9023438 L 0 9.3671875 L 0 9.4589844 L 0.091796875 9.4589844 L 1.2226562 9.4589844 C 1.2923753 9.4589844 1.3476563 9.5142967 1.3476562 9.5839844 L 1.3476562 9.8671875 L 1.3476562 9.9589844 L 1.4394531 9.9589844 L 2.0390625 9.9589844 L 2.1289062 9.9589844 L 2.1289062 9.8671875 L 2.1289062 8.4023438 L 2.1289062 8.3125 L 2.0390625 8.3125 L 1.4394531 8.3125 L 1.3476562 8.3125 z M 13.871094 8.3125 L 13.871094 8.4023438 L 13.871094 9.8671875 L 13.871094 9.9589844 L 13.960938 9.9589844 L 14.560547 9.9589844 L 14.652344 9.9589844 L 14.652344 9.8671875 L 14.652344 9.5859375 C 14.652344 9.5162505 14.707625 9.4589844 14.777344 9.4589844 L 15.908203 9.4589844 L 15.994141 9.4589844 L 16 9.4589844 L 16 9.3691406 L 16 8.9023438 L 16 8.8105469 L 15.908203 8.8105469 L 14.777344 8.8105469 C 14.707624 8.8105469 14.652344 8.7552657 14.652344 8.6855469 L 14.652344 8.4023438 L 14.652344 8.3125 L 14.560547 8.3125 L 13.960938 8.3125 L 13.871094 8.3125 z M 1.3476562 10.582031 L 1.3476562 10.673828 L 1.3476562 10.957031 C 1.3476562 11.026721 1.292375 11.082031 1.2226562 11.082031 L 0.091796875 11.082031 L 0 11.082031 L 0 11.173828 L 0 11.638672 L 0 11.730469 L 0.091796875 11.730469 L 1.2226562 11.730469 C 1.2923753 11.730469 1.3476563 11.787734 1.3476562 11.857422 L 1.3476562 12.138672 L 1.3476562 12.228516 L 1.4394531 12.228516 L 2.0390625 12.228516 L 2.1289062 12.228516 L 2.1289062 12.138672 L 2.1289062 10.673828 L 2.1289062 10.582031 L 2.0390625 10.582031 L 1.4394531 10.582031 L 1.3476562 10.582031 z M 13.871094 10.583984 L 13.871094 10.673828 L 13.871094 12.138672 L 13.871094 12.228516 L 13.960938 12.228516 L 14.560547 12.228516 L 14.652344 12.228516 L 14.652344 12.138672 L 14.652344 11.855469 C 14.652344 11.785779 14.707625 11.728516 14.777344 11.728516 L 15.908203 11.728516 L 16 11.728516 L 16 11.638672 L 16 11.173828 L 16 11.082031 L 15.908203 11.082031 L 14.777344 11.082031 C 14.707624 11.082031 14.652344 11.026755 14.652344 10.957031 L 14.652344 10.673828 L 14.652344 10.583984 L 14.560547 10.583984 L 13.960938 10.583984 L 13.871094 10.583984 z M 3.7714844 13.871094 L 3.7714844 13.960938 L 3.7714844 14.560547 L 3.7714844 14.646484 L 3.7714844 14.650391 L 3.8613281 14.650391 L 4.1445312 14.650391 C 4.2142193 14.650391 4.2714844 14.70766 4.2714844 14.777344 L 4.2714844 15.908203 L 4.2714844 15.994141 L 4.2714844 16 L 4.3613281 16 L 4.8261719 16 L 4.9179688 16 L 4.9179688 15.908203 L 4.9179688 14.777344 C 4.9179688 14.707654 4.973375 14.652344 5.0429688 14.652344 L 5.3261719 14.652344 L 5.4121094 14.652344 L 5.4160156 14.652344 L 5.4160156 14.560547 L 5.4160156 13.960938 L 5.4160156 13.871094 L 5.3261719 13.871094 L 3.8613281 13.871094 L 3.7714844 13.871094 z M 6.0410156 13.871094 L 6.0410156 13.960938 L 6.0410156 14.560547 L 6.0410156 14.652344 L 6.1328125 14.652344 L 6.4140625 14.652344 C 6.4837495 14.652344 6.5410156 14.70766 6.5410156 14.777344 L 6.5410156 15.908203 L 6.5410156 16 L 6.6308594 16 L 7.0976562 16 L 7.1894531 16 L 7.1894531 15.908203 L 7.1894531 14.777344 C 7.1894531 14.707654 7.2447344 14.652344 7.3144531 14.652344 L 7.5976562 14.652344 L 7.6816406 14.652344 L 7.6835938 14.652344 L 7.6875 14.652344 L 7.6875 14.560547 L 7.6875 13.960938 L 7.6875 13.871094 L 7.5976562 13.871094 L 6.1328125 13.871094 L 6.0410156 13.871094 z M 8.3125 13.871094 L 8.3125 13.960938 L 8.3125 14.560547 L 8.3125 14.646484 L 8.3125 14.650391 L 8.4023438 14.650391 L 8.6835938 14.650391 C 8.7532817 14.650391 8.8105469 14.70766 8.8105469 14.777344 L 8.8105469 15.908203 L 8.8105469 16 L 8.9023438 16 L 9.3671875 16 L 9.4589844 16 L 9.4589844 15.908203 L 9.4589844 14.777344 C 9.4589844 14.707654 9.5144217 14.652344 9.5839844 14.652344 L 9.8671875 14.652344 L 9.953125 14.652344 L 9.9589844 14.652344 L 9.9589844 14.560547 L 9.9589844 13.960938 L 9.9589844 13.871094 L 9.8671875 13.871094 L 8.4023438 13.871094 L 8.3125 13.871094 z M 10.582031 13.871094 L 10.582031 13.960938 L 10.582031 14.560547 L 10.582031 14.652344 L 10.673828 14.652344 L 10.957031 14.652344 C 11.026591 14.652344 11.082031 14.70766 11.082031 14.777344 L 11.082031 15.908203 L 11.082031 16 L 11.173828 16 L 11.638672 16 L 11.730469 16 L 11.730469 15.908203 L 11.730469 14.777344 C 11.730469 14.707654 11.787735 14.652344 11.857422 14.652344 L 12.138672 14.652344 L 12.224609 14.652344 L 12.228516 14.652344 L 12.228516 14.560547 L 12.228516 13.960938 L 12.228516 13.871094 L 12.138672 13.871094 L 10.673828 13.871094 L 10.582031 13.871094 z"/>
</svg>
