<svg xmlns="http://www.w3.org/2000/svg" width="16" height="16" version="1.1">
 <defs>
   <style id="current-color-scheme" type="text/css">
   .ColorScheme-Text { color: #e9ecf2; } .ColorScheme-Highlight { color:#5294e2; }
  </style>
  <linearGradient id="arrongin" x1="0%" x2="0%" y1="0%" y2="100%">
   <stop offset="0%" style="stop-color:#dd9b44; stop-opacity:1"/>
   <stop offset="100%" style="stop-color:#ad6c16; stop-opacity:1"/>
  </linearGradient>
  <linearGradient id="aurora" x1="0%" x2="0%" y1="0%" y2="100%">
   <stop offset="0%" style="stop-color:#09D4DF; stop-opacity:1"/>
   <stop offset="100%" style="stop-color:#9269F4; stop-opacity:1"/>
  </linearGradient>
  <linearGradient id="cyberneon" x1="0%" x2="0%" y1="0%" y2="100%">
    <stop offset="0" style="stop-color:#0abdc6; stop-opacity:1"/>
    <stop offset="1" style="stop-color:#ea00d9; stop-opacity:1"/>
  </linearGradient>
  <linearGradient id="fitdance" x1="0%" x2="0%" y1="0%" y2="100%">
   <stop offset="0%" style="stop-color:#1AD6AB; stop-opacity:1"/>
   <stop offset="100%" style="stop-color:#329DB6; stop-opacity:1"/>
  </linearGradient>
  <linearGradient id="oomox" x1="0%" x2="0%" y1="0%" y2="100%">
   <stop offset="0%" style="stop-color:#f2bac9; stop-opacity:1"/>
   <stop offset="100%" style="stop-color:#d6c9de; stop-opacity:1"/>
  </linearGradient>
  <linearGradient id="rainblue" x1="0%" x2="0%" y1="0%" y2="100%">
   <stop offset="0%" style="stop-color:#00F260; stop-opacity:1"/>
   <stop offset="100%" style="stop-color:#0575E6; stop-opacity:1"/>
  </linearGradient>
  <linearGradient id="sunrise" x1="0%" x2="0%" y1="0%" y2="100%">
   <stop offset="0%" style="stop-color: #FF8501; stop-opacity:1"/>
   <stop offset="100%" style="stop-color: #FFCB01; stop-opacity:1"/>
  </linearGradient>
  <linearGradient id="telinkrin" x1="0%" x2="0%" y1="0%" y2="100%">
   <stop offset="0%" style="stop-color: #b2ced6; stop-opacity:1"/>
   <stop offset="100%" style="stop-color: #6da5b7; stop-opacity:1"/>
  </linearGradient>
  <linearGradient id="60spsycho" x1="0%" x2="0%" y1="0%" y2="100%">
   <stop offset="0%" style="stop-color: #df5940; stop-opacity:1"/>
   <stop offset="25%" style="stop-color: #d8d15f; stop-opacity:1"/>
   <stop offset="50%" style="stop-color: #e9882a; stop-opacity:1"/>
   <stop offset="100%" style="stop-color: #279362; stop-opacity:1"/>
  </linearGradient>
  <linearGradient id="90ssummer" x1="0%" x2="0%" y1="0%" y2="100%">
   <stop offset="0%" style="stop-color: #f618c7; stop-opacity:1"/>
   <stop offset="20%" style="stop-color: #94ffab; stop-opacity:1"/>
   <stop offset="50%" style="stop-color: #fbfd54; stop-opacity:1"/>
   <stop offset="100%" style="stop-color: #0f83ae; stop-opacity:1"/>
  </linearGradient>
 </defs>
 <path fill="url(#oomox)" class="ColorScheme-Text" d="m 8.4449428,15.495776 c -0.021543,-0.003 -0.037795,-0.0076 -0.043238,-0.01512 -0.011339,-0.01512 -0.00605,-0.05669 0.011339,-0.09071 0.014362,-0.02646 0.016252,-0.048 0.00529,-0.0548 -0.00416,-0.0026 -0.043276,-0.0076 -0.08708,-0.0076 -0.089537,-0.0038 -0.1340976,-0.0189 -0.168,-0.04536 -0.050305,-0.04157 -0.05862,-0.104692 -0.023055,-0.176126 0.02759,-0.05556 0.078765,-0.120944 0.1417701,-0.181417 0.098872,-0.09487 0.1804724,-0.147779 0.2864126,-0.185953 0.085493,-0.03024 0.1001574,-0.04384 0.1165228,-0.10507 0.00378,-0.01512 0.01852,-0.04271 0.032504,-0.0635 0.044561,-0.06539 0.066973,-0.168566 0.085153,-0.391937 0.019654,-0.243401 0.023433,-0.401763 0.026835,-1.124447 l 0.00333,-0.738141 -0.037946,-0.07559 C 8.7254633,12.101674 8.6621944,11.96221 8.6454511,11.910808 8.6171051,11.824258 8.6027801,11.733926 8.5841471,11.524465 8.5497531,11.140087 8.5124871,11.020238 8.2122794,10.333762 7.9594625,9.7557318 7.7971393,9.3562735 7.6975261,9.0671018 7.6053431,8.7995113 7.5292616,8.6424341 7.4591135,8.5749696 c -0.025323,-0.022677 -0.062022,-0.043087 -0.084586,-0.043087 -0.036661,0 -0.092901,0.048378 -0.1393512,0.1201889 -0.04543,0.070299 -0.1419968,0.2747717 -0.2051527,0.4345323 -0.1134614,0.2868661 -0.2039055,0.5761134 -0.2880756,0.9209572 -0.1092284,0.44761 -0.1692851,0.627516 -0.3032693,0.90875 -0.098343,0.206362 -0.1128947,0.255118 -0.1344007,0.449159 -0.02532,0.228662 -0.07434,0.412838 -0.149707,0.562734 -0.02948,0.05896 -0.05363,0.09373 -0.09725,0.140599 -0.05397,0.0582 -0.06051,0.0703 -0.08239,0.151937 -0.01134,0.04195 -0.05684,0.199937 -0.101404,0.351496 -0.127597,0.433927 -0.2095,0.737499 -0.303345,1.124182 -0.05435,0.224126 -0.09698,0.380674 -0.13765,0.506003 -0.04362,0.134552 -0.04656,0.164788 -0.02797,0.288756 0.0155,0.103559 0.01398,0.167055 -0.0068,0.24189 -0.03814,0.137575 -0.126274,0.220725 -0.274583,0.25852 -0.113877,0.03024 -0.19011,0.03402 -0.506819,0.03402 -0.311433,3.02e-4 -0.35161,-0.0023 -0.431388,-0.03024 -0.04626,-0.01512 -0.08606,-0.04724 -0.09921,-0.08013 -0.0053,-0.01134 -0.01172,-0.04611 -0.01398,-0.07294 -0.0057,-0.05972 -0.01134,-0.06614 -0.05019,-0.05631 -0.03213,0.0076 -0.05443,0.0023 -0.07861,-0.0189 -0.06301,-0.05858 -0.06637,-0.235465 -0.0057,-0.294425 0.04721,-0.04573 0.122116,-0.06161 0.337133,-0.07105 0.221594,-0.01134 0.298432,-0.02646 0.407358,-0.08693 0.06584,-0.03779 0.115956,-0.08126 0.134324,-0.119055 0.0076,-0.01512 0.02079,-0.06274 0.0291,-0.104693 0.0083,-0.04195 0.02268,-0.09827 0.03175,-0.125102 0.02305,-0.06841 0.112214,-0.249827 0.214979,-0.438765 0.155641,-0.286111 0.207836,-0.411213 0.269027,-0.645506 0.02116,-0.08164 0.07703,-0.281953 0.123742,-0.444888 0.04671,-0.162898 0.0909,-0.325417 0.09823,-0.360945 0.0189,-0.0926 0.02154,-0.182551 0.01172,-0.392806 -0.01058,-0.22148 -0.01058,-0.383093 -1.81e-4,-0.447799 0.0042,-0.02646 0.02192,-0.09751 0.03893,-0.158362 0.04596,-0.162897 0.05276,-0.212031 0.05295,-0.379993 2.08e-4,-0.192756 -0.0155,-0.345827 -0.08481,-0.829721 C 5.530444,9.3710978 5.513174,9.1928175 5.508634,8.9075388 5.506734,8.7892396 5.503334,8.690216 5.501034,8.6875703 5.498734,8.6849203 5.347207,8.6304993 5.164467,8.5662475 4.981727,8.5019955 4.792297,8.4350979 4.743514,8.4169561 4.320203,8.2612396 4.11925,8.1501215 3.909263,7.9563073 3.427521,7.5116081 3.119032,6.8714695 2.831678,5.7202255 2.690815,5.1559042 2.626223,4.7955641 2.59353,4.3916837 2.58713,4.3142037 2.57955,4.1429908 2.56783,3.8318223 2.55385,3.4493342 2.5323,3.3752554 2.346123,3.0584932 2.267773,2.9250759 2.189726,2.7761625 2.162022,2.7069972 2.151062,2.6805402 2.135192,2.6223362 2.126872,2.580383 2.118572,2.53843 2.109112,2.497989 2.105702,2.49043 2.098902,2.475312 1.94443,2.397076 1.817211,2.3456741 1.722071,2.3071231 1.532909,2.2133907 1.478408,2.1778631 c -0.02268,-0.015118 -0.06255,-0.043843 -0.08867,-0.065008 -0.02608,-0.022677 -0.05072,-0.040819 -0.05465,-0.043465 -0.0042,-0.0034 -0.03798,0.00756 -0.08549,0.030236 C 1.206508,2.1185241 1.147022,2.1423351 1.11739,2.1517841 1.0675,2.1669021 1.05469,2.1669021 0.943192,2.1669021 0.807733,2.1672044 0.756899,2.1593421 0.670839,2.1166341 0.575449,2.0709021 0.546719,2.0349961 0.53436,1.9461774 0.52264,1.8615164 0.535078,1.8146498 0.58848,1.7420829 0.60209,1.7231849 0.59568,1.7118469 0.559,1.6853899 0.50839,1.6475949 0.5,1.6237839 0.5,1.50813 0.5,1.3845395 0.5027,1.3788702 0.606054,1.2719096 0.698234,1.1766656 0.772731,1.0787757 0.826854,0.9827757 0.927125,0.804382 0.962047,0.7571379 1.011408,0.7337049 c 0.0562,-0.026457 0.200693,-0.037795 0.644103,-0.045354 0.465457,-0.00756 0.613331,-0.018898 0.7508,-0.054425 0.113272,-0.030236 0.18051,-0.066898 0.309845,-0.176126 0.08617,-0.072945 0.09653,-0.075968 0.269745,-0.076346 0.15394,-3.023e-4 0.246236,0.00756 0.380013,0.034016 0.101669,0.018898 0.162142,0.018898 0.205833,0.00378 0.01739,-0.00756 0.06731,-0.026457 0.110853,-0.047622 0.04356,-0.018906 0.09345,-0.041205 0.110878,-0.046496 0.123704,-0.039307 0.233802,-0.026457 0.327685,0.041953 0.08598,0.061228 0.144151,0.1424882 0.258142,0.3594331 0.03935,0.074835 0.105864,0.1972913 0.147855,0.2721259 0.16029,0.2861103 0.210935,0.440126 0.217549,0.6618709 0.0053,0.1708346 -0.0091,0.2411338 -0.09853,0.4887685 -0.04838,0.1337953 -0.04834,0.1334173 -0.0483,0.5214236 1.1e-5,0.2226142 0.0029,0.382337 0.0083,0.4496882 0.02835,0.3643464 0.06187,0.6618708 0.09955,0.8835401 0.03923,0.2309292 0.06573,0.3065197 0.1296,0.3707717 0.08039,0.080882 0.194532,0.1073386 0.465668,0.1073386 0.229077,0 0.332938,-0.015118 0.440292,-0.070299 C 5.9181088,4.3233035 6.139276,4.103335 6.333914,3.8223271 6.4162323,3.70365 6.4895173,3.583461 6.6070606,3.3750956 6.9496748,2.7676122 7.1328534,2.5363807 7.5000912,2.247776 7.7213825,2.0739177 7.8321227,1.9083744 7.9230165,1.6161791 8.0154255,1.3191083 8.1547393,1.1057162 8.3769831,0.9212374 8.6446493,0.6990012 8.8753478,0.6230327 9.2847954,0.6226547 c 0.1665638,-3.023e-4 0.2386394,0.00756 0.3468094,0.034016 0.2269229,0.057827 0.3802052,0.1742362 0.4725992,0.3586771 0.03515,0.070299 0.05412,0.1455119 0.121852,0.4863874 0.06841,0.344315 0.106054,0.4768252 0.176278,0.620674 0.04891,0.1001575 0.102198,0.1738583 0.187729,0.2592756 0.103634,0.1035591 0.175294,0.1390866 0.238488,0.1182992 0.05189,-0.018898 0.0788,-0.061228 0.272164,-0.4470425 0.177751,-0.3545197 0.224882,-0.4442078 0.297146,-0.564737 0.124762,-0.207874 0.229039,-0.3023622 0.371036,-0.335622 0.04082,-0.011339 0.07502,-0.011339 0.198161,-0.011339 0.171779,7.559e-4 0.191395,0.00378 0.319861,0.059339 0.337096,0.1447559 0.598972,0.3590551 0.680629,0.5571023 0.04331,0.1050709 0.210558,0.6289512 0.310035,0.971263 0.05673,0.1950236 0.0796,0.2585197 0.127521,0.3545197 0.06047,0.1209449 0.09222,0.1613858 0.24703,0.3152126 0.101631,0.1009134 0.159798,0.1644094 0.199937,0.2184567 0.146305,0.1965354 0.273751,0.4300346 0.426009,0.7805102 0.231194,0.5321575 0.311396,0.8054551 0.336756,1.1473512 0.01096,0.1462677 0.0045,0.4765228 -0.01625,0.8208755 -0.02041,0.3424252 -0.01965,0.4858961 0.0032,0.557367 0.01663,0.052535 0.06694,0.1545826 0.104315,0.2120315 0.05,0.076724 0.07948,0.1009133 0.310488,0.2528503 0.08217,0.054047 0.157229,0.1092284 0.196347,0.144378 0.164069,0.1470236 0.272088,0.3322205 0.28611,0.4899779 0.0045,0.052158 -0.0053,0.086551 -0.02646,0.091843 C 15.432066,8.1256594 15.196567,8.01303 14.906772,7.8463529 14.754759,7.7590459 14.664807,7.7008411 14.552026,7.6169355 14.437808,7.5322745 14.400845,7.509219 14.371024,7.5043056 c -0.01776,-0.00302 -0.02268,-0.00113 -0.0291,0.011339 -0.03848,0.071811 -0.193436,0.7046929 -0.319143,1.3033701 -0.112668,0.5365039 -0.136366,0.7225322 -0.136479,1.0721763 -9.1e-5,0.27515 0.01739,0.468208 0.06074,0.669543 0.03795,0.176504 0.04244,0.226772 0.03851,0.431396 -0.0036,0.187464 -0.01096,0.291779 -0.05786,0.832856 -0.04528,0.521122 -0.05378,0.737462 -0.04195,1.067225 0.01323,0.37493 0.06599,1.178608 0.09902,1.513701 0.02154,0.216945 0.03704,0.292914 0.08489,0.417222 0.04702,0.121701 0.0641,0.185197 0.06811,0.253985 0.0061,0.102425 -0.01739,0.164787 -0.08682,0.23433 -0.08651,0.08655 -0.20897,0.11074 -0.48449,0.09562 -0.373947,-0.0189 -0.433361,-0.03779 -0.414463,-0.119055 0.0094,-0.04044 0.0072,-0.06425 -0.0064,-0.07143 -0.0068,-0.0038 -0.0359,-0.0076 -0.06493,-0.0076 -0.06826,-7.6e-5 -0.124536,-0.01134 -0.144454,-0.02268 -0.0087,-0.0076 -0.02305,-0.02268 -0.03175,-0.03969 -0.01285,-0.02268 -0.01587,-0.0378 -0.01587,-0.07559 0,-0.04233 0.0025,-0.05216 0.0223,-0.08882 0.02646,-0.04913 0.0957,-0.120945 0.170986,-0.177259 0.228737,-0.171213 0.389431,-0.362835 0.41458,-0.494854 0.04002,-0.209764 0.03364,-0.815698 -0.0155,-1.493858 -0.02684,-0.371528 -0.03704,-0.547881 -0.04437,-0.778999 -0.0076,-0.238866 -0.01247,-0.266078 -0.07276,-0.405354 -0.03213,-0.0737 -0.0689,-0.202961 -0.09494,-0.33222 -0.03137,-0.154961 -0.03704,-0.204095 -0.03704,-0.307654 5.7e-5,-0.106205 0.01285,-0.173858 0.04951,-0.264945 0.03137,-0.07748 0.03704,-0.119055 0.02835,-0.212409 -0.02154,-0.238441 -0.06712,-0.459468 -0.136399,-0.662655 -0.05288,-0.1549607 -0.09906,-0.2604095 -0.210293,-0.4803024 -0.153259,-0.3027402 -0.20999,-0.4352882 -0.231836,-0.541304 -0.03742,-0.1817952 -0.0435,-0.5470488 -0.01172,-0.7201133 0.0061,-0.034016 0.01096,-0.088819 0.01058,-0.1235906 -2e-4,-0.055937 -0.0024,-0.068032 -0.01852,-0.1031811 -0.02305,-0.050268 -0.06762,-0.09222 -0.112894,-0.1058268 -0.06017,-0.018898 -0.09388,-0.00756 -0.132624,0.034016 -0.04774,0.052913 -0.08319,0.1402205 -0.160138,0.3944315 -0.07941,0.2622992 -0.196536,0.6225638 -0.323188,0.9937889 -0.283011,0.8297198 -0.350135,1.0939088 -0.4272,1.6815498 -0.06066,0.46235 -0.107452,0.642255 -0.250469,0.962683 -0.04539,0.10167 -0.214224,0.43612 -0.322923,0.639686 -0.222576,0.41673 -0.33668,0.716371 -0.440175,1.155892 -0.06459,0.274394 -0.105827,0.403616 -0.166526,0.52252 -0.02835,0.05594 -0.04052,0.07143 -0.100687,0.130394 -0.07589,0.07446 -0.07752,0.07861 -0.05454,0.130016 0.01096,0.02268 0.01436,0.04687 0.01663,0.104314 0.0037,0.09789 -0.0064,0.133796 -0.04675,0.169701 -0.03742,0.03402 -0.133304,0.08013 -0.188787,0.09298 -0.05382,0.01134 -0.204019,0.02268 -0.3562961,0.02268 -0.1182237,2.27e-4 -0.2419654,0.01134 -0.2514898,0.0189 -0.00869,0.0076 -6.05e-5,0.02646 0.054047,0.112252 0.065424,0.103559 0.081033,0.137197 0.081109,0.173481 9.07e-5,0.03893 -0.026457,0.09071 -0.077518,0.151181 -0.110589,0.131149 -0.238715,0.187086 -0.4955905,0.215055 -0.1485355,0.01512 -0.4349632,0.02268 -0.5095446,0.01134 z m 0.9809915,-1.238173 c 0.064101,-0.03402 0.137537,-0.09487 0.2573102,-0.214678 0.122041,-0.122078 0.1691339,-0.178393 0.2509228,-0.301228 0.1584757,-0.237732 0.2759807,-0.556346 0.4449827,-1.206652 0.14245,-0.548107 0.212485,-0.892384 0.248693,-1.222261 0.01587,-0.142866 0.0155,-0.615421 -6.05e-4,-0.820196 -0.01398,-0.181795 -0.02041,-0.56296 -0.01096,-0.6776688 0.0038,-0.047244 0.01134,-0.1296378 0.01663,-0.1836851 0.0291,-0.295559 0.0223,-0.7987275 -0.01209,-0.8983937 -0.0061,-0.018898 -0.01172,-0.022677 -0.02532,-0.026457 -0.02759,-0.0034 -0.09604,0.018898 -0.217285,0.075591 C 10.192478,8.8662574 10.062273,8.904809 9.9109563,8.921061 9.7579232,8.936179 9.5592712,8.905943 9.430567,8.847738 9.403732,8.836399 9.379392,8.825061 9.376482,8.82884 9.366277,8.8364 9.362498,8.9312652 9.356829,9.3066101 9.349649,9.7838888 9.342467,9.886579 9.293408,10.246163 c -0.041839,0.305764 -0.04645,0.359811 -0.046828,0.54652 -3.704e-4,0.185575 0.00491,0.237354 0.040857,0.399005 0.035527,0.159118 0.044523,0.244913 0.044447,0.417864 -6.05e-5,0.197292 -0.018898,0.35452 -0.067351,0.567005 -0.1205291,0.526526 -0.1347779,0.985587 -0.047093,1.51782 0.034772,0.21052 0.1145197,0.55287 0.1345134,0.576983 0.010583,0.01134 0.029102,0.0076 0.074306,-0.01512 z"/>
</svg>
