<svg xmlns="http://www.w3.org/2000/svg" width="16" height="16" version="1.1">
 <defs>
   <style id="current-color-scheme" type="text/css">
   .ColorScheme-Text { color: #e9ecf2; } .ColorScheme-Highlight { color:#5294e2; }
  </style>
  <linearGradient id="arrongin" x1="0%" x2="0%" y1="0%" y2="100%">
   <stop offset="0%" style="stop-color:#dd9b44; stop-opacity:1"/>
   <stop offset="100%" style="stop-color:#ad6c16; stop-opacity:1"/>
  </linearGradient>
  <linearGradient id="aurora" x1="0%" x2="0%" y1="0%" y2="100%">
   <stop offset="0%" style="stop-color:#09D4DF; stop-opacity:1"/>
   <stop offset="100%" style="stop-color:#9269F4; stop-opacity:1"/>
  </linearGradient>
  <linearGradient id="cyberneon" x1="0%" x2="0%" y1="0%" y2="100%">
    <stop offset="0" style="stop-color:#0abdc6; stop-opacity:1"/>
    <stop offset="1" style="stop-color:#ea00d9; stop-opacity:1"/>
  </linearGradient>
  <linearGradient id="fitdance" x1="0%" x2="0%" y1="0%" y2="100%">
   <stop offset="0%" style="stop-color:#1AD6AB; stop-opacity:1"/>
   <stop offset="100%" style="stop-color:#329DB6; stop-opacity:1"/>
  </linearGradient>
  <linearGradient id="oomox" x1="0%" x2="0%" y1="0%" y2="100%">
   <stop offset="0%" style="stop-color:#f2bac9; stop-opacity:1"/>
   <stop offset="100%" style="stop-color:#d6c9de; stop-opacity:1"/>
  </linearGradient>
  <linearGradient id="rainblue" x1="0%" x2="0%" y1="0%" y2="100%">
   <stop offset="0%" style="stop-color:#00F260; stop-opacity:1"/>
   <stop offset="100%" style="stop-color:#0575E6; stop-opacity:1"/>
  </linearGradient>
  <linearGradient id="sunrise" x1="0%" x2="0%" y1="0%" y2="100%">
   <stop offset="0%" style="stop-color: #FF8501; stop-opacity:1"/>
   <stop offset="100%" style="stop-color: #FFCB01; stop-opacity:1"/>
  </linearGradient>
  <linearGradient id="telinkrin" x1="0%" x2="0%" y1="0%" y2="100%">
   <stop offset="0%" style="stop-color: #b2ced6; stop-opacity:1"/>
   <stop offset="100%" style="stop-color: #6da5b7; stop-opacity:1"/>
  </linearGradient>
  <linearGradient id="60spsycho" x1="0%" x2="0%" y1="0%" y2="100%">
   <stop offset="0%" style="stop-color: #df5940; stop-opacity:1"/>
   <stop offset="25%" style="stop-color: #d8d15f; stop-opacity:1"/>
   <stop offset="50%" style="stop-color: #e9882a; stop-opacity:1"/>
   <stop offset="100%" style="stop-color: #279362; stop-opacity:1"/>
  </linearGradient>
  <linearGradient id="90ssummer" x1="0%" x2="0%" y1="0%" y2="100%">
   <stop offset="0%" style="stop-color: #f618c7; stop-opacity:1"/>
   <stop offset="20%" style="stop-color: #94ffab; stop-opacity:1"/>
   <stop offset="50%" style="stop-color: #fbfd54; stop-opacity:1"/>
   <stop offset="100%" style="stop-color: #0f83ae; stop-opacity:1"/>
  </linearGradient>
 </defs>
 <path fill="url(#oomox)" class="ColorScheme-Text" d="m 16,6.3157419 c -1.6e-5,0.4591912 -0.181958,0.7641605 -0.545825,0.9147626 -0.228122,0.093267 -0.624591,0.1399279 -1.189409,0.1399279 -0.651746,0 -1.12425,-0.053768 -1.417516,-0.1614349 -0.456224,-0.1578417 -0.700623,-0.4914517 -0.733197,-1.0009229 0.820081,0.122067 1.623882,0.183008 2.411405,0.183008 0.494214,0 0.985727,-0.025101 1.474542,-0.075433 m 0,-0.3659367 c -0.46709,0.0502 -0.839119,0.075433 -1.11609,0.075433 -0.233552,0 -1.224726,-0.068168 -2.973523,-0.2045019 -0.06518,-0.4878451 -0.45894,-0.7891947 -1.181263,-0.9040619 l 0.03259,1.07629 c 0.689737,0.6098593 1.325175,1.650203 1.906314,3.1210306 0.56482,1.4062943 0.847236,2.5829843 0.847251,3.5300133 C 13.515264,13.547974 13.330607,14 12.961307,14 H 3.1527495 C 2.6856721,14 2.4521353,13.623342 2.4521386,12.869962 2.4521353,11.937256 2.7426986,10.724673 3.3238289,9.2323108 3.9375378,7.6681887 4.5811215,6.588345 5.2545824,5.9928721 v -1.07629 C 4.548535,5.0242494 4.1602122,5.3255726 4.089613,5.820644 3.5030507,5.9570579 2.6802411,6.0251459 1.6211814,6.0251459 c -0.63543965,0 -1.17583285,-0.0251 -1.62118125,-0.075433 0.059741,-1.4277742 0.5322459,-2.3999109 1.41751515,-2.916529 0.5865554,-0.3515636 1.648333,-0.624193 3.1853359,-0.8179809 1.1187984,-0.1434553 2.253896,-0.2152026 3.4052952,-0.2152026 3.1663156,0 5.3577596,0.3443901 6.5743376,1.0331835 C 15.494892,3.5354153 15.967396,4.5076181 16,5.9497127 M 10.158859,4.808994 C 9.3930645,4.600899 8.6652993,4.4968777 7.9755598,4.4968777 c -0.6626014,0 -1.390367,0.103968 -2.1832995,0.3121163 L 6.1914455,5.7345498 H 9.7759668 L 10.158859,4.808994 m 0.537678,4.5201638 C 10.696526,8.7480057 10.395101,8.2780348 9.79226,7.9192583 9.2980209,7.625135 8.7033167,7.4780733 8.0081462,7.477994 7.3346827,7.4780733 6.7399786,7.6322819 6.2240323,7.9408049 5.6103122,8.285195 5.3034561,8.7480057 5.3034621,9.3291577 c -6e-6,0.588327 0.3068501,1.0546653 0.9205702,1.3990543 0.5159463,0.308589 1.1106504,0.462811 1.7841139,0.462811 0.6734462,0 1.2681504,-0.154222 1.7841138,-0.462811 0.602841,-0.344389 0.904266,-0.8107273 0.904277,-1.3990543 m 1.352342,3.5730583 0.162933,-0.150682 -0.162933,-0.150666 H 4.0081463 L 3.837067,12.751534 4.0081463,12.902216 H 12.048879 M 10.281058,8.6188187 c -1.1e-5,0.236815 -0.133072,0.35517 -0.3991851,0.35517 -0.282427,0 -0.4236357,-0.118368 -0.4236254,-0.35517 -1.03e-5,-0.2510831 0.1411984,-0.376651 0.4236254,-0.376651 0.2661131,0 0.3991741,0.1255018 0.3991851,0.376651 M 9.4256611,8.0699396 c -1.02e-5,0.2511357 -0.138503,0.3767167 -0.4154788,0.3767167 -0.266133,0 -0.3991946,-0.1255018 -0.3991853,-0.3767167 -9.3e-6,-0.2295361 0.1330523,-0.3443371 0.3991853,-0.34439 0.2769758,5.29e-5 0.4154686,0.114801 0.4154788,0.34439 m 1.1160899,1.4206661 c -1.1e-5,0.251084 -0.138504,0.376664 -0.415479,0.376664 -0.2661342,0 -0.3991957,-0.125501 -0.3991855,-0.376664 -1.02e-5,-0.236814 0.1330513,-0.355156 0.3991855,-0.355156 0.276975,0 0.415468,0.1183681 0.415479,0.3551561 M 8.1792253,7.9192583 C 8.179216,8.1704071 8.0380079,8.295975 7.7555999,8.295975 c -0.2661317,0 -0.3991932,-0.1255019 -0.3991853,-0.3767167 -7.9e-6,-0.2367624 0.1330536,-0.3551041 0.3991853,-0.3551041 0.282408,0 0.4236161,0.118368 0.4236254,0.3551041 m 1.800407,2.4107437 c -1.06e-5,0.244002 -0.1385034,0.365963 -0.4154784,0.365963 -0.2661334,0 -0.3991954,-0.122067 -0.3991853,-0.365963 -1.01e-5,-0.236749 0.1330519,-0.3551043 0.3991853,-0.3551043 0.276975,0 0.4154678,0.1183683 0.4154784,0.3551043 M 9.6782069,9.3075987 c -1.05e-5,0.315749 -0.2009606,0.595552 -0.6028516,0.8394743 -0.3475992,0.19371 -0.7141977,0.290583 -1.0997959,0.290583 -0.3747538,0 -0.7304898,-0.09683 -1.0672099,-0.290583 C 6.5173037,9.9246438 6.3217844,9.6448407 6.3217913,9.3075987 6.3217844,8.9847687 6.5335969,8.7264598 6.9572294,8.5327374 7.2993801,8.3892161 7.6605474,8.3175217 8.0407325,8.3174688 c 0.3747363,5.29e-5 0.7250411,0.078868 1.0509164,0.236815 0.3910285,0.172176 0.5865475,0.423311 0.586558,0.753315 M 7.0224025,8.295975 C 7.0223946,8.5327374 6.889333,8.6511578 6.6232172,8.6511578 6.3462241,8.6511578 6.2077314,8.5327902 6.2077388,8.295975 6.2077314,8.044826 6.3462242,7.9193112 6.6232172,7.9192583 6.889333,7.9193112 7.0223946,8.04476 7.0224025,8.295975 m 1.9389002,2.464564 c -9.7e-6,0.243922 -0.1385025,0.365884 -0.4154788,0.365884 -0.2661325,0 -0.3991942,-0.122068 -0.3991853,-0.365884 -8.8e-6,-0.236749 0.1330528,-0.355156 0.3991853,-0.355156 0.2769762,0 0.415469,0.118368 0.4154788,0.355156 M 6.3217913,9.0600697 c -6.9e-6,0.236828 -0.1330685,0.355183 -0.3991852,0.355183 -0.2769921,0 -0.4154849,-0.118368 -0.4154785,-0.355183 -6.4e-6,-0.243923 0.1384864,-0.365884 0.4154785,-0.365884 0.2661167,0 0.3991783,0.1219351 0.3991852,0.365884 m 1.319756,1.6358953 c -8.9e-6,0.236749 -0.1330704,0.355156 -0.3991859,0.355156 -0.2769933,0 -0.4154857,-0.118368 -0.4154784,-0.355156 -7.3e-6,-0.243922 0.1384851,-0.365883 0.4154784,-0.365963 0.2661155,8e-5 0.399177,0.122067 0.3991859,0.365963 M 6.5580441,10.157853 c -7.5e-6,0.23675 -0.133069,0.355157 -0.3991852,0.355157 -0.2769926,0 -0.4154854,-0.118368 -0.4154789,-0.355157 -6.5e-6,-0.2439232 0.1384863,-0.3658842 0.4154789,-0.3659492 0.2661162,6.49e-5 0.3991778,0.1220669 0.3991852,0.3659492 M 3.9022398,6.2080614 c -0.032591,0.4950847 -0.3095767,0.8359211 -0.8309573,1.0224035 -0.320438,0.093268 -0.8092359,0.1399278 -1.466395,0.1399278 -0.4996625,0 -0.86626085,-0.057467 -1.09979635,-0.1722148 -0.3258664,-0.1650018 -0.4887991,-0.4591912 -0.4887983,-0.8825153 0.4779349,0.042803 0.9178529,0.0646 1.31975545,0.0646 0.8798342,0 1.7352304,-0.057467 2.5661915,-0.1722282"/>
</svg>
