<svg xmlns="http://www.w3.org/2000/svg" width="16" height="16" version="1.1">
 <defs>
   <style id="current-color-scheme" type="text/css">
   .ColorScheme-Text { color: #e9ecf2; } .ColorScheme-Highlight { color:#5294e2; }
  </style>
  <linearGradient id="arrongin" x1="0%" x2="0%" y1="0%" y2="100%">
   <stop offset="0%" style="stop-color:#dd9b44; stop-opacity:1"/>
   <stop offset="100%" style="stop-color:#ad6c16; stop-opacity:1"/>
  </linearGradient>
  <linearGradient id="aurora" x1="0%" x2="0%" y1="0%" y2="100%">
   <stop offset="0%" style="stop-color:#09D4DF; stop-opacity:1"/>
   <stop offset="100%" style="stop-color:#9269F4; stop-opacity:1"/>
  </linearGradient>
  <linearGradient id="cyberneon" x1="0%" x2="0%" y1="0%" y2="100%">
    <stop offset="0" style="stop-color:#0abdc6; stop-opacity:1"/>
    <stop offset="1" style="stop-color:#ea00d9; stop-opacity:1"/>
  </linearGradient>
  <linearGradient id="fitdance" x1="0%" x2="0%" y1="0%" y2="100%">
   <stop offset="0%" style="stop-color:#1AD6AB; stop-opacity:1"/>
   <stop offset="100%" style="stop-color:#329DB6; stop-opacity:1"/>
  </linearGradient>
  <linearGradient id="oomox" x1="0%" x2="0%" y1="0%" y2="100%">
   <stop offset="0%" style="stop-color:#f2bac9; stop-opacity:1"/>
   <stop offset="100%" style="stop-color:#d6c9de; stop-opacity:1"/>
  </linearGradient>
  <linearGradient id="rainblue" x1="0%" x2="0%" y1="0%" y2="100%">
   <stop offset="0%" style="stop-color:#00F260; stop-opacity:1"/>
   <stop offset="100%" style="stop-color:#0575E6; stop-opacity:1"/>
  </linearGradient>
  <linearGradient id="sunrise" x1="0%" x2="0%" y1="0%" y2="100%">
   <stop offset="0%" style="stop-color: #FF8501; stop-opacity:1"/>
   <stop offset="100%" style="stop-color: #FFCB01; stop-opacity:1"/>
  </linearGradient>
  <linearGradient id="telinkrin" x1="0%" x2="0%" y1="0%" y2="100%">
   <stop offset="0%" style="stop-color: #b2ced6; stop-opacity:1"/>
   <stop offset="100%" style="stop-color: #6da5b7; stop-opacity:1"/>
  </linearGradient>
  <linearGradient id="60spsycho" x1="0%" x2="0%" y1="0%" y2="100%">
   <stop offset="0%" style="stop-color: #df5940; stop-opacity:1"/>
   <stop offset="25%" style="stop-color: #d8d15f; stop-opacity:1"/>
   <stop offset="50%" style="stop-color: #e9882a; stop-opacity:1"/>
   <stop offset="100%" style="stop-color: #279362; stop-opacity:1"/>
  </linearGradient>
  <linearGradient id="90ssummer" x1="0%" x2="0%" y1="0%" y2="100%">
   <stop offset="0%" style="stop-color: #f618c7; stop-opacity:1"/>
   <stop offset="20%" style="stop-color: #94ffab; stop-opacity:1"/>
   <stop offset="50%" style="stop-color: #fbfd54; stop-opacity:1"/>
   <stop offset="100%" style="stop-color: #0f83ae; stop-opacity:1"/>
  </linearGradient>
 </defs>
 <path fill="url(#oomox)" class="ColorScheme-Text" fill-rule="evenodd" d="M 5.811 4.575 C 5.779 4.572 5.747 4.571 5.714 4.571 C 2.968 4.573 0.612 6.527 0.103 9.225 C 0.041 8.825 0 8.418 0 8 C 0 6.378 0.482 4.875 1.305 3.617 C 2.612 2.751 4.146 2.288 5.714 2.286 C 5.978 2.286 6.238 2.299 6.499 2.312 C 6.883 1.456 7.435 0.676 8.119 0.006 C 9.182 0.021 10.194 0.238 11.116 0.626 C 10.098 1.146 9.281 1.946 8.744 2.907 C 11.666 4.081 13.714 6.944 13.714 10.286 C 13.714 10.67 13.686 11.051 13.617 11.425 C 13.649 11.428 13.682 11.429 13.714 11.429 C 14.265 11.427 14.813 11.346 15.34 11.188 C 14.928 12.14 14.337 12.995 13.608 13.711 C 13.384 13.708 13.161 13.696 12.94 13.68 C 12.789 14.033 12.599 14.371 12.385 14.694 C 11.127 15.518 9.623 16 8 16 C 7.582 16 7.175 15.959 6.775 15.897 C 8.476 15.576 9.881 14.521 10.676 13.089 C 7.757 11.911 5.715 9.049 5.714 5.714 C 5.715 5.329 5.743 4.948 5.811 4.575 Z M 8.042 5.084 C 10.041 5.962 11.429 7.962 11.429 10.286 C 11.428 10.499 11.416 10.711 11.391 10.918 C 9.389 10.041 8 8.04 8 5.714 C 8 5.502 8.012 5.291 8.042 5.084 Z"/>
 <path fill="url(#oomox)" class="ColorScheme-Text" fill-rule="evenodd" d="M 16 8 C 16 12.432 12.432 16 8 16 C 3.568 16 0 12.432 0 8 C 0 3.568 3.568 0 8 0 C 12.432 0 16 3.568 16 8 Z M 15 8 C 15 9.86 14.26 11.64 12.95 12.95 C 11.64 14.26 9.86 15 8 15 C 6.14 15 4.36 14.26 3.05 12.95 C 1.74 11.64 1 9.86 1 8 C 1 6.14 1.74 4.36 3.05 3.05 C 4.36 1.74 6.14 1 8 1 C 9.86 1 11.64 1.74 12.95 3.05 C 14.26 4.36 15 6.14 15 8 Z"/>
</svg>
