<svg xmlns="http://www.w3.org/2000/svg" width="16" height="16" version="1.1">
 <defs>
   <style id="current-color-scheme" type="text/css">
   .ColorScheme-Text { color: #e9ecf2; } .ColorScheme-Highlight { color:#5294e2; }
  </style>
  <linearGradient id="arrongin" x1="0%" x2="0%" y1="0%" y2="100%">
   <stop offset="0%" style="stop-color:#dd9b44; stop-opacity:1"/>
   <stop offset="100%" style="stop-color:#ad6c16; stop-opacity:1"/>
  </linearGradient>
  <linearGradient id="aurora" x1="0%" x2="0%" y1="0%" y2="100%">
   <stop offset="0%" style="stop-color:#09D4DF; stop-opacity:1"/>
   <stop offset="100%" style="stop-color:#9269F4; stop-opacity:1"/>
  </linearGradient>
  <linearGradient id="cyberneon" x1="0%" x2="0%" y1="0%" y2="100%">
    <stop offset="0" style="stop-color:#0abdc6; stop-opacity:1"/>
    <stop offset="1" style="stop-color:#ea00d9; stop-opacity:1"/>
  </linearGradient>
  <linearGradient id="fitdance" x1="0%" x2="0%" y1="0%" y2="100%">
   <stop offset="0%" style="stop-color:#1AD6AB; stop-opacity:1"/>
   <stop offset="100%" style="stop-color:#329DB6; stop-opacity:1"/>
  </linearGradient>
  <linearGradient id="oomox" x1="0%" x2="0%" y1="0%" y2="100%">
   <stop offset="0%" style="stop-color:#f2bac9; stop-opacity:1"/>
   <stop offset="100%" style="stop-color:#d6c9de; stop-opacity:1"/>
  </linearGradient>
  <linearGradient id="rainblue" x1="0%" x2="0%" y1="0%" y2="100%">
   <stop offset="0%" style="stop-color:#00F260; stop-opacity:1"/>
   <stop offset="100%" style="stop-color:#0575E6; stop-opacity:1"/>
  </linearGradient>
  <linearGradient id="sunrise" x1="0%" x2="0%" y1="0%" y2="100%">
   <stop offset="0%" style="stop-color: #FF8501; stop-opacity:1"/>
   <stop offset="100%" style="stop-color: #FFCB01; stop-opacity:1"/>
  </linearGradient>
  <linearGradient id="telinkrin" x1="0%" x2="0%" y1="0%" y2="100%">
   <stop offset="0%" style="stop-color: #b2ced6; stop-opacity:1"/>
   <stop offset="100%" style="stop-color: #6da5b7; stop-opacity:1"/>
  </linearGradient>
  <linearGradient id="60spsycho" x1="0%" x2="0%" y1="0%" y2="100%">
   <stop offset="0%" style="stop-color: #df5940; stop-opacity:1"/>
   <stop offset="25%" style="stop-color: #d8d15f; stop-opacity:1"/>
   <stop offset="50%" style="stop-color: #e9882a; stop-opacity:1"/>
   <stop offset="100%" style="stop-color: #279362; stop-opacity:1"/>
  </linearGradient>
  <linearGradient id="90ssummer" x1="0%" x2="0%" y1="0%" y2="100%">
   <stop offset="0%" style="stop-color: #f618c7; stop-opacity:1"/>
   <stop offset="20%" style="stop-color: #94ffab; stop-opacity:1"/>
   <stop offset="50%" style="stop-color: #fbfd54; stop-opacity:1"/>
   <stop offset="100%" style="stop-color: #0f83ae; stop-opacity:1"/>
  </linearGradient>
 </defs>
 <rect fill="url(#oomox)" class="ColorScheme-Text" fill-opacity="0" width="16" height="16"/>
 <path fill="url(#oomox)" class="ColorScheme-Text" fill-rule="evenodd" d="M 7.925 2.071 C 4.204 2.071 1.185 2.842 1.185 3.791 C 1.185 4.018 1.357 4.234 1.67 4.432 C 0.623 5.424 0 6.667 0 8.017 C 0 9.385 0.641 10.645 1.714 11.643 C 1.55 12.121 0.895 13.661 1.117 13.883 C 1.356 14.122 3.122 13.346 3.449 13.258 C 3.549 13.231 3.807 13.192 4.109 13.142 C 5.261 13.613 6.588 13.882 8 13.882 C 9.427 13.882 10.766 13.607 11.926 13.127 C 12.266 13.184 12.562 13.229 12.672 13.258 C 12.998 13.346 14.764 14.122 15.003 13.883 C 15.242 13.645 14.47 11.888 14.379 11.555 C 15.396 10.571 16 9.345 16 8.017 C 16 6.64 15.352 5.374 14.267 4.373 C 14.524 4.191 14.665 3.996 14.665 3.791 C 14.665 2.842 11.645 2.071 7.925 2.071 L 7.925 2.071 Z M 13.657 3.653 C 13.657 4.203 11.089 4.65 7.925 4.65 C 4.761 4.65 2.194 4.203 2.194 3.653 C 2.194 3.102 4.761 2.656 7.925 2.656 C 11.089 2.656 13.657 3.102 13.657 3.653 Z"/>
</svg>
