<svg xmlns="http://www.w3.org/2000/svg" width="16" height="16" version="1.1">
 <defs>
   <style id="current-color-scheme" type="text/css">
   .ColorScheme-Text { color: #e9ecf2; } .ColorScheme-Highlight { color:#5294e2; }
  </style>
  <linearGradient id="arrongin" x1="0%" x2="0%" y1="0%" y2="100%">
   <stop offset="0%" style="stop-color:#dd9b44; stop-opacity:1"/>
   <stop offset="100%" style="stop-color:#ad6c16; stop-opacity:1"/>
  </linearGradient>
  <linearGradient id="aurora" x1="0%" x2="0%" y1="0%" y2="100%">
   <stop offset="0%" style="stop-color:#09D4DF; stop-opacity:1"/>
   <stop offset="100%" style="stop-color:#9269F4; stop-opacity:1"/>
  </linearGradient>
  <linearGradient id="cyberneon" x1="0%" x2="0%" y1="0%" y2="100%">
    <stop offset="0" style="stop-color:#0abdc6; stop-opacity:1"/>
    <stop offset="1" style="stop-color:#ea00d9; stop-opacity:1"/>
  </linearGradient>
  <linearGradient id="fitdance" x1="0%" x2="0%" y1="0%" y2="100%">
   <stop offset="0%" style="stop-color:#1AD6AB; stop-opacity:1"/>
   <stop offset="100%" style="stop-color:#329DB6; stop-opacity:1"/>
  </linearGradient>
  <linearGradient id="oomox" x1="0%" x2="0%" y1="0%" y2="100%">
   <stop offset="0%" style="stop-color:#f2bac9; stop-opacity:1"/>
   <stop offset="100%" style="stop-color:#d6c9de; stop-opacity:1"/>
  </linearGradient>
  <linearGradient id="rainblue" x1="0%" x2="0%" y1="0%" y2="100%">
   <stop offset="0%" style="stop-color:#00F260; stop-opacity:1"/>
   <stop offset="100%" style="stop-color:#0575E6; stop-opacity:1"/>
  </linearGradient>
  <linearGradient id="sunrise" x1="0%" x2="0%" y1="0%" y2="100%">
   <stop offset="0%" style="stop-color: #FF8501; stop-opacity:1"/>
   <stop offset="100%" style="stop-color: #FFCB01; stop-opacity:1"/>
  </linearGradient>
  <linearGradient id="telinkrin" x1="0%" x2="0%" y1="0%" y2="100%">
   <stop offset="0%" style="stop-color: #b2ced6; stop-opacity:1"/>
   <stop offset="100%" style="stop-color: #6da5b7; stop-opacity:1"/>
  </linearGradient>
  <linearGradient id="60spsycho" x1="0%" x2="0%" y1="0%" y2="100%">
   <stop offset="0%" style="stop-color: #df5940; stop-opacity:1"/>
   <stop offset="25%" style="stop-color: #d8d15f; stop-opacity:1"/>
   <stop offset="50%" style="stop-color: #e9882a; stop-opacity:1"/>
   <stop offset="100%" style="stop-color: #279362; stop-opacity:1"/>
  </linearGradient>
  <linearGradient id="90ssummer" x1="0%" x2="0%" y1="0%" y2="100%">
   <stop offset="0%" style="stop-color: #f618c7; stop-opacity:1"/>
   <stop offset="20%" style="stop-color: #94ffab; stop-opacity:1"/>
   <stop offset="50%" style="stop-color: #fbfd54; stop-opacity:1"/>
   <stop offset="100%" style="stop-color: #0f83ae; stop-opacity:1"/>
  </linearGradient>
 </defs>
 <path fill="url(#oomox)" class="ColorScheme-Text" d="M 8 0 C 3.586 0 0 3.586 0 8 C 0 11.431 2.168 14.355 5.207 15.489 C 5.222 15.495 5.235 15.505 5.25 15.511 C 5.495 15.601 5.745 15.685 6 15.75 C 6.003 15.751 6.007 15.749 6.011 15.75 C 6.136 15.781 6.265 15.811 6.391 15.837 C 6.413 15.841 6.433 15.844 6.457 15.848 C 6.601 15.877 6.745 15.904 6.891 15.924 C 6.966 15.935 7.043 15.938 7.12 15.946 C 7.141 15.949 7.163 15.954 7.185 15.957 C 7.276 15.966 7.363 15.971 7.457 15.978 C 7.636 15.991 7.818 16 8 16 C 8.138 16 8.277 15.996 8.413 15.989 C 8.573 15.981 8.728 15.962 8.88 15.946 C 8.957 15.937 9.034 15.935 9.109 15.924 C 9.255 15.904 9.399 15.877 9.544 15.848 C 9.703 15.817 9.852 15.79 10 15.75 C 10.254 15.683 10.504 15.603 10.75 15.511 C 10.765 15.505 10.778 15.495 10.793 15.489 C 13.832 14.355 16 11.431 16 8 C 16 3.586 12.414 0 8 0 Z M 8 0.696 C 12.038 0.696 15.304 3.962 15.304 8 C 15.304 10.24 14.303 12.247 12.717 13.587 C 12.605 13.319 12.415 12.954 12.109 12.587 C 11.135 13.107 9.784 13.565 8 13.565 C 6.216 13.565 4.865 13.107 3.891 12.587 C 3.64 12.889 3.435 13.226 3.282 13.587 C 1.638 12.198 0.691 10.153 0.696 8 C 0.696 3.962 3.962 0.696 8 0.696 Z M 4.554 3.022 L 4.315 3.196 C 3.308 4.005 2.951 5.378 3.435 6.576 C 3.168 7.045 2.448 8.489 2.435 10.413 L 2.435 10.533 L 2.5 10.631 C 2.568 10.721 4.218 12.87 8 12.87 C 11.781 12.87 13.432 10.721 13.5 10.63 L 13.565 10.533 L 13.565 10.413 C 13.551 8.489 12.833 7.045 12.565 6.576 C 13.049 5.378 12.692 4.005 11.685 3.196 L 11.446 3.022 L 10 4.467 C 9.662 4.356 8.965 4.174 8 4.174 C 7.035 4.174 6.338 4.356 6 4.467 L 4.554 3.022 Z M 6.261 7.304 C 6.634 7.304 6.978 7.504 7.165 7.827 C 7.351 8.15 7.351 8.547 7.164 8.87 C 6.978 9.193 6.633 9.392 6.26 9.392 C 5.684 9.392 5.217 8.924 5.217 8.348 C 5.217 7.771 5.684 7.304 6.261 7.304 L 6.261 7.304 Z M 9.739 7.304 C 10.112 7.304 10.457 7.504 10.643 7.827 C 10.829 8.15 10.829 8.547 10.643 8.87 C 10.456 9.193 10.111 9.392 9.738 9.392 C 9.162 9.392 8.695 8.924 8.695 8.348 C 8.695 7.771 9.163 7.304 9.739 7.304 L 9.739 7.304 Z M 7.13 10.087 L 8.87 10.087 L 8 10.957 L 7.13 10.087 Z"/>
</svg>
