<svg xmlns="http://www.w3.org/2000/svg" width="16" height="16" version="1.1">
 <defs>
   <style id="current-color-scheme" type="text/css">
   .ColorScheme-Text { color: #e9ecf2; } .ColorScheme-Highlight { color:#5294e2; }
  </style>
  <linearGradient id="arrongin" x1="0%" x2="0%" y1="0%" y2="100%">
   <stop offset="0%" style="stop-color:#dd9b44; stop-opacity:1"/>
   <stop offset="100%" style="stop-color:#ad6c16; stop-opacity:1"/>
  </linearGradient>
  <linearGradient id="aurora" x1="0%" x2="0%" y1="0%" y2="100%">
   <stop offset="0%" style="stop-color:#09D4DF; stop-opacity:1"/>
   <stop offset="100%" style="stop-color:#9269F4; stop-opacity:1"/>
  </linearGradient>
  <linearGradient id="cyberneon" x1="0%" x2="0%" y1="0%" y2="100%">
    <stop offset="0" style="stop-color:#0abdc6; stop-opacity:1"/>
    <stop offset="1" style="stop-color:#ea00d9; stop-opacity:1"/>
  </linearGradient>
  <linearGradient id="fitdance" x1="0%" x2="0%" y1="0%" y2="100%">
   <stop offset="0%" style="stop-color:#1AD6AB; stop-opacity:1"/>
   <stop offset="100%" style="stop-color:#329DB6; stop-opacity:1"/>
  </linearGradient>
  <linearGradient id="oomox" x1="0%" x2="0%" y1="0%" y2="100%">
   <stop offset="0%" style="stop-color:#f2bac9; stop-opacity:1"/>
   <stop offset="100%" style="stop-color:#d6c9de; stop-opacity:1"/>
  </linearGradient>
  <linearGradient id="rainblue" x1="0%" x2="0%" y1="0%" y2="100%">
   <stop offset="0%" style="stop-color:#00F260; stop-opacity:1"/>
   <stop offset="100%" style="stop-color:#0575E6; stop-opacity:1"/>
  </linearGradient>
  <linearGradient id="sunrise" x1="0%" x2="0%" y1="0%" y2="100%">
   <stop offset="0%" style="stop-color: #FF8501; stop-opacity:1"/>
   <stop offset="100%" style="stop-color: #FFCB01; stop-opacity:1"/>
  </linearGradient>
  <linearGradient id="telinkrin" x1="0%" x2="0%" y1="0%" y2="100%">
   <stop offset="0%" style="stop-color: #b2ced6; stop-opacity:1"/>
   <stop offset="100%" style="stop-color: #6da5b7; stop-opacity:1"/>
  </linearGradient>
  <linearGradient id="60spsycho" x1="0%" x2="0%" y1="0%" y2="100%">
   <stop offset="0%" style="stop-color: #df5940; stop-opacity:1"/>
   <stop offset="25%" style="stop-color: #d8d15f; stop-opacity:1"/>
   <stop offset="50%" style="stop-color: #e9882a; stop-opacity:1"/>
   <stop offset="100%" style="stop-color: #279362; stop-opacity:1"/>
  </linearGradient>
  <linearGradient id="90ssummer" x1="0%" x2="0%" y1="0%" y2="100%">
   <stop offset="0%" style="stop-color: #f618c7; stop-opacity:1"/>
   <stop offset="20%" style="stop-color: #94ffab; stop-opacity:1"/>
   <stop offset="50%" style="stop-color: #fbfd54; stop-opacity:1"/>
   <stop offset="100%" style="stop-color: #0f83ae; stop-opacity:1"/>
  </linearGradient>
 </defs>
 <path fill="url(#oomox)" class="ColorScheme-Text" d="M 12.746 3.596 C 11.998 3.597 11.273 3.84 10.694 4.286 C 9.888 3.996 8.971 3.832 7.997 3.832 C 7.016 3.832 6.093 3.999 5.284 4.292 C 4.708 3.858 3.992 3.621 3.254 3.621 C 1.457 3.621 0 4.995 0 6.69 C 0.002 8.11 1.036 9.344 2.5 9.673 C 2.699 10.282 3.02 10.853 3.521 11.231 C 4.576 12.03 6.41 12 8.023 12 C 9.984 12 11.84 12.042 12.878 10.941 C 13.161 10.64 13.369 10.16 13.513 9.645 C 14.971 9.311 15.998 8.081 16 6.666 C 16 5.851 15.657 5.071 15.047 4.495 C 14.437 3.919 13.609 3.596 12.746 3.596 L 12.746 3.596 Z M 5.043 6.829 C 5.091 6.829 5.138 6.832 5.186 6.837 C 5.675 6.89 6.106 7.211 6.326 7.688 C 6.326 7.689 6.327 7.689 6.327 7.69 C 6.427 7.906 6.479 8.144 6.479 8.386 C 6.479 8.799 6.327 9.195 6.058 9.487 C 5.789 9.779 5.424 9.943 5.043 9.943 C 4.732 9.942 4.43 9.832 4.182 9.63 C 4.182 9.63 4.182 9.63 4.182 9.63 C 4.144 9.599 4.108 9.566 4.073 9.531 C 4.072 9.53 4.071 9.53 4.071 9.529 C 4.037 9.495 4.004 9.459 3.973 9.422 C 3.972 9.42 3.97 9.417 3.968 9.414 C 3.939 9.379 3.911 9.341 3.885 9.303 C 3.882 9.298 3.879 9.293 3.876 9.288 C 3.852 9.252 3.829 9.214 3.808 9.176 C 3.804 9.168 3.8 9.161 3.796 9.153 C 3.777 9.118 3.759 9.081 3.743 9.044 C 3.738 9.032 3.733 9.021 3.729 9.01 C 3.715 8.976 3.702 8.941 3.691 8.906 C 3.686 8.891 3.681 8.875 3.676 8.86 C 3.666 8.826 3.658 8.793 3.65 8.759 C 3.646 8.741 3.642 8.724 3.639 8.706 C 3.633 8.674 3.627 8.642 3.623 8.61 C 3.62 8.589 3.618 8.567 3.616 8.545 C 3.613 8.514 3.61 8.482 3.609 8.45 C 3.608 8.429 3.607 8.408 3.607 8.386 C 3.607 7.527 4.25 6.83 5.043 6.83 L 5.043 6.829 Z M 10.978 6.908 C 11.17 6.908 11.361 6.95 11.537 7.031 C 11.538 7.031 11.538 7.031 11.538 7.031 C 12.069 7.275 12.414 7.839 12.414 8.465 C 12.414 8.911 12.237 9.335 11.928 9.63 C 11.666 9.882 11.328 10.021 10.978 10.022 C 10.597 10.022 10.232 9.858 9.963 9.566 C 9.694 9.274 9.542 8.878 9.542 8.465 C 9.543 8.215 9.599 7.969 9.705 7.748 C 9.77 7.612 9.853 7.488 9.951 7.379 C 9.954 7.375 9.957 7.371 9.96 7.368 C 9.989 7.335 10.021 7.304 10.053 7.275 C 10.057 7.271 10.062 7.267 10.066 7.263 C 10.097 7.236 10.129 7.21 10.162 7.186 C 10.169 7.181 10.176 7.176 10.183 7.171 C 10.215 7.148 10.247 7.127 10.281 7.107 C 10.29 7.102 10.298 7.097 10.307 7.092 C 10.339 7.074 10.371 7.057 10.404 7.042 C 10.415 7.036 10.427 7.029 10.439 7.023 C 10.469 7.011 10.5 6.999 10.532 6.989 C 10.546 6.984 10.561 6.979 10.576 6.974 C 10.606 6.965 10.635 6.958 10.665 6.951 C 10.682 6.947 10.699 6.943 10.717 6.94 C 10.745 6.934 10.774 6.929 10.803 6.925 C 10.822 6.922 10.841 6.919 10.86 6.917 C 10.9 6.913 10.939 6.911 10.979 6.91 L 10.978 6.908 Z M 8.666 9.453 C 8.826 9.453 8.955 9.683 8.955 9.967 C 8.955 9.986 8.955 10.006 8.953 10.025 C 8.923 10.078 8.897 10.138 8.861 10.184 C 8.789 10.277 8.706 10.356 8.611 10.419 C 8.594 10.43 8.573 10.434 8.556 10.441 C 8.447 10.363 8.376 10.175 8.376 9.966 C 8.376 9.682 8.506 9.452 8.666 9.452 L 8.666 9.453 Z M 7.324 9.472 C 7.401 9.472 7.475 9.526 7.529 9.623 C 7.583 9.719 7.614 9.85 7.614 9.986 C 7.614 10.229 7.518 10.439 7.383 10.489 C 7.331 10.462 7.273 10.447 7.227 10.413 C 7.171 10.373 7.127 10.316 7.08 10.263 C 7.05 10.18 7.034 10.085 7.034 9.987 C 7.034 9.85 7.065 9.72 7.119 9.623 C 7.174 9.527 7.247 9.473 7.324 9.473 L 7.324 9.472 Z M 7.994 10.698 C 8.074 10.696 8.156 10.697 8.21 10.713 C 8.254 10.725 8.279 10.732 8.3 10.747 C 8.32 10.762 8.33 10.774 8.356 10.795 C 8.39 10.821 8.42 10.86 8.452 10.898 C 8.484 10.937 8.516 10.976 8.543 10.999 C 8.578 11.03 8.604 11.063 8.628 11.085 C 8.652 11.108 8.671 11.119 8.7 11.119 C 8.792 11.119 8.873 11.142 8.963 11.112 C 9.001 11.1 9.08 11.044 9.142 10.994 C 9.205 10.944 9.254 10.899 9.254 10.899 C 9.265 10.887 9.281 10.882 9.297 10.887 C 9.312 10.891 9.324 10.904 9.327 10.919 C 9.33 10.935 9.325 10.951 9.312 10.961 C 9.312 10.961 9.261 11.009 9.196 11.061 C 9.131 11.113 9.056 11.17 8.991 11.193 C 8.874 11.233 8.774 11.204 8.7 11.204 C 8.645 11.204 8.602 11.178 8.57 11.149 C 8.539 11.119 8.513 11.089 8.486 11.064 C 8.45 11.034 8.417 10.992 8.386 10.954 C 8.354 10.915 8.324 10.88 8.302 10.862 C 8.273 10.839 8.26 10.824 8.251 10.819 C 8.242 10.811 8.229 10.807 8.188 10.796 C 8.158 10.788 8.073 10.785 7.996 10.785 C 7.919 10.786 7.841 10.792 7.828 10.796 C 7.774 10.807 7.793 10.788 7.713 10.837 C 7.683 10.856 7.621 10.918 7.562 10.981 C 7.503 11.045 7.445 11.109 7.388 11.143 C 7.29 11.2 7.224 11.197 7.201 11.203 C 7.181 11.206 7.164 11.206 7.141 11.206 C 7.117 11.205 7.09 11.202 7.061 11.198 C 7.002 11.187 6.937 11.172 6.884 11.145 C 6.826 11.115 6.767 11.056 6.717 11.003 C 6.667 10.95 6.629 10.903 6.629 10.903 C 6.619 10.891 6.615 10.874 6.62 10.859 C 6.626 10.844 6.639 10.834 6.655 10.832 C 6.671 10.829 6.686 10.836 6.696 10.849 C 6.696 10.849 6.732 10.894 6.779 10.944 C 6.827 10.995 6.888 11.051 6.923 11.069 C 6.962 11.088 7.022 11.107 7.075 11.114 C 7.101 11.118 7.125 11.122 7.145 11.122 C 7.164 11.123 7.18 11.121 7.18 11.122 C 7.231 11.11 7.261 11.119 7.345 11.07 C 7.379 11.051 7.441 10.987 7.5 10.924 C 7.559 10.86 7.615 10.797 7.668 10.765 C 7.754 10.712 7.773 10.721 7.811 10.713 C 7.845 10.705 7.914 10.702 7.994 10.702 L 7.994 10.698 Z"/>
</svg>
