<svg xmlns="http://www.w3.org/2000/svg" width="16" height="16" version="1.1">
 <defs>
   <style id="current-color-scheme" type="text/css">
   .ColorScheme-Text { color: #e9ecf2; } .ColorScheme-Highlight { color:#5294e2; }
  </style>
  <linearGradient id="arrongin" x1="0%" x2="0%" y1="0%" y2="100%">
   <stop offset="0%" style="stop-color:#dd9b44; stop-opacity:1"/>
   <stop offset="100%" style="stop-color:#ad6c16; stop-opacity:1"/>
  </linearGradient>
  <linearGradient id="aurora" x1="0%" x2="0%" y1="0%" y2="100%">
   <stop offset="0%" style="stop-color:#09D4DF; stop-opacity:1"/>
   <stop offset="100%" style="stop-color:#9269F4; stop-opacity:1"/>
  </linearGradient>
  <linearGradient id="cyberneon" x1="0%" x2="0%" y1="0%" y2="100%">
    <stop offset="0" style="stop-color:#0abdc6; stop-opacity:1"/>
    <stop offset="1" style="stop-color:#ea00d9; stop-opacity:1"/>
  </linearGradient>
  <linearGradient id="fitdance" x1="0%" x2="0%" y1="0%" y2="100%">
   <stop offset="0%" style="stop-color:#1AD6AB; stop-opacity:1"/>
   <stop offset="100%" style="stop-color:#329DB6; stop-opacity:1"/>
  </linearGradient>
  <linearGradient id="oomox" x1="0%" x2="0%" y1="0%" y2="100%">
   <stop offset="0%" style="stop-color:#f2bac9; stop-opacity:1"/>
   <stop offset="100%" style="stop-color:#d6c9de; stop-opacity:1"/>
  </linearGradient>
  <linearGradient id="rainblue" x1="0%" x2="0%" y1="0%" y2="100%">
   <stop offset="0%" style="stop-color:#00F260; stop-opacity:1"/>
   <stop offset="100%" style="stop-color:#0575E6; stop-opacity:1"/>
  </linearGradient>
  <linearGradient id="sunrise" x1="0%" x2="0%" y1="0%" y2="100%">
   <stop offset="0%" style="stop-color: #FF8501; stop-opacity:1"/>
   <stop offset="100%" style="stop-color: #FFCB01; stop-opacity:1"/>
  </linearGradient>
  <linearGradient id="telinkrin" x1="0%" x2="0%" y1="0%" y2="100%">
   <stop offset="0%" style="stop-color: #b2ced6; stop-opacity:1"/>
   <stop offset="100%" style="stop-color: #6da5b7; stop-opacity:1"/>
  </linearGradient>
  <linearGradient id="60spsycho" x1="0%" x2="0%" y1="0%" y2="100%">
   <stop offset="0%" style="stop-color: #df5940; stop-opacity:1"/>
   <stop offset="25%" style="stop-color: #d8d15f; stop-opacity:1"/>
   <stop offset="50%" style="stop-color: #e9882a; stop-opacity:1"/>
   <stop offset="100%" style="stop-color: #279362; stop-opacity:1"/>
  </linearGradient>
  <linearGradient id="90ssummer" x1="0%" x2="0%" y1="0%" y2="100%">
   <stop offset="0%" style="stop-color: #f618c7; stop-opacity:1"/>
   <stop offset="20%" style="stop-color: #94ffab; stop-opacity:1"/>
   <stop offset="50%" style="stop-color: #fbfd54; stop-opacity:1"/>
   <stop offset="100%" style="stop-color: #0f83ae; stop-opacity:1"/>
  </linearGradient>
 </defs>
 <path fill="url(#oomox)" class="ColorScheme-Text" opacity="0.3" d="m 2.5012043,12.969031 v 1.99985 c 0,0.571267 0.459894,1.031123 1.0310968,1.031123 h 8.9366059 c 0.571253,0 1.031097,-0.459906 1.031097,-1.031123 v -1.99985 c 0,0.571267 -0.459894,1.031123 -1.031097,1.031123 H 3.5323011 c -0.5712528,0 -1.0310968,-0.459906 -1.0310968,-1.031123 z"/>
 <path fill="url(#oomox)" class="ColorScheme-Text" d="m 3.5311013,3.55e-6 c -0.5712529,0 -1.0310969,0.45990551 -1.0310969,1.03112265 V 12.968231 c 0,0.571267 0.459894,1.031123 1.0310969,1.031123 h 8.9366067 c 0.571252,0 1.031096,-0.459906 1.031096,-1.031123 V 1.0311262 C 13.498804,0.45985906 13.03891,3.55e-6 12.467708,3.55e-6 Z M 6.4996044,1.9998536 h 2.9997 l -0.9999,1.0624203 V 3.9997036 H 11.499104 V 4.4996661 6.1557419 L 9.6554888,7.9994036 H 8.4994044 v 3.9997004 l -0.9999,0.999925 V 7.9994036 H 6.84332 L 4.0623981,5.0934216 7.4995544,4.1247442 V 3.0623239 l -0.9999,-1.0624203 z m 1.9998,2.999775 v 1.99985 h 0.749925 L 10.499204,5.7495724 V 4.9996286 Z m -0.9999,0.1249906 -1.5623437,0.4687149 1.3123687,1.4060945 h 0.249975 V 5.1245692 Z"/>
</svg>
