<svg xmlns="http://www.w3.org/2000/svg" width="16" height="16" version="1.1">
 <defs>
   <style id="current-color-scheme" type="text/css">
   .ColorScheme-Text { color: #e9ecf2; } .ColorScheme-Highlight { color:#5294e2; }
  </style>
  <linearGradient id="arrongin" x1="0%" x2="0%" y1="0%" y2="100%">
   <stop offset="0%" style="stop-color:#dd9b44; stop-opacity:1"/>
   <stop offset="100%" style="stop-color:#ad6c16; stop-opacity:1"/>
  </linearGradient>
  <linearGradient id="aurora" x1="0%" x2="0%" y1="0%" y2="100%">
   <stop offset="0%" style="stop-color:#09D4DF; stop-opacity:1"/>
   <stop offset="100%" style="stop-color:#9269F4; stop-opacity:1"/>
  </linearGradient>
  <linearGradient id="cyberneon" x1="0%" x2="0%" y1="0%" y2="100%">
    <stop offset="0" style="stop-color:#0abdc6; stop-opacity:1"/>
    <stop offset="1" style="stop-color:#ea00d9; stop-opacity:1"/>
  </linearGradient>
  <linearGradient id="fitdance" x1="0%" x2="0%" y1="0%" y2="100%">
   <stop offset="0%" style="stop-color:#1AD6AB; stop-opacity:1"/>
   <stop offset="100%" style="stop-color:#329DB6; stop-opacity:1"/>
  </linearGradient>
  <linearGradient id="oomox" x1="0%" x2="0%" y1="0%" y2="100%">
   <stop offset="0%" style="stop-color:#f2bac9; stop-opacity:1"/>
   <stop offset="100%" style="stop-color:#d6c9de; stop-opacity:1"/>
  </linearGradient>
  <linearGradient id="rainblue" x1="0%" x2="0%" y1="0%" y2="100%">
   <stop offset="0%" style="stop-color:#00F260; stop-opacity:1"/>
   <stop offset="100%" style="stop-color:#0575E6; stop-opacity:1"/>
  </linearGradient>
  <linearGradient id="sunrise" x1="0%" x2="0%" y1="0%" y2="100%">
   <stop offset="0%" style="stop-color: #FF8501; stop-opacity:1"/>
   <stop offset="100%" style="stop-color: #FFCB01; stop-opacity:1"/>
  </linearGradient>
  <linearGradient id="telinkrin" x1="0%" x2="0%" y1="0%" y2="100%">
   <stop offset="0%" style="stop-color: #b2ced6; stop-opacity:1"/>
   <stop offset="100%" style="stop-color: #6da5b7; stop-opacity:1"/>
  </linearGradient>
  <linearGradient id="60spsycho" x1="0%" x2="0%" y1="0%" y2="100%">
   <stop offset="0%" style="stop-color: #df5940; stop-opacity:1"/>
   <stop offset="25%" style="stop-color: #d8d15f; stop-opacity:1"/>
   <stop offset="50%" style="stop-color: #e9882a; stop-opacity:1"/>
   <stop offset="100%" style="stop-color: #279362; stop-opacity:1"/>
  </linearGradient>
  <linearGradient id="90ssummer" x1="0%" x2="0%" y1="0%" y2="100%">
   <stop offset="0%" style="stop-color: #f618c7; stop-opacity:1"/>
   <stop offset="20%" style="stop-color: #94ffab; stop-opacity:1"/>
   <stop offset="50%" style="stop-color: #fbfd54; stop-opacity:1"/>
   <stop offset="100%" style="stop-color: #0f83ae; stop-opacity:1"/>
  </linearGradient>
 </defs>
 <path fill="url(#oomox)" class="ColorScheme-Text" fill-rule="evenodd" d="M 11.692 13.538 L 14.769 13.538 L 14.769 14.154 L 11.692 14.154 L 11.692 13.538 L 11.692 13.538 L 11.692 13.538 L 11.692 13.538 Z M 1.754 11.601 L 3.784 13.63 C 3.977 13.823 3.84 14.154 3.567 14.154 L 1.846 14.154 C 1.506 14.154 1.231 13.878 1.231 13.538 L 1.231 11.818 C 1.231 11.544 1.561 11.407 1.754 11.601 L 1.754 11.601 L 1.754 11.601 L 1.754 11.601 L 1.754 11.601 L 1.754 11.601 Z M 2.769 1.231 L 13.231 1.231 L 13.231 1.538 L 2.769 1.538 L 2.769 1.231 L 2.769 1.231 L 2.769 1.231 L 2.769 1.231 L 2.769 1.231 L 2.769 1.231 L 2.769 1.231 Z M 0.923 4.923 L 1.231 4.923 L 1.231 5.57 C 1.007 5.617 0.797 5.714 0.615 5.854 L 0.615 5.231 C 0.615 5.061 0.753 4.923 0.923 4.923 L 0.923 4.923 L 0.923 4.923 L 0.923 4.923 L 0.923 4.923 L 0.923 4.923 L 0.923 4.923 Z M 4.615 3.385 L 12 3.385 L 12 4 L 4.615 4 L 4.615 3.385 L 4.615 3.385 L 4.615 3.385 L 4.615 3.385 L 4.615 3.385 Z M 15.077 4.923 C 15.247 4.923 15.385 5.061 15.385 5.231 L 15.385 5.854 C 15.203 5.714 14.993 5.617 14.769 5.57 L 14.769 4.923 L 15.077 4.923 L 15.077 4.923 L 15.077 4.923 L 15.077 4.923 L 15.077 4.923 L 15.077 4.923 L 15.077 4.923 Z M 11.692 12.308 L 14.769 12.308 L 14.769 12.923 L 11.692 12.923 L 11.692 12.308 L 11.692 12.308 L 11.692 12.308 Z M 6.462 4.615 L 9.538 4.615 L 9.538 5.231 L 6.462 5.231 L 6.462 4.615 L 6.462 4.615 Z M 2.154 2.154 L 13.846 2.154 C 14.016 2.154 14.154 2.292 14.154 2.462 L 14.154 5.538 L 11.099 5.538 C 10.789 5.538 10.502 5.692 10.33 5.95 L 9.465 7.248 C 9.408 7.333 9.312 7.385 9.209 7.385 L 6.791 7.385 C 6.688 7.385 6.592 7.333 6.535 7.247 L 5.67 5.95 C 5.499 5.693 5.21 5.538 4.901 5.538 L 1.846 5.538 L 1.846 2.462 C 1.846 2.292 1.984 2.154 2.154 2.154 L 2.154 2.154 L 2.154 2.154 L 2.154 2.154 L 2.154 2.154 L 2.154 2.154 L 2.154 2.154 Z M 15.385 13.846 C 15.385 14.355 14.97 14.769 14.462 14.769 L 1.538 14.769 C 1.03 14.769 0.615 14.355 0.615 13.846 L 0.615 7.077 C 0.615 6.568 1.03 6.154 1.538 6.154 L 4.901 6.154 C 5.004 6.154 5.1 6.205 5.158 6.291 L 6.023 7.588 C 6.194 7.846 6.482 8.001 6.791 8 L 9.209 8 C 9.518 8 9.806 7.846 9.977 7.589 L 10.842 6.291 C 10.9 6.205 10.995 6.154 11.099 6.154 L 14.462 6.154 C 14.97 6.154 15.385 6.568 15.385 7.077 L 15.385 13.846 L 15.385 13.846 L 15.385 13.846 L 15.385 13.846 L 15.385 13.846 L 15.385 13.846 L 15.385 13.846 Z M 15.077 4.308 L 14.769 4.308 L 14.769 2.462 C 14.769 1.953 14.355 1.538 13.846 1.538 L 13.846 1.231 C 13.846 0.891 13.57 0.615 13.231 0.615 L 2.769 0.615 C 2.43 0.615 2.154 0.891 2.154 1.231 L 2.154 1.538 C 1.645 1.538 1.231 1.953 1.231 2.462 L 1.231 4.308 L 0.923 4.308 C 0.414 4.308 0 4.722 0 5.231 L 0 13.846 C 0 14.694 0.69 15.385 1.538 15.385 L 14.462 15.385 C 15.31 15.385 16 14.694 16 13.846 L 16 5.231 C 16 4.722 15.586 4.308 15.077 4.308 L 15.077 4.308 L 15.077 4.308 L 15.077 4.308 L 15.077 4.308 L 15.077 4.308 L 15.077 4.308 Z M 7.077 5.846 L 8.923 5.846 L 8.923 6.462 L 7.077 6.462 L 7.077 5.846 Z"/>
</svg>
