<svg xmlns="http://www.w3.org/2000/svg" width="16" height="16" version="1.1">
 <defs>
   <style id="current-color-scheme" type="text/css">
   .ColorScheme-Text { color: #e9ecf2; } .ColorScheme-Highlight { color:#5294e2; }
  </style>
  <linearGradient id="arrongin" x1="0%" x2="0%" y1="0%" y2="100%">
   <stop offset="0%" style="stop-color:#dd9b44; stop-opacity:1"/>
   <stop offset="100%" style="stop-color:#ad6c16; stop-opacity:1"/>
  </linearGradient>
  <linearGradient id="aurora" x1="0%" x2="0%" y1="0%" y2="100%">
   <stop offset="0%" style="stop-color:#09D4DF; stop-opacity:1"/>
   <stop offset="100%" style="stop-color:#9269F4; stop-opacity:1"/>
  </linearGradient>
  <linearGradient id="cyberneon" x1="0%" x2="0%" y1="0%" y2="100%">
    <stop offset="0" style="stop-color:#0abdc6; stop-opacity:1"/>
    <stop offset="1" style="stop-color:#ea00d9; stop-opacity:1"/>
  </linearGradient>
  <linearGradient id="fitdance" x1="0%" x2="0%" y1="0%" y2="100%">
   <stop offset="0%" style="stop-color:#1AD6AB; stop-opacity:1"/>
   <stop offset="100%" style="stop-color:#329DB6; stop-opacity:1"/>
  </linearGradient>
  <linearGradient id="oomox" x1="0%" x2="0%" y1="0%" y2="100%">
   <stop offset="0%" style="stop-color:#f2bac9; stop-opacity:1"/>
   <stop offset="100%" style="stop-color:#d6c9de; stop-opacity:1"/>
  </linearGradient>
  <linearGradient id="rainblue" x1="0%" x2="0%" y1="0%" y2="100%">
   <stop offset="0%" style="stop-color:#00F260; stop-opacity:1"/>
   <stop offset="100%" style="stop-color:#0575E6; stop-opacity:1"/>
  </linearGradient>
  <linearGradient id="sunrise" x1="0%" x2="0%" y1="0%" y2="100%">
   <stop offset="0%" style="stop-color: #FF8501; stop-opacity:1"/>
   <stop offset="100%" style="stop-color: #FFCB01; stop-opacity:1"/>
  </linearGradient>
  <linearGradient id="telinkrin" x1="0%" x2="0%" y1="0%" y2="100%">
   <stop offset="0%" style="stop-color: #b2ced6; stop-opacity:1"/>
   <stop offset="100%" style="stop-color: #6da5b7; stop-opacity:1"/>
  </linearGradient>
  <linearGradient id="60spsycho" x1="0%" x2="0%" y1="0%" y2="100%">
   <stop offset="0%" style="stop-color: #df5940; stop-opacity:1"/>
   <stop offset="25%" style="stop-color: #d8d15f; stop-opacity:1"/>
   <stop offset="50%" style="stop-color: #e9882a; stop-opacity:1"/>
   <stop offset="100%" style="stop-color: #279362; stop-opacity:1"/>
  </linearGradient>
  <linearGradient id="90ssummer" x1="0%" x2="0%" y1="0%" y2="100%">
   <stop offset="0%" style="stop-color: #f618c7; stop-opacity:1"/>
   <stop offset="20%" style="stop-color: #94ffab; stop-opacity:1"/>
   <stop offset="50%" style="stop-color: #fbfd54; stop-opacity:1"/>
   <stop offset="100%" style="stop-color: #0f83ae; stop-opacity:1"/>
  </linearGradient>
 </defs>
 <path fill="url(#oomox)" class="ColorScheme-Text" fill-rule="evenodd" d="M 11.429 10.264 L 11.429 5.736 L 8 4.479 L 4.571 5.736 L 4.571 10.264 L 8 11.521 L 11.429 10.264 L 11.429 10.264 L 11.429 10.264 L 11.429 10.264 L 11.429 10.264 Z M 0.857 9.938 L 0.857 12.268 L 8 14.887 L 8 12.501 C 7.9 12.502 7.8 12.484 7.705 12.45 L 0.857 9.938 L 0.857 9.938 L 0.857 9.938 Z M 14.286 9.215 L 14.286 6.785 L 15.492 7.227 C 15.74 7.318 16 7.127 16 6.855 L 16 3.537 C 16 3.369 15.898 3.22 15.746 3.164 L 8.127 0.371 C 8.091 0.357 8.053 0.35 8.015 0.348 L 8.015 0.348 C 7.967 0.346 7.918 0.354 7.873 0.371 L 0.254 3.164 C 0.102 3.22 0 3.369 0 3.537 L 0 6.855 C 0 7.127 0.26 7.318 0.508 7.227 L 1.714 6.785 L 1.714 9.215 L 0.508 8.773 C 0.26 8.682 0 8.873 0 9.145 L 0 12.463 C 0 12.631 0.102 12.78 0.254 12.836 L 7.873 15.629 C 7.918 15.646 7.967 15.654 8.015 15.652 L 8.015 15.652 C 8.053 15.65 8.091 15.643 8.127 15.629 L 15.746 12.836 C 15.898 12.78 16 12.631 16 12.463 L 16 9.145 C 16 8.873 15.74 8.682 15.492 8.773 L 14.286 9.215 L 14.286 9.215 L 14.286 9.215 L 14.286 9.215 L 14.286 9.215 Z M 8 1.236 L 8 3.622 C 8.1 3.622 8.2 3.64 8.295 3.674 L 15.143 6.186 L 15.143 3.856 L 8 1.236 Z"/>
</svg>
