<svg xmlns="http://www.w3.org/2000/svg" width="16" height="16" version="1.1">
 <defs>
   <style id="current-color-scheme" type="text/css">
   .ColorScheme-Text { color: #e9ecf2; } .ColorScheme-Highlight { color:#5294e2; }
  </style>
  <linearGradient id="arrongin" x1="0%" x2="0%" y1="0%" y2="100%">
   <stop offset="0%" style="stop-color:#dd9b44; stop-opacity:1"/>
   <stop offset="100%" style="stop-color:#ad6c16; stop-opacity:1"/>
  </linearGradient>
  <linearGradient id="aurora" x1="0%" x2="0%" y1="0%" y2="100%">
   <stop offset="0%" style="stop-color:#09D4DF; stop-opacity:1"/>
   <stop offset="100%" style="stop-color:#9269F4; stop-opacity:1"/>
  </linearGradient>
  <linearGradient id="cyberneon" x1="0%" x2="0%" y1="0%" y2="100%">
    <stop offset="0" style="stop-color:#0abdc6; stop-opacity:1"/>
    <stop offset="1" style="stop-color:#ea00d9; stop-opacity:1"/>
  </linearGradient>
  <linearGradient id="fitdance" x1="0%" x2="0%" y1="0%" y2="100%">
   <stop offset="0%" style="stop-color:#1AD6AB; stop-opacity:1"/>
   <stop offset="100%" style="stop-color:#329DB6; stop-opacity:1"/>
  </linearGradient>
  <linearGradient id="oomox" x1="0%" x2="0%" y1="0%" y2="100%">
   <stop offset="0%" style="stop-color:#f2bac9; stop-opacity:1"/>
   <stop offset="100%" style="stop-color:#d6c9de; stop-opacity:1"/>
  </linearGradient>
  <linearGradient id="rainblue" x1="0%" x2="0%" y1="0%" y2="100%">
   <stop offset="0%" style="stop-color:#00F260; stop-opacity:1"/>
   <stop offset="100%" style="stop-color:#0575E6; stop-opacity:1"/>
  </linearGradient>
  <linearGradient id="sunrise" x1="0%" x2="0%" y1="0%" y2="100%">
   <stop offset="0%" style="stop-color: #FF8501; stop-opacity:1"/>
   <stop offset="100%" style="stop-color: #FFCB01; stop-opacity:1"/>
  </linearGradient>
  <linearGradient id="telinkrin" x1="0%" x2="0%" y1="0%" y2="100%">
   <stop offset="0%" style="stop-color: #b2ced6; stop-opacity:1"/>
   <stop offset="100%" style="stop-color: #6da5b7; stop-opacity:1"/>
  </linearGradient>
  <linearGradient id="60spsycho" x1="0%" x2="0%" y1="0%" y2="100%">
   <stop offset="0%" style="stop-color: #df5940; stop-opacity:1"/>
   <stop offset="25%" style="stop-color: #d8d15f; stop-opacity:1"/>
   <stop offset="50%" style="stop-color: #e9882a; stop-opacity:1"/>
   <stop offset="100%" style="stop-color: #279362; stop-opacity:1"/>
  </linearGradient>
  <linearGradient id="90ssummer" x1="0%" x2="0%" y1="0%" y2="100%">
   <stop offset="0%" style="stop-color: #f618c7; stop-opacity:1"/>
   <stop offset="20%" style="stop-color: #94ffab; stop-opacity:1"/>
   <stop offset="50%" style="stop-color: #fbfd54; stop-opacity:1"/>
   <stop offset="100%" style="stop-color: #0f83ae; stop-opacity:1"/>
  </linearGradient>
 </defs>
 <path fill="url(#oomox)" class="ColorScheme-Text" d="M 11.906 2.75 C 11.078 2.75 10.406 3.422 10.406 4.25 C 10.406 5.078 11.078 5.75 11.906 5.75 C 12.735 5.75 13.406 5.078 13.406 4.25 C 13.406 3.422 12.735 2.75 11.906 2.75 Z"/>
 <path fill="url(#oomox)" class="ColorScheme-Text" d="M 2 4.724 L 2 2 L 14 2 L 14 12 L 2 12 L 2 9.238 L 1 8.301 L 1 15 L 15 15 L 15 1 L 1 1 L 1 5.656 L 2 4.724 L 2 4.724 Z"/>
 <path fill="url(#oomox)" class="ColorScheme-Text" d="M 4.891 5.359 L 5.484 3 L 6.953 4.922 L 7.766 3.984 L 8.734 5.438 L 4.891 5.359 Z"/>
 <path fill="url(#oomox)" class="ColorScheme-Text" d="M 6.266 8.531 L 4.734 8.609 Q 4.906 9.875 4.453 10.297 Q 4.214 10.52 3.391 10.453 L 3 11 L 11 11 L 9.484 8.359 L 7.766 8.438 L 6.266 8.531 Z"/>
 <path fill="url(#oomox)" class="ColorScheme-Text" d="M 3.877 3.903 C 3.808 3.911 3.741 3.938 3.685 3.98 C 2.195 4.987 0.757 6.663 0.704 6.73 C 0.647 6.794 0.613 6.875 0.608 6.961 C 0.608 7.045 0.65 7.122 0.704 7.192 C 0.757 7.259 2.195 8.934 3.685 9.942 C 3.799 10.019 3.946 10.027 4.067 9.963 C 4.188 9.898 4.264 9.771 4.263 9.634 L 4.263 8.21 C 4.263 8.21 10.57 7.979 10.705 7.883 C 10.902 7.744 11.031 7.338 11.031 6.96 C 11.031 6.581 10.902 6.119 10.705 5.979 C 10.57 5.883 4.262 5.71 4.262 5.71 L 4.262 4.288 C 4.265 4.151 4.191 4.025 4.07 3.961 C 4.012 3.925 3.946 3.905 3.878 3.903 L 3.877 3.903 Z"/>
</svg>
