<svg xmlns="http://www.w3.org/2000/svg" width="16" height="16" version="1.1">
 <defs>
   <style id="current-color-scheme" type="text/css">
   .ColorScheme-Text { color: #e9ecf2; } .ColorScheme-Highlight { color:#5294e2; }
  </style>
  <linearGradient id="arrongin" x1="0%" x2="0%" y1="0%" y2="100%">
   <stop offset="0%" style="stop-color:#dd9b44; stop-opacity:1"/>
   <stop offset="100%" style="stop-color:#ad6c16; stop-opacity:1"/>
  </linearGradient>
  <linearGradient id="aurora" x1="0%" x2="0%" y1="0%" y2="100%">
   <stop offset="0%" style="stop-color:#09D4DF; stop-opacity:1"/>
   <stop offset="100%" style="stop-color:#9269F4; stop-opacity:1"/>
  </linearGradient>
  <linearGradient id="cyberneon" x1="0%" x2="0%" y1="0%" y2="100%">
    <stop offset="0" style="stop-color:#0abdc6; stop-opacity:1"/>
    <stop offset="1" style="stop-color:#ea00d9; stop-opacity:1"/>
  </linearGradient>
  <linearGradient id="fitdance" x1="0%" x2="0%" y1="0%" y2="100%">
   <stop offset="0%" style="stop-color:#1AD6AB; stop-opacity:1"/>
   <stop offset="100%" style="stop-color:#329DB6; stop-opacity:1"/>
  </linearGradient>
  <linearGradient id="oomox" x1="0%" x2="0%" y1="0%" y2="100%">
   <stop offset="0%" style="stop-color:#f2bac9; stop-opacity:1"/>
   <stop offset="100%" style="stop-color:#d6c9de; stop-opacity:1"/>
  </linearGradient>
  <linearGradient id="rainblue" x1="0%" x2="0%" y1="0%" y2="100%">
   <stop offset="0%" style="stop-color:#00F260; stop-opacity:1"/>
   <stop offset="100%" style="stop-color:#0575E6; stop-opacity:1"/>
  </linearGradient>
  <linearGradient id="sunrise" x1="0%" x2="0%" y1="0%" y2="100%">
   <stop offset="0%" style="stop-color: #FF8501; stop-opacity:1"/>
   <stop offset="100%" style="stop-color: #FFCB01; stop-opacity:1"/>
  </linearGradient>
  <linearGradient id="telinkrin" x1="0%" x2="0%" y1="0%" y2="100%">
   <stop offset="0%" style="stop-color: #b2ced6; stop-opacity:1"/>
   <stop offset="100%" style="stop-color: #6da5b7; stop-opacity:1"/>
  </linearGradient>
  <linearGradient id="60spsycho" x1="0%" x2="0%" y1="0%" y2="100%">
   <stop offset="0%" style="stop-color: #df5940; stop-opacity:1"/>
   <stop offset="25%" style="stop-color: #d8d15f; stop-opacity:1"/>
   <stop offset="50%" style="stop-color: #e9882a; stop-opacity:1"/>
   <stop offset="100%" style="stop-color: #279362; stop-opacity:1"/>
  </linearGradient>
  <linearGradient id="90ssummer" x1="0%" x2="0%" y1="0%" y2="100%">
   <stop offset="0%" style="stop-color: #f618c7; stop-opacity:1"/>
   <stop offset="20%" style="stop-color: #94ffab; stop-opacity:1"/>
   <stop offset="50%" style="stop-color: #fbfd54; stop-opacity:1"/>
   <stop offset="100%" style="stop-color: #0f83ae; stop-opacity:1"/>
  </linearGradient>
 </defs>
 <path fill="url(#oomox)" class="ColorScheme-Text" d="M 8.896 0.444 C 8.673 0.44 8.482 0.603 8.45 0.824 L 7.688 5.789 C 5.937 5.841 4.276 6.336 3.023 7.178 C 2.691 6.851 2.244 6.668 1.778 6.668 C 0.796 6.668 0 7.464 0 8.445 C 0 9.108 0.37 9.716 0.958 10.022 C 0.914 10.236 0.891 10.452 0.889 10.668 C 0.889 13.368 4.073 15.556 8 15.556 C 11.927 15.556 15.111 13.368 15.111 10.668 C 15.108 10.452 15.084 10.237 15.04 10.023 C 15.63 9.718 16 9.109 16 8.445 C 16 7.464 15.204 6.668 14.222 6.668 C 13.755 6.668 13.307 6.852 12.974 7.18 C 11.79 6.38 10.236 5.891 8.582 5.796 L 9.257 1.428 L 11.568 1.942 C 11.65 2.609 12.216 3.111 12.889 3.112 C 13.625 3.112 14.222 2.515 14.222 1.779 C 14.222 1.042 13.625 0.445 12.889 0.445 C 12.43 0.446 12.004 0.682 11.76 1.07 L 8.988 0.456 C 8.958 0.449 8.927 0.444 8.896 0.444 L 8.896 0.444 Z M 5.778 8.445 C 6.514 8.445 7.111 9.042 7.111 9.779 C 7.111 10.515 6.514 11.112 5.778 11.112 C 5.041 11.112 4.444 10.515 4.444 9.779 C 4.444 9.042 5.041 8.445 5.778 8.445 Z M 10.222 8.445 C 10.959 8.445 11.556 9.042 11.556 9.779 C 11.556 10.515 10.959 11.112 10.222 11.112 C 9.486 11.112 8.889 10.515 8.889 9.779 C 8.889 9.042 9.486 8.445 10.222 8.445 Z M 11.087 12.43 C 11.5 12.395 11.733 12.894 11.441 13.188 C 11.441 13.188 11.15 13.497 10.596 13.753 C 10.041 14.008 9.19 14.245 7.99 14.225 C 6.796 14.204 5.96 13.968 5.411 13.726 C 4.863 13.485 4.571 13.2 4.571 13.2 C 4.299 12.933 4.467 12.47 4.847 12.44 C 4.862 12.439 4.876 12.438 4.891 12.438 C 5.011 12.44 5.126 12.49 5.208 12.577 C 5.208 12.577 5.335 12.72 5.773 12.912 C 6.21 13.105 6.926 13.312 8.01 13.332 C 9.088 13.351 9.789 13.144 10.22 12.945 C 10.652 12.747 10.779 12.591 10.779 12.591 C 10.856 12.498 10.967 12.44 11.087 12.43 L 11.087 12.43 Z"/>
</svg>
