<svg xmlns="http://www.w3.org/2000/svg" width="16" height="16" version="1.1">
 <defs>
   <style id="current-color-scheme" type="text/css">
   .ColorScheme-Text { color: #e9ecf2; } .ColorScheme-Highlight { color:#5294e2; }
  </style>
  <linearGradient id="arrongin" x1="0%" x2="0%" y1="0%" y2="100%">
   <stop offset="0%" style="stop-color:#dd9b44; stop-opacity:1"/>
   <stop offset="100%" style="stop-color:#ad6c16; stop-opacity:1"/>
  </linearGradient>
  <linearGradient id="aurora" x1="0%" x2="0%" y1="0%" y2="100%">
   <stop offset="0%" style="stop-color:#09D4DF; stop-opacity:1"/>
   <stop offset="100%" style="stop-color:#9269F4; stop-opacity:1"/>
  </linearGradient>
  <linearGradient id="cyberneon" x1="0%" x2="0%" y1="0%" y2="100%">
    <stop offset="0" style="stop-color:#0abdc6; stop-opacity:1"/>
    <stop offset="1" style="stop-color:#ea00d9; stop-opacity:1"/>
  </linearGradient>
  <linearGradient id="fitdance" x1="0%" x2="0%" y1="0%" y2="100%">
   <stop offset="0%" style="stop-color:#1AD6AB; stop-opacity:1"/>
   <stop offset="100%" style="stop-color:#329DB6; stop-opacity:1"/>
  </linearGradient>
  <linearGradient id="oomox" x1="0%" x2="0%" y1="0%" y2="100%">
   <stop offset="0%" style="stop-color:#f2bac9; stop-opacity:1"/>
   <stop offset="100%" style="stop-color:#d6c9de; stop-opacity:1"/>
  </linearGradient>
  <linearGradient id="rainblue" x1="0%" x2="0%" y1="0%" y2="100%">
   <stop offset="0%" style="stop-color:#00F260; stop-opacity:1"/>
   <stop offset="100%" style="stop-color:#0575E6; stop-opacity:1"/>
  </linearGradient>
  <linearGradient id="sunrise" x1="0%" x2="0%" y1="0%" y2="100%">
   <stop offset="0%" style="stop-color: #FF8501; stop-opacity:1"/>
   <stop offset="100%" style="stop-color: #FFCB01; stop-opacity:1"/>
  </linearGradient>
  <linearGradient id="telinkrin" x1="0%" x2="0%" y1="0%" y2="100%">
   <stop offset="0%" style="stop-color: #b2ced6; stop-opacity:1"/>
   <stop offset="100%" style="stop-color: #6da5b7; stop-opacity:1"/>
  </linearGradient>
  <linearGradient id="60spsycho" x1="0%" x2="0%" y1="0%" y2="100%">
   <stop offset="0%" style="stop-color: #df5940; stop-opacity:1"/>
   <stop offset="25%" style="stop-color: #d8d15f; stop-opacity:1"/>
   <stop offset="50%" style="stop-color: #e9882a; stop-opacity:1"/>
   <stop offset="100%" style="stop-color: #279362; stop-opacity:1"/>
  </linearGradient>
  <linearGradient id="90ssummer" x1="0%" x2="0%" y1="0%" y2="100%">
   <stop offset="0%" style="stop-color: #f618c7; stop-opacity:1"/>
   <stop offset="20%" style="stop-color: #94ffab; stop-opacity:1"/>
   <stop offset="50%" style="stop-color: #fbfd54; stop-opacity:1"/>
   <stop offset="100%" style="stop-color: #0f83ae; stop-opacity:1"/>
  </linearGradient>
 </defs>
 <path fill="url(#oomox)" class="ColorScheme-Text" fill-rule="evenodd" d="M 5.307 0 C 5.898 0.472 6.286 1.19 6.286 2 C 6.286 3.413 5.127 4.571 3.714 4.571 C 2.904 4.571 2.187 4.184 1.714 3.593 L 1.714 14.286 C 1.714 15.348 2.652 16 3.714 16 C 4.777 16 5.714 15.349 5.714 14.286 L 5.714 10.286 L 6.549 10.286 L 6.187 9.769 L 6.187 9.768 L 6.186 9.767 C 5.88 9.334 5.715 8.817 5.714 8.287 L 5.714 8.286 C 5.714 6.873 6.873 5.714 8.286 5.714 C 9.17 5.715 9.994 6.171 10.463 6.919 L 12.057 9.195 C 13.406 8.126 14.285 6.469 14.286 5.143 C 14.286 2.303 11.983 0 9.143 0 L 5.307 0 L 5.307 0 L 5.307 0 Z M 1.714 2 C 1.714 0.896 2.61 0 3.714 0 C 4.818 0 5.714 0.896 5.714 2 C 5.714 3.104 4.818 4 3.714 4 C 2.61 4 1.714 3.104 1.714 2 L 1.714 2 Z M 8.286 6.286 C 7.181 6.286 6.286 7.181 6.286 8.286 C 6.286 8.696 6.414 9.096 6.649 9.432 L 10.649 15.146 C 11.023 15.68 11.634 15.999 12.286 16 C 13.39 16 14.286 15.104 14.286 14 C 14.285 13.59 14.158 13.189 13.922 12.854 L 9.922 7.139 C 9.548 6.605 8.938 6.287 8.286 6.286 Z"/>
</svg>
