<svg xmlns="http://www.w3.org/2000/svg" width="22" height="22" version="1.1">
 <defs>
  <style id="current-color-scheme" type="text/css">
   .ColorScheme-Text { color: #e9ecf2; } .ColorScheme-Highlight { color: #1AD6AB; }
  </style>
  <linearGradient id="arrongin" x1="0%" x2="0%" y1="0%" y2="100%">
   <stop offset="0%" style="stop-color:#dd9b44"/>
   <stop offset="100%" style="stop-color:#ad6c16"/>
  </linearGradient>
  <linearGradient id="aurora" x1="0%" x2="0%" y1="0%" y2="100%">
   <stop offset="0%" style="stop-color:#09D4DF"/>
   <stop offset="100%" style="stop-color:#9269F4"/>
  </linearGradient>
  <linearGradient id="cyberneon" x1="0%" x2="0%" y1="0%" y2="100%">
   <stop offset="0" style="stop-color:#0abdc6"/>
   <stop offset="1" style="stop-color:#ea00d9"/>
  </linearGradient>
  <linearGradient id="fitdance" x1="0%" x2="0%" y1="0%" y2="100%">
   <stop offset="0%" style="stop-color:#1AD6AB"/>
   <stop offset="100%" style="stop-color:#329DB6"/>
  </linearGradient>
  <linearGradient id="oomox" x1="0%" x2="0%" y1="0%" y2="100%">
   <stop offset="0%" style="stop-color:#f2bac9"/>
   <stop offset="100%" style="stop-color:#d6c9de"/>
  </linearGradient>
  <linearGradient id="rainblue" x1="0%" x2="0%" y1="0%" y2="100%">
   <stop offset="0%" style="stop-color:#00F260"/>
   <stop offset="100%" style="stop-color:#0575E6"/>
  </linearGradient>
  <linearGradient id="sunrise" x1="0%" x2="0%" y1="0%" y2="100%">
   <stop offset="0%" style="stop-color:#FF8501"/>
   <stop offset="100%" style="stop-color:#FFCB01"/>
  </linearGradient>
  <linearGradient id="telinkrin" x1="0%" x2="0%" y1="0%" y2="100%">
   <stop offset="0%" style="stop-color:#b2ced6"/>
   <stop offset="100%" style="stop-color:#6da5b7"/>
  </linearGradient>
  <linearGradient id="60spsycho" x1="0%" x2="0%" y1="0%" y2="100%">
   <stop offset="0%" style="stop-color:#df5940"/>
   <stop offset="25%" style="stop-color:#d8d15f"/>
   <stop offset="50%" style="stop-color:#e9882a"/>
   <stop offset="100%" style="stop-color:#279362"/>
  </linearGradient>
  <linearGradient id="90ssummer" x1="0%" x2="0%" y1="0%" y2="100%">
   <stop offset="0%" style="stop-color:#f618c7"/>
   <stop offset="20%" style="stop-color:#94ffab"/>
   <stop offset="50%" style="stop-color:#fbfd54"/>
   <stop offset="100%" style="stop-color:#0f83ae"/>
  </linearGradient>
 </defs>
 <path fill="currentColor" fill-rule="evenodd" class="ColorScheme-Text" d="m8.5859 8c-0.58764 0-1.2662 1.1027-1.9844 2.2695-0.13409 0.21714-0.26464 0.42843-0.39062 0.625-0.40496 0.70629-0.95117 1.8126-1.4785 2.1074-0.44185 0.24343-0.92012 0.40234-1.3008 0.40234-0.25737 0-0.35957-0.0787-0.38477-0.10156-0.1754-0.166-0.3866-0.303-0.5468-0.303-0.2268 0-0.5 0-0.5 0.5 0 1.5 3.0663 2.393 4.4258 2.484 0.1899 0.011 0.384 0.016 0.582 0.016h0.048828c1.4632-0.02514 2.7797-0.70087 3.5293-1.8083 0.15388-0.22629 0.37537-0.19141 0.41406-0.19141 0.0387 0 0.26018-0.03488 0.41406 0.19141 0.74962 1.1074 2.066 1.7832 3.5293 1.8083h0.04883c0.19798 0 0.39215-0.0053 0.58203-0.01563 1.36-0.091 4.426-0.984 4.426-2.484 0-0.5-0.273-0.5-0.5-0.5-0.16018 0-0.37139 0.13702-0.54688 0.30273-0.0252 0.02286-0.12739 0.10156-0.38477 0.10156-0.38066 0-0.85893-0.15892-1.3008-0.40234-0.52735-0.29486-1.0736-1.4011-1.4785-2.1074-0.12599-0.19657-0.25654-0.40786-0.39062-0.625-0.718-1.1673-1.396-2.27-1.984-2.27-0.417 0-0.9 0.2979-1.365 0.5859-0.388 0.24-0.788 0.4141-1.049 0.4141s-0.661-0.1741-1.0488-0.4141c-0.4653-0.288-0.9477-0.5859-1.3653-0.5859z"/>
</svg>
