<svg xmlns="http://www.w3.org/2000/svg" width="22" height="22" version="1.1">
 <defs>
  <style id="current-color-scheme" type="text/css">
   .ColorScheme-Text { color: #e9ecf2; } .ColorScheme-Highlight { color: #1AD6AB; }
  </style>
  <linearGradient id="arrongin" x1="0%" x2="0%" y1="0%" y2="100%">
   <stop offset="0%" style="stop-color:#dd9b44"/>
   <stop offset="100%" style="stop-color:#ad6c16"/>
  </linearGradient>
  <linearGradient id="aurora" x1="0%" x2="0%" y1="0%" y2="100%">
   <stop offset="0%" style="stop-color:#09D4DF"/>
   <stop offset="100%" style="stop-color:#9269F4"/>
  </linearGradient>
  <linearGradient id="cyberneon" x1="0%" x2="0%" y1="0%" y2="100%">
   <stop offset="0" style="stop-color:#0abdc6"/>
   <stop offset="1" style="stop-color:#ea00d9"/>
  </linearGradient>
  <linearGradient id="fitdance" x1="0%" x2="0%" y1="0%" y2="100%">
   <stop offset="0%" style="stop-color:#1AD6AB"/>
   <stop offset="100%" style="stop-color:#329DB6"/>
  </linearGradient>
  <linearGradient id="oomox" x1="0%" x2="0%" y1="0%" y2="100%">
   <stop offset="0%" style="stop-color:#f2bac9"/>
   <stop offset="100%" style="stop-color:#d6c9de"/>
  </linearGradient>
  <linearGradient id="rainblue" x1="0%" x2="0%" y1="0%" y2="100%">
   <stop offset="0%" style="stop-color:#00F260"/>
   <stop offset="100%" style="stop-color:#0575E6"/>
  </linearGradient>
  <linearGradient id="sunrise" x1="0%" x2="0%" y1="0%" y2="100%">
   <stop offset="0%" style="stop-color:#FF8501"/>
   <stop offset="100%" style="stop-color:#FFCB01"/>
  </linearGradient>
  <linearGradient id="telinkrin" x1="0%" x2="0%" y1="0%" y2="100%">
   <stop offset="0%" style="stop-color:#b2ced6"/>
   <stop offset="100%" style="stop-color:#6da5b7"/>
  </linearGradient>
  <linearGradient id="60spsycho" x1="0%" x2="0%" y1="0%" y2="100%">
   <stop offset="0%" style="stop-color:#df5940"/>
   <stop offset="25%" style="stop-color:#d8d15f"/>
   <stop offset="50%" style="stop-color:#e9882a"/>
   <stop offset="100%" style="stop-color:#279362"/>
  </linearGradient>
  <linearGradient id="90ssummer" x1="0%" x2="0%" y1="0%" y2="100%">
   <stop offset="0%" style="stop-color:#f618c7"/>
   <stop offset="20%" style="stop-color:#94ffab"/>
   <stop offset="50%" style="stop-color:#fbfd54"/>
   <stop offset="100%" style="stop-color:#0f83ae"/>
  </linearGradient>
 </defs>
 <path fill="url(#oomox)" class="ColorScheme-Text" d="M 11.018512,3 C 7.1257403,3 3.8879336,5.5954436 3.1831681,9.0273438 A 7.9814888,7.5 0 0 0 3,10.603516 7.9814888,7.5 0 0 0 6.0300814,16.476562 V 19 l 1.7732314,-1.519531 a 7.9814888,7.5 0 0 0 3.1781762,0.623047 7.9814888,7.5 0 0 0 7.83729,-6.107422 C 18.935508,11.490394 19,10.965934 19,10.427734 19,6.3250344 15.426288,2.9999999 11.018512,3 Z m -0.02339,2 h 0.02339 0.02339 l 0.561198,0.025391 0.02143,0.00195 0.02339,0.00391 0.54561,0.074219 0.03312,0.00586 0.03312,0.00977 0.155889,0.042969 -0.270855,0.9628841 -0.113019,-0.033203 -0.500792,-0.070312 -0.512483,-0.021484 -0.514432,0.021484 -0.138351,0.019531 -0.136403,-0.9902345 0.159787,-0.021484 0.02339,-0.00391 0.02143,-0.00195 z M 9.1907171,5.2871094 9.4615729,6.2480469 9.0621093,6.3632812 8.2105682,6.7832031 7.8520248,7.0527344 7.2538032,6.2519531 7.6513182,5.953125 7.6883424,5.925781 7.7292675,5.90625 8.6626497,5.4453125 l 0.040925,-0.021484 0.04287,-0.011719 z m 4.2635489,0.1972656 0.853489,0.421875 0.04092,0.019531 0.03702,0.027344 0.812568,0.6113281 0.03702,0.029297 0.03312,0.035156 0.01948,0.021484 L 14.804628,7.0898438 14.600024,7.3652344 13.826429,6.7832031 13.01386,6.3808594 Z m -7.0071858,1.5 L 7.1856014,7.65625 6.8601841,8.015625 6.6224545,8.375 6.4159025,8.7675781 6.2424767,9.1953125 5.3168884,8.8222656 5.5000576,8.3671875 l 0.00978,-0.025391 0.011693,-0.021484 0.2318842,-0.4375 0.011693,-0.023437 0.013638,-0.021484 0.2747529,-0.4121094 0.02143,-0.029297 0.023386,-0.027344 z m 9.5540128,0.46875 0.257215,0.3847656 0.01364,0.021484 0.01169,0.023437 0.231884,0.4375 0.01169,0.021484 0.0098,0.025391 0.185118,0.4589844 0.0098,0.025391 0.0078,0.025391 0.134454,0.4785157 0.0078,0.027344 0.0039,0.027344 0.0078,0.046875 -0.923639,0.15625 -0.05651,0.015625 -0.002,-0.00586 h -0.002 L 15.90561,9.6035157 15.784797,9.1718751 15.623062,8.7675782 15.414561,8.3750001 15.170985,8.0078126 Z m -10.9336261,2.4472656 0.5358672,0.089844 0.454025,0.025391 -0.025331,0.484375 0.023386,0.453125 0.074048,0.439453 0.1208138,0.429687 -0.9606619,0.271485 -0.1266603,-0.449219 -0.00778,-0.02734 -0.00389,-0.02734 -0.083796,-0.496094 -0.00389,-0.02734 -0.002,-0.02734 -0.029232,-0.511719 v -0.02734 -0.02734 l 0.029232,-0.5117196 0.002,-0.027344 0.00389,-0.027344 z m 10.9394711,0.5722654 0.997687,0.05469 -0.02923,0.511719 -0.002,0.02734 -0.0039,0.02734 -0.0838,0.496094 -0.0039,0.02734 -0.0078,0.02734 -0.134454,0.478515 -0.0078,0.02539 -0.0098,0.02539 -0.181168,0.45117 -0.925587,-0.373047 0.169529,-0.423828 0.122762,-0.435547 0.07405,-0.439453 z m -9.3981239,2.132813 0.017539,0.02734 0.2338327,0.349609 0.6138114,0.679687 0.352697,0.265625 -0.60017,0.800782 -0.3877727,-0.292969 -0.037024,-0.0293 -0.033123,-0.03516 -0.6703204,-0.740235 -0.023386,-0.02734 -0.02143,-0.0293 -0.2747538,-0.41211 -0.013638,-0.02148 -0.011693,-0.02344 -0.00978,-0.01563 0.5982256,-0.318349 z m 8.5894529,0.355468 0.738522,0.671875 -0.668372,0.738282 -0.03312,0.03516 -0.03702,0.0293 -0.800876,0.601562 -0.598222,-0.798828 0.763852,-0.576172 z m -6.607721,1.44336 0.4715633,0.232422 0.9411767,0.269531 0.329314,0.04492 -0.136403,0.992187 -0.3526969,-0.04883 -0.033123,-0.0059 -0.033123,-0.0098 -1.0308132,-0.291015 -0.042871,-0.01172 -0.040925,-0.02148 -0.5124823,-0.251878 z m 4.429181,0.220703 0.05456,0.195312 0.350749,0.710938 -0.05066,0.02344 -0.04092,0.02148 -0.04287,0.01172 -1.030812,0.291015 -0.03312,0.0098 -0.03312,0.0059 -0.54561,0.07422 -0.02339,0.0039 -0.02143,0.002 -0.32152,0.01367 -0.04482,-1 0.294239,-0.01172 0.50274,-0.07031 0.945074,-0.269531 0.0039,-0.002 z"/>
</svg>
