<svg xmlns="http://www.w3.org/2000/svg" width="22" height="22" version="1.1">
 <defs>
  <style id="current-color-scheme" type="text/css">
   .ColorScheme-Text { color: #e9ecf2; } .ColorScheme-Highlight { color: #1AD6AB; }
  </style>
  <linearGradient id="arrongin" x1="0%" x2="0%" y1="0%" y2="100%">
   <stop offset="0%" style="stop-color:#dd9b44"/>
   <stop offset="100%" style="stop-color:#ad6c16"/>
  </linearGradient>
  <linearGradient id="aurora" x1="0%" x2="0%" y1="0%" y2="100%">
   <stop offset="0%" style="stop-color:#09D4DF"/>
   <stop offset="100%" style="stop-color:#9269F4"/>
  </linearGradient>
  <linearGradient id="cyberneon" x1="0%" x2="0%" y1="0%" y2="100%">
   <stop offset="0" style="stop-color:#0abdc6"/>
   <stop offset="1" style="stop-color:#ea00d9"/>
  </linearGradient>
  <linearGradient id="fitdance" x1="0%" x2="0%" y1="0%" y2="100%">
   <stop offset="0%" style="stop-color:#1AD6AB"/>
   <stop offset="100%" style="stop-color:#329DB6"/>
  </linearGradient>
  <linearGradient id="oomox" x1="0%" x2="0%" y1="0%" y2="100%">
   <stop offset="0%" style="stop-color:#f2bac9"/>
   <stop offset="100%" style="stop-color:#d6c9de"/>
  </linearGradient>
  <linearGradient id="rainblue" x1="0%" x2="0%" y1="0%" y2="100%">
   <stop offset="0%" style="stop-color:#00F260"/>
   <stop offset="100%" style="stop-color:#0575E6"/>
  </linearGradient>
  <linearGradient id="sunrise" x1="0%" x2="0%" y1="0%" y2="100%">
   <stop offset="0%" style="stop-color:#FF8501"/>
   <stop offset="100%" style="stop-color:#FFCB01"/>
  </linearGradient>
  <linearGradient id="telinkrin" x1="0%" x2="0%" y1="0%" y2="100%">
   <stop offset="0%" style="stop-color:#b2ced6"/>
   <stop offset="100%" style="stop-color:#6da5b7"/>
  </linearGradient>
  <linearGradient id="60spsycho" x1="0%" x2="0%" y1="0%" y2="100%">
   <stop offset="0%" style="stop-color:#df5940"/>
   <stop offset="25%" style="stop-color:#d8d15f"/>
   <stop offset="50%" style="stop-color:#e9882a"/>
   <stop offset="100%" style="stop-color:#279362"/>
  </linearGradient>
  <linearGradient id="90ssummer" x1="0%" x2="0%" y1="0%" y2="100%">
   <stop offset="0%" style="stop-color:#f618c7"/>
   <stop offset="20%" style="stop-color:#94ffab"/>
   <stop offset="50%" style="stop-color:#fbfd54"/>
   <stop offset="100%" style="stop-color:#0f83ae"/>
  </linearGradient>
 </defs>
 <g transform="translate(0 -1030.4)">
  <path fill="url(#oomox)" class="ColorScheme-Text" d="m11 3c-0.259 0-0.518 0.1002-0.717 0.2988l-6.9842 6.9842c-0.3972 0.397-0.3972 1.037 0 1.434l6.9842 6.984c0.397 0.397 1.037 0.397 1.434 0l6.984-6.984c0.397-0.397 0.397-1.037 0-1.434l-6.984-6.9842c-0.199-0.1986-0.458-0.2988-0.717-0.2988zm-0.107 4c0.731 0 1.3 0.1761 1.709 0.5273 0.411 0.3514 0.617 0.8189 0.617 1.4043 0 0.4898-0.145 0.9005-0.436 1.2304-0.291 0.33-0.707 0.541-1.246 0.633v0.031c1.281 0.167 1.922 0.786 1.922 1.854 0 0.72-0.245 1.288-0.734 1.703-0.49 0.411-1.197 0.617-2.123 0.617-0.8592 0-1.5465-0.14-2.061-0.42v-0.906c0.6529 0.341 1.3329 0.512 2.039 0.512 1.256 0 1.883-0.512 1.883-1.538 0-0.915-0.675-1.375-2.027-1.375h-0.7075v-0.802h0.7075c0.567 0 1.008-0.135 1.32-0.405 0.312-0.2693 0.469-0.6264 0.469-1.0699 0-0.3619-0.122-0.648-0.364-0.8574-0.241-0.2129-0.564-0.3184-0.968-0.3184-0.632 0-1.2415 0.2133-1.8305 0.6426l-0.4902-0.6641c0.6635-0.5322 1.4367-0.7988 2.3207-0.7988z" transform="translate(0 1030.4)"/>
 </g>
</svg>
