<svg xmlns="http://www.w3.org/2000/svg" width="16" height="16" version="1.1">
 <defs>
  <style id="current-color-scheme" type="text/css">
   .ColorScheme-Text { color: #e9ecf2; } .ColorScheme-Highlight { color: #5294e2; }
  </style>
  <linearGradient id="arrongin" x1="0%" x2="0%" y1="0%" y2="100%">
   <stop offset="0%" style="stop-color: #dd9b44; stop-opacity: 1"/>
   <stop offset="100%" style="stop-color: #ad6c16; stop-opacity: 1"/>
  </linearGradient>
  <linearGradient id="aurora" x1="0%" x2="0%" y1="0%" y2="100%">
   <stop offset="0%" style="stop-color: #09D4DF; stop-opacity: 1"/>
   <stop offset="100%" style="stop-color: #9269F4; stop-opacity: 1"/>
  </linearGradient>
  <linearGradient id="cyberneon" x1="0%" x2="0%" y1="0%" y2="100%">
    <stop offset="0" style="stop-color: #0abdc6; stop-opacity: 1"/>
    <stop offset="1" style="stop-color: #ea00d9; stop-opacity: 1"/>
  </linearGradient>
  <linearGradient id="fitdance" x1="0%" x2="0%" y1="0%" y2="100%">
   <stop offset="0%" style="stop-color: #1AD6AB; stop-opacity: 1"/>
   <stop offset="100%" style="stop-color: #329DB6; stop-opacity: 1"/>
  </linearGradient>
  <linearGradient id="oomox" x1="0%" x2="0%" y1="0%" y2="100%">
   <stop offset="0%" style="stop-color: #f2bac9; stop-opacity: 1"/>
   <stop offset="100%" style="stop-color: #d6c9de; stop-opacity: 1"/>
  </linearGradient>
  <linearGradient id="rainblue" x1="0%" x2="0%" y1="0%" y2="100%">
   <stop offset="0%" style="stop-color: #00F260; stop-opacity: 1"/>
   <stop offset="100%" style="stop-color: #0575E6; stop-opacity: 1"/>
  </linearGradient>
  <linearGradient id="sunrise" x1="0%" x2="0%" y1="0%" y2="100%">
   <stop offset="0%" style="stop-color:  #FF8501; stop-opacity: 1"/>
   <stop offset="100%" style="stop-color:  #FFCB01; stop-opacity: 1"/>
  </linearGradient>
  <linearGradient id="telinkrin" x1="0%" x2="0%" y1="0%" y2="100%">
   <stop offset="0%" style="stop-color:  #b2ced6; stop-opacity: 1"/>
   <stop offset="100%" style="stop-color:  #6da5b7; stop-opacity: 1"/>
  </linearGradient>
  <linearGradient id="60spsycho" x1="0%" x2="0%" y1="0%" y2="100%">
   <stop offset="0%" style="stop-color:  #df5940; stop-opacity: 1"/>
   <stop offset="25%" style="stop-color:  #d8d15f; stop-opacity: 1"/>
   <stop offset="50%" style="stop-color:  #e9882a; stop-opacity: 1"/>
   <stop offset="100%" style="stop-color:  #279362; stop-opacity: 1"/>
  </linearGradient>
  <linearGradient id="90ssummer" x1="0%" x2="0%" y1="0%" y2="100%">
   <stop offset="0%" style="stop-color:  #f618c7; stop-opacity: 1"/>
   <stop offset="20%" style="stop-color:  #94ffab; stop-opacity: 1"/>
   <stop offset="50%" style="stop-color:  #fbfd54; stop-opacity: 1"/>
   <stop offset="100%" style="stop-color:  #0f83ae; stop-opacity: 1"/>
  </linearGradient>
 </defs>
 <g transform="translate(-311.99997,-159.99994)">
  <path fill="url(#oomox)" class="ColorScheme-Text" d="m 317,164 c -0.65761,0 -1.17852,0.0599 -1.61719,0.22461 -0.43866,0.16467 -0.79038,0.46152 -0.99804,0.83789 -0.41533,0.75275 -0.37023,1.67345 -0.38477,2.93164 v 0.004 4.0039 0.004 c 0.0146,1.25819 -0.0306,2.17889 0.38477,2.93164 0.20765,0.37637 0.55938,0.67322 0.99804,0.83789 C 315.82147,175.94006 316.34239,176 317,176 h 5 c 0.65761,0 1.17852,-0.0599 1.61719,-0.22461 0.43866,-0.16466 0.78843,-0.46152 0.99609,-0.83789 0.41532,-0.75275 0.37218,-1.67344 0.38672,-2.93164 v -0.004 -4.0039 -0.004 c -0.0145,-1.2582 0.0306,-2.17889 -0.38477,-2.93164 -0.20766,-0.37637 -0.55938,-0.67323 -0.99804,-0.83789 C 323.17852,164.05994 322.65761,164 322,164 Z m 0,1 h 5 c 0.59239,0 1.00571,0.0626 1.26562,0.16016 0.25992,0.0976 0.37146,0.20331 0.47266,0.38672 0.20192,0.36595 0.24703,1.1946 0.26172,2.45312 v 3.99414 c -0.0146,1.26354 -0.0593,2.09217 -0.26172,2.45898 -0.10119,0.18341 -0.21275,0.28916 -0.47266,0.38672 C 323.00572,174.93741 322.59239,175 322,175 h -5 c -0.59239,0 -1.00572,-0.0626 -1.26562,-0.16016 -0.25991,-0.0976 -0.37147,-0.20331 -0.47266,-0.38672 C 315.05981,174.08717 315.01474,173.25853 315,172 v -0.006 -3.98828 V 168 c 0.0147,-1.25852 0.0598,-2.08717 0.26172,-2.45312 0.10119,-0.18341 0.21275,-0.28916 0.47266,-0.38672 C 315.99428,165.06259 316.40761,165 317,165 Z"/>
  <path fill="url(#oomox)" class="ColorScheme-Text" fill-rule="evenodd" d="m 316,160 v 3 h 1 v -2 h 5 v 2 h 1 v -3 z m 2,2 v 1 h 1 v -1 z m 2,0 v 1 h 1 v -1 z"/>
 </g>
</svg>
