<svg xmlns="http://www.w3.org/2000/svg" width="16" height="16" version="1.1">
 <defs>
   <style id="current-color-scheme" type="text/css">
   .ColorScheme-Text { color: #e9ecf2; } .ColorScheme-Highlight { color: #5294e2; }
  </style>
  <linearGradient id="arrongin" x1="0%" x2="0%" y1="0%" y2="100%">
   <stop offset="0%" style="stop-color: #dd9b44; stop-opacity: 1"/>
   <stop offset="100%" style="stop-color: #ad6c16; stop-opacity: 1"/>
  </linearGradient>
  <linearGradient id="aurora" x1="0%" x2="0%" y1="0%" y2="100%">
   <stop offset="0%" style="stop-color: #09D4DF; stop-opacity: 1"/>
   <stop offset="100%" style="stop-color: #9269F4; stop-opacity: 1"/>
  </linearGradient>
  <linearGradient id="cyberneon" x1="0%" x2="0%" y1="0%" y2="100%">
    <stop offset="0" style="stop-color: #0abdc6; stop-opacity: 1"/>
    <stop offset="1" style="stop-color: #ea00d9; stop-opacity: 1"/>
  </linearGradient>
  <linearGradient id="fitdance" x1="0%" x2="0%" y1="0%" y2="100%">
   <stop offset="0%" style="stop-color: #1AD6AB; stop-opacity: 1"/>
   <stop offset="100%" style="stop-color: #329DB6; stop-opacity: 1"/>
  </linearGradient>
  <linearGradient id="oomox" x1="0%" x2="0%" y1="0%" y2="100%">
   <stop offset="0%" style="stop-color: #f2bac9; stop-opacity: 1"/>
   <stop offset="100%" style="stop-color: #d6c9de; stop-opacity: 1"/>
  </linearGradient>
  <linearGradient id="rainblue" x1="0%" x2="0%" y1="0%" y2="100%">
   <stop offset="0%" style="stop-color: #00F260; stop-opacity: 1"/>
   <stop offset="100%" style="stop-color: #0575E6; stop-opacity: 1"/>
  </linearGradient>
  <linearGradient id="sunrise" x1="0%" x2="0%" y1="0%" y2="100%">
   <stop offset="0%" style="stop-color: #FF8501; stop-opacity: 1"/>
   <stop offset="100%" style="stop-color: #FFCB01; stop-opacity: 1"/>
  </linearGradient>
  <linearGradient id="telinkrin" x1="0%" x2="0%" y1="0%" y2="100%">
   <stop offset="0%" style="stop-color: #b2ced6; stop-opacity: 1"/>
   <stop offset="100%" style="stop-color: #6da5b7; stop-opacity: 1"/>
  </linearGradient>
  <linearGradient id="60spsycho" x1="0%" x2="0%" y1="0%" y2="100%">
   <stop offset="0%" style="stop-color: #df5940; stop-opacity: 1"/>
   <stop offset="25%" style="stop-color: #d8d15f; stop-opacity: 1"/>
   <stop offset="50%" style="stop-color: #e9882a; stop-opacity: 1"/>
   <stop offset="100%" style="stop-color: #279362; stop-opacity: 1"/>
  </linearGradient>
  <linearGradient id="90ssummer" x1="0%" x2="0%" y1="0%" y2="100%">
   <stop offset="0%" style="stop-color: #f618c7; stop-opacity: 1"/>
   <stop offset="20%" style="stop-color: #94ffab; stop-opacity: 1"/>
   <stop offset="50%" style="stop-color: #fbfd54; stop-opacity: 1"/>
   <stop offset="100%" style="stop-color: #0f83ae; stop-opacity: 1"/>
  </linearGradient>
 </defs>
 <path fill="url(#oomox)" class="ColorScheme-Text" d="M 8.9921875 1 L 6.1914062 3 L 3.9941406 3 C 2.7361406 3.015 1.8145 2.9697656 1.0625 3.3847656 A 1.88 1.88 0 0 0 0.22460938 4.3828125 C 0.060609375 4.8208125 1.8503717e-17 5.343 0 6 L 0 12 C 0 12.658 0.060609375 13.179188 0.22460938 13.617188 A 1.88 1.88 0 0 0 1.0625 14.615234 C 1.8155 15.031234 2.7361406 14.985 3.9941406 15 L 11.998047 15 C 13.256047 14.985 14.176688 15.030234 14.929688 14.615234 A 1.88 1.88 0 0 0 15.767578 13.617188 C 15.932578 13.179187 15.992188 12.657 15.992188 12 L 15.992188 6 C 15.992188 5.342 15.932578 4.8208125 15.767578 4.3828125 C 15.602578 3.9438125 15.306687 3.5927656 14.929688 3.3847656 C 14.176687 2.9687656 13.256047 3.015 11.998047 3 L 11.792969 3 L 8.9921875 1 z M 3.9882812 4 L 5.9921875 4 L 11.992188 4 C 13.250188 4.015 14.081266 4.0597187 14.447266 4.2617188 C 14.630266 4.3617187 14.734031 4.474375 14.832031 4.734375 C 14.930031 4.994375 14.992188 5.408 14.992188 6 L 14.992188 12 C 14.992188 12.592 14.929031 13.005625 14.832031 13.265625 C 14.734031 13.525625 14.630266 13.637281 14.447266 13.738281 C 14.081266 13.940281 13.250187 13.985 11.992188 14 L 11.988281 14 L 3.9882812 14 C 2.7292813 13.985 1.8992031 13.940281 1.5332031 13.738281 C 1.3502031 13.638281 1.2454375 13.525625 1.1484375 13.265625 C 1.0514375 13.005625 0.98828125 12.592 0.98828125 12 L 0.98828125 6 C 0.98828125 5.408 1.0514375 4.994375 1.1484375 4.734375 C 1.2464375 4.474375 1.3511563 4.3627188 1.5351562 4.2617188 C 1.9011563 4.0597188 2.7292812 4.015 3.9882812 4 z"/>
</svg>
