<svg xmlns="http://www.w3.org/2000/svg" width="16" height="16" version="1.1">
 <defs>
   <style id="current-color-scheme" type="text/css">
   .ColorScheme-Text { color: #e9ecf2; } .ColorScheme-Highlight { color: #5294e2; }
  </style>
  <linearGradient id="arrongin" x1="0%" x2="0%" y1="0%" y2="100%">
   <stop offset="0%" style="stop-color: #dd9b44; stop-opacity: 1"/>
   <stop offset="100%" style="stop-color: #ad6c16; stop-opacity: 1"/>
  </linearGradient>
  <linearGradient id="aurora" x1="0%" x2="0%" y1="0%" y2="100%">
   <stop offset="0%" style="stop-color: #09D4DF; stop-opacity: 1"/>
   <stop offset="100%" style="stop-color: #9269F4; stop-opacity: 1"/>
  </linearGradient>
  <linearGradient id="cyberneon" x1="0%" x2="0%" y1="0%" y2="100%">
    <stop offset="0" style="stop-color: #0abdc6; stop-opacity: 1"/>
    <stop offset="1" style="stop-color: #ea00d9; stop-opacity: 1"/>
  </linearGradient>
  <linearGradient id="fitdance" x1="0%" x2="0%" y1="0%" y2="100%">
   <stop offset="0%" style="stop-color: #1AD6AB; stop-opacity: 1"/>
   <stop offset="100%" style="stop-color: #329DB6; stop-opacity: 1"/>
  </linearGradient>
  <linearGradient id="oomox" x1="0%" x2="0%" y1="0%" y2="100%">
   <stop offset="0%" style="stop-color: #f2bac9; stop-opacity: 1"/>
   <stop offset="100%" style="stop-color: #d6c9de; stop-opacity: 1"/>
  </linearGradient>
  <linearGradient id="rainblue" x1="0%" x2="0%" y1="0%" y2="100%">
   <stop offset="0%" style="stop-color: #00F260; stop-opacity: 1"/>
   <stop offset="100%" style="stop-color: #0575E6; stop-opacity: 1"/>
  </linearGradient>
  <linearGradient id="sunrise" x1="0%" x2="0%" y1="0%" y2="100%">
   <stop offset="0%" style="stop-color: #FF8501; stop-opacity: 1"/>
   <stop offset="100%" style="stop-color: #FFCB01; stop-opacity: 1"/>
  </linearGradient>
  <linearGradient id="telinkrin" x1="0%" x2="0%" y1="0%" y2="100%">
   <stop offset="0%" style="stop-color: #b2ced6; stop-opacity: 1"/>
   <stop offset="100%" style="stop-color: #6da5b7; stop-opacity: 1"/>
  </linearGradient>
  <linearGradient id="60spsycho" x1="0%" x2="0%" y1="0%" y2="100%">
   <stop offset="0%" style="stop-color: #df5940; stop-opacity: 1"/>
   <stop offset="25%" style="stop-color: #d8d15f; stop-opacity: 1"/>
   <stop offset="50%" style="stop-color: #e9882a; stop-opacity: 1"/>
   <stop offset="100%" style="stop-color: #279362; stop-opacity: 1"/>
  </linearGradient>
  <linearGradient id="90ssummer" x1="0%" x2="0%" y1="0%" y2="100%">
   <stop offset="0%" style="stop-color: #f618c7; stop-opacity: 1"/>
   <stop offset="20%" style="stop-color: #94ffab; stop-opacity: 1"/>
   <stop offset="50%" style="stop-color: #fbfd54; stop-opacity: 1"/>
   <stop offset="100%" style="stop-color: #0f83ae; stop-opacity: 1"/>
  </linearGradient>
 </defs>
 <path fill="url(#oomox)" class="ColorScheme-Text" fill-rule="evenodd" d="M 16,9.6909385 15.654267,12.920005 H 7.360933 V 12.663872 L 11.551733,8.0290725 7.4788,2.8323385 v -0.253906 h 7.8524 v 2.74664 h -0.521067 c -0.1076,-0.485067 -0.315466,-0.942934 -0.621066,-1.373174 -0.305734,-0.430573 -0.6212,-0.671666 -0.949334,-0.723973 -0.1476,-0.02495 -0.355733,-0.0448 -0.626266,-0.05484 -0.2728,-0.01248 -0.493334,-0.01987 -0.666267,-0.01987 H 9.680267 l 3.266266,4.16932 v 0.117067 l -3.8172,4.1966665 h 4.791734 c 0.220533,0 0.415866,-0.06467 0.588533,-0.196534 0.1704,-0.129199 0.318267,-0.2984 0.440933,-0.5024 0.112667,-0.184 0.2128,-0.3904 0.300534,-0.614533 C 15.332397,10.113469 15.41,9.9028025 15.484133,9.6909355 Z M 6.181733,1.2806725 v 0.858586 H 5.196267 c -0.360267,0 -0.7,0.03377 -1.018947,0.09865 -0.318893,0.06753 -0.62996,0.189453 -0.9334,0.365786 -0.280053,0.16872 -0.508253,0.39692 -0.684693,0.687454 -0.176214,0.293186 -0.267027,0.646173 -0.267027,1.06112 0,0.601866 0.217813,1.0612 0.65092,1.374933 0.43288,0.314 1.006013,0.472267 1.72168,0.472267 h 1.099467 v 0.796533 h -1.4884 c -0.82472,0 -1.45468,0.173733 -1.887787,0.5212 -0.433107,0.347733 -0.648267,0.892667 -0.648267,1.637333 0,0.6096 0.17644,1.0815995 0.53164,1.4189335 0.352547,0.337333 0.84788,0.505866 1.480707,0.505866 h 1.003307 c 0.6276,0 1.102133,0.1712 1.426266,0.516267 0.324134,0.345067 0.4876,0.804133 0.4876,1.3828 0,0.622533 -0.267066,1.190801 -0.801333,1.701867 -0.534133,0.5136 -1.172,0.768 -1.91092,0.768 -0.53164,0 -0.910347,-0.06493 -1.130813,-0.192134 -0.222907,-0.129466 -0.33424,-0.318933 -0.33424,-0.568133 0,-0.202267 0.06212,-0.3632 0.18384,-0.485067 0.124573,-0.121866 0.308733,-0.184266 0.552386,-0.184266 0.142667,0 0.26968,0.02867 0.38388,0.0856 0.106654,0.05093 0.20676,0.114533 0.29816,0.189466 0.08287,0.0596 0.178867,0.140134 0.293067,0.236134 0.113973,0.09587 0.222907,0.168533 0.324107,0.2204 0.121866,-0.0104 0.254133,-0.03893 0.399466,-0.08813 0.142267,-0.04933 0.279867,-0.1296 0.412,-0.246533 0.1376,-0.1168 0.2464,-0.251467 0.3268,-0.407333 0.08293,-0.153067 0.122,-0.3632 0.122,-0.627867 0,-0.368267 -0.116933,-0.643333 -0.3528,-0.819467 C 5.199067,12.384272 4.862,12.293472 4.420933,12.293472 h -1.18496 c -0.87128,0 -1.58676,-0.264534 -2.1418,-0.7964 -0.557453,-0.531734 -0.837506,-1.1908 -0.837506,-1.9767995 0,-0.4256 0.08551,-0.814667 0.254013,-1.167467 0.171147,-0.3504 0.399333,-0.659067 0.68976,-0.923467 0.272333,-0.2468 0.586147,-0.443733 0.936053,-0.591866 0.35288,-0.147734 0.692414,-0.241067 1.016614,-0.282534 v -0.04413 C 2.383013,6.3837415 1.79696,6.1294755 1.397627,5.7506755 c -0.401987,-0.381334 -0.6016,-0.835334 -0.6016,-1.3672 0,-0.300934 0.05959,-0.57348 0.178866,-0.817227 0.11928,-0.2464 0.28536,-0.467093 0.49788,-0.658987 0.197187,-0.17644 0.430454,-0.329373 0.700134,-0.45672 0.272973,-0.126293 0.554626,-0.232893 0.842813,-0.319 v -0.127013 c -0.202253,0.0051 -0.466867,0.01303 -0.790947,0.02848 -0.3242,0.01567 -0.6016,0.02339 -0.834866,0.02339 -0.47724,0 -0.827147,-0.06753 -1.052694,-0.202374 C 0.111333,1.7217185 0,1.5297185 0,1.2806785 c 0,-0.197307 0.05187,-0.36844 0.15548,-0.511227 0.103827,-0.145107 0.280053,-0.21772 0.526347,-0.21772 0.23348,0 0.433093,0.04657 0.59652,0.137493 0.160626,0.08748 0.31484,0.186267 0.461466,0.295614 0.13984,0.105613 0.281654,0.208586 0.425374,0.308853 0.121933,0.08299 0.30588,0.12436 0.554813,0.12436 0.544667,0 1.135893,-0.01545 1.773733,-0.04645 0.635334,-0.02869 1.198134,-0.05981 1.688,-0.09092 z" clip-rule="evenodd"/>
</svg>
