<svg xmlns="http://www.w3.org/2000/svg" width="24" height="24" version="1.1">
 <defs>
  <style id="current-color-scheme" type="text/css">
   .ColorScheme-Text { color: #e9ecf2; } .ColorScheme-Highlight { color: #1AD6AB; }
  </style>
  <linearGradient id="arrongin" x1="0%" x2="0%" y1="0%" y2="100%">
   <stop offset="0%" style="stop-color:#dd9b44"/>
   <stop offset="100%" style="stop-color:#ad6c16"/>
  </linearGradient>
  <linearGradient id="aurora" x1="0%" x2="0%" y1="0%" y2="100%">
   <stop offset="0%" style="stop-color:#09D4DF"/>
   <stop offset="100%" style="stop-color:#9269F4"/>
  </linearGradient>
  <linearGradient id="cyberneon" x1="0%" x2="0%" y1="0%" y2="100%">
   <stop offset="0" style="stop-color:#0abdc6"/>
   <stop offset="1" style="stop-color:#ea00d9"/>
  </linearGradient>
  <linearGradient id="fitdance" x1="0%" x2="0%" y1="0%" y2="100%">
   <stop offset="0%" style="stop-color:#1AD6AB"/>
   <stop offset="100%" style="stop-color:#329DB6"/>
  </linearGradient>
  <linearGradient id="oomox" x1="0%" x2="0%" y1="0%" y2="100%">
   <stop offset="0%" style="stop-color:#f2bac9"/>
   <stop offset="100%" style="stop-color:#d6c9de"/>
  </linearGradient>
  <linearGradient id="rainblue" x1="0%" x2="0%" y1="0%" y2="100%">
   <stop offset="0%" style="stop-color:#00F260"/>
   <stop offset="100%" style="stop-color:#0575E6"/>
  </linearGradient>
  <linearGradient id="sunrise" x1="0%" x2="0%" y1="0%" y2="100%">
   <stop offset="0%" style="stop-color:#FF8501"/>
   <stop offset="100%" style="stop-color:#FFCB01"/>
  </linearGradient>
  <linearGradient id="telinkrin" x1="0%" x2="0%" y1="0%" y2="100%">
   <stop offset="0%" style="stop-color:#b2ced6"/>
   <stop offset="100%" style="stop-color:#6da5b7"/>
  </linearGradient>
  <linearGradient id="60spsycho" x1="0%" x2="0%" y1="0%" y2="100%">
   <stop offset="0%" style="stop-color:#df5940"/>
   <stop offset="25%" style="stop-color:#d8d15f"/>
   <stop offset="50%" style="stop-color:#e9882a"/>
   <stop offset="100%" style="stop-color:#279362"/>
  </linearGradient>
  <linearGradient id="90ssummer" x1="0%" x2="0%" y1="0%" y2="100%">
   <stop offset="0%" style="stop-color:#f618c7"/>
   <stop offset="20%" style="stop-color:#94ffab"/>
   <stop offset="50%" style="stop-color:#fbfd54"/>
   <stop offset="100%" style="stop-color:#0f83ae"/>
  </linearGradient>
 </defs>
 <path fill="url(#oomox)" class="ColorScheme-Text" opacity="0.3" d="m 4.0193186,4.9863281 c -1.3498276,-0.025941 -1.3637277,2.0074845 -0.013672,2 V 17.986328 C 3.9865951,19.333478 6.0071248,19.336842 6.0036936,18 h -0.00391 V 5.9570312 C 5.9833803,5.4190908 5.5475538,4.9863823 5.0056468,4.9863281 Z m 2.9804688,1 V 16.986328 h 1.0058594 v 1.273438 c 0,0.726801 0.7265625,0.726562 0.7265625,0.726562 h 0.2734375 1.0000002 v -2 h 1.999999 v 1.996094 h 2 v -1.996094 h 1.994141 v -5 h -0.486328 c -0.400178,0.0015 -0.639885,-0.44433 -0.417969,-0.777344 l 1.476563,-2.2226559 h -1.058594 c -0.676161,0.00956 -0.676161,-1.0095626 0,-1 h 1.992187 c 0.399294,8.52e-5 0.637437,0.4450668 0.416016,0.7773438 l -1.476563,2.2226561 h 1.060547 c 0.02817,-3.97e-4 0.04839,0.01065 0.07422,0.01367 h 1.425781 V 6.6738281 c 0,-0.381152 -0.311418,-0.6875 -0.699218,-0.6875 z m 2.0058594,2 h 3.9999992 c 0.838869,-3.499e-4 1.305407,0.970049 0.78125,1.6249999 l -2.699218,3.375 h 1.917968 c 1.352323,-0.01913 1.352323,2.019125 0,2 H 9.0056468 c -0.838869,3.5e-4 -1.3054069,-0.970049 -0.78125,-1.625 l 2.6992192,-3.375 H 9.0056468 c -1.3523227,0.01912 -1.3523227,-2.0191251 0,-1.9999999 z"/>
 <path fill="currentColor" class="ColorScheme-Highlight" d="m 16.999787,12 v 4 h 2 v -4 z m 0,5 v 2 h 2 v -2 z"/>
</svg>
