<svg xmlns="http://www.w3.org/2000/svg" width="24" height="24" version="1.1">
 <defs>
  <style id="current-color-scheme" type="text/css">
   .ColorScheme-Text { color: #e9ecf2; } .ColorScheme-Highlight { color: #1AD6AB; }
  </style>
  <linearGradient id="arrongin" x1="0%" x2="0%" y1="0%" y2="100%">
   <stop offset="0%" style="stop-color:#dd9b44"/>
   <stop offset="100%" style="stop-color:#ad6c16"/>
  </linearGradient>
  <linearGradient id="aurora" x1="0%" x2="0%" y1="0%" y2="100%">
   <stop offset="0%" style="stop-color:#09D4DF"/>
   <stop offset="100%" style="stop-color:#9269F4"/>
  </linearGradient>
  <linearGradient id="cyberneon" x1="0%" x2="0%" y1="0%" y2="100%">
   <stop offset="0" style="stop-color:#0abdc6"/>
   <stop offset="1" style="stop-color:#ea00d9"/>
  </linearGradient>
  <linearGradient id="fitdance" x1="0%" x2="0%" y1="0%" y2="100%">
   <stop offset="0%" style="stop-color:#1AD6AB"/>
   <stop offset="100%" style="stop-color:#329DB6"/>
  </linearGradient>
  <linearGradient id="oomox" x1="0%" x2="0%" y1="0%" y2="100%">
   <stop offset="0%" style="stop-color:#f2bac9"/>
   <stop offset="100%" style="stop-color:#d6c9de"/>
  </linearGradient>
  <linearGradient id="rainblue" x1="0%" x2="0%" y1="0%" y2="100%">
   <stop offset="0%" style="stop-color:#00F260"/>
   <stop offset="100%" style="stop-color:#0575E6"/>
  </linearGradient>
  <linearGradient id="sunrise" x1="0%" x2="0%" y1="0%" y2="100%">
   <stop offset="0%" style="stop-color:#FF8501"/>
   <stop offset="100%" style="stop-color:#FFCB01"/>
  </linearGradient>
  <linearGradient id="telinkrin" x1="0%" x2="0%" y1="0%" y2="100%">
   <stop offset="0%" style="stop-color:#b2ced6"/>
   <stop offset="100%" style="stop-color:#6da5b7"/>
  </linearGradient>
  <linearGradient id="60spsycho" x1="0%" x2="0%" y1="0%" y2="100%">
   <stop offset="0%" style="stop-color:#df5940"/>
   <stop offset="25%" style="stop-color:#d8d15f"/>
   <stop offset="50%" style="stop-color:#e9882a"/>
   <stop offset="100%" style="stop-color:#279362"/>
  </linearGradient>
  <linearGradient id="90ssummer" x1="0%" x2="0%" y1="0%" y2="100%">
   <stop offset="0%" style="stop-color:#f618c7"/>
   <stop offset="20%" style="stop-color:#94ffab"/>
   <stop offset="50%" style="stop-color:#fbfd54"/>
   <stop offset="100%" style="stop-color:#0f83ae"/>
  </linearGradient>
 </defs>
 <path fill="url(#oomox)" class="ColorScheme-Text" d="M 4.800781,4 C 4.357581,4 4,4.3575812 4,4.8007812 V 19.199219 C 4,19.642419 4.357581,20 4.800781,20 H 19.199219 C 19.642419,20 20,19.642419 20,19.199219 V 4.8007812 C 20,4.3575812 19.642419,4 19.199219,4 Z M 11.5,6 C 11.777,6 12,6.3345 12,6.75 v 10.5 C 12,17.6655 11.777,18 11.5,18 11.223,18 11,17.6655 11,17.25 V 6.75 C 11,6.3345 11.223,6 11.5,6 Z m -6,1 C 5.777,7 6,7.3705493 6,7.8320312 V 16.167969 C 6,16.629451 5.777,17 5.5,17 5.2229999,17 5,16.629451 5,16.167969 V 7.8320312 C 5,7.3705492 5.2229999,7 5.5,7 Z m 9,0 C 14.777,7 15,7.3192877 15,7.7148438 V 16.285156 C 15,16.680712 14.777,17 14.5,17 14.223,17 14,16.680712 14,16.285156 V 7.7148438 C 14,7.3192877 14.223,7 14.5,7 Z M 8.5000001,8 c 0.2769999,0 0.5,0.3575812 0.5,0.8007812 v 6.3984378 c 0,0.4432 -0.2230001,0.800781 -0.5,0.800781 -0.277,0 -0.5,-0.357581 -0.5,-0.800781 V 8.8007812 c 0,-0.4432 0.223,-0.8007812 0.5,-0.8007812 z M 17.5,8 C 17.777,8 18,8.2984508 18,8.6679688 V 15.332031 C 18,15.701549 17.777,16 17.5,16 17.223,16 17,15.701549 17,15.332031 V 8.6679688 C 17,8.2984508 17.223,8 17.5,8 Z"/>
</svg>
