<svg xmlns="http://www.w3.org/2000/svg" width="24" height="24" version="1.1">
 <defs>
  <style id="current-color-scheme" type="text/css">
   .ColorScheme-Text { color: #e9ecf2; } .ColorScheme-Highlight { color: #1AD6AB; }
  </style>
  <linearGradient id="arrongin" x1="0%" x2="0%" y1="0%" y2="100%">
   <stop offset="0%" style="stop-color:#dd9b44"/>
   <stop offset="100%" style="stop-color:#ad6c16"/>
  </linearGradient>
  <linearGradient id="aurora" x1="0%" x2="0%" y1="0%" y2="100%">
   <stop offset="0%" style="stop-color:#09D4DF"/>
   <stop offset="100%" style="stop-color:#9269F4"/>
  </linearGradient>
  <linearGradient id="cyberneon" x1="0%" x2="0%" y1="0%" y2="100%">
   <stop offset="0" style="stop-color:#0abdc6"/>
   <stop offset="1" style="stop-color:#ea00d9"/>
  </linearGradient>
  <linearGradient id="fitdance" x1="0%" x2="0%" y1="0%" y2="100%">
   <stop offset="0%" style="stop-color:#1AD6AB"/>
   <stop offset="100%" style="stop-color:#329DB6"/>
  </linearGradient>
  <linearGradient id="oomox" x1="0%" x2="0%" y1="0%" y2="100%">
   <stop offset="0%" style="stop-color:#f2bac9"/>
   <stop offset="100%" style="stop-color:#d6c9de"/>
  </linearGradient>
  <linearGradient id="rainblue" x1="0%" x2="0%" y1="0%" y2="100%">
   <stop offset="0%" style="stop-color:#00F260"/>
   <stop offset="100%" style="stop-color:#0575E6"/>
  </linearGradient>
  <linearGradient id="sunrise" x1="0%" x2="0%" y1="0%" y2="100%">
   <stop offset="0%" style="stop-color:#FF8501"/>
   <stop offset="100%" style="stop-color:#FFCB01"/>
  </linearGradient>
  <linearGradient id="telinkrin" x1="0%" x2="0%" y1="0%" y2="100%">
   <stop offset="0%" style="stop-color:#b2ced6"/>
   <stop offset="100%" style="stop-color:#6da5b7"/>
  </linearGradient>
  <linearGradient id="60spsycho" x1="0%" x2="0%" y1="0%" y2="100%">
   <stop offset="0%" style="stop-color:#df5940"/>
   <stop offset="25%" style="stop-color:#d8d15f"/>
   <stop offset="50%" style="stop-color:#e9882a"/>
   <stop offset="100%" style="stop-color:#279362"/>
  </linearGradient>
  <linearGradient id="90ssummer" x1="0%" x2="0%" y1="0%" y2="100%">
   <stop offset="0%" style="stop-color:#f618c7"/>
   <stop offset="20%" style="stop-color:#94ffab"/>
   <stop offset="50%" style="stop-color:#fbfd54"/>
   <stop offset="100%" style="stop-color:#0f83ae"/>
  </linearGradient>
 </defs>
 <g transform="translate(1 2)">
  <path fill="url(#oomox)" class="ColorScheme-Text" d="m14.5 6.0149c-2.2208 0-4.1069 1.6249-4.4414 3.8179-0.55606-0.52629-1.2926-0.82015-2.0586-0.82135-1.6569 0-3 1.3416-3 2.9965 0.00109 0.3432 0.061206 0.68371 0.17773 1.0066-0.0591-0.01-0.1184-0.01-0.17773-0.01-1.1046 0-2 0.89437-2 1.9977s0.89543 1.9977 2 1.9977h1.0449c0.37118-0.10248 0.64896-0.20327 0.9668-0.47795 0.33976-0.29376 3.4977-5.4996 6.377-5.4996 1.5268 0.000599 3.0074 0.74814 3.5254 2.7976 0.04577 0.19208 0.1078 0.56485 0.08594 0.68281 0 0.82744-0.67157 1.4983-1.5 1.4983s-1.5-0.67083-1.5-1.4983c-0.000084-0.81916 0.65849-1.4866 1.4785-1.4983-0.46843-0.29736-1.0396-0.47236-1.4746-0.47605-1.181-0.01-1.917 1.0223-2.0215 1.9451-0.1034 0.91325 0.1956 1.9742 2.0098 2.5264h4.5078c1.3807 0 2.5-1.118 2.5-2.4971-0.00046-1.2888-0.98284-2.3656-2.2676-2.4854 0.176-0.485 0.266-0.996 0.268-1.511 0-2.4819-2.015-4.4943-4.5-4.4943z"/>
  <path fill="url(#oomox)" class="ColorScheme-Text" opacity="0.3" d="m8 4.0172a3 2.9965 0 0 0 -3 2.9965v0.27119a2 1.9977 0 0 0 -1 -0.27119 2 1.9977 0 0 0 -2 1.9977h-0.5a0.5 0.49942 0 0 0 -0.5 0.49942 0.5 0.49942 0 0 0 0.5 0.49942h0.77148 2.2891c0.6963-1.1859 1.9728-1.9974 3.4395-1.9974h0.00195c0.53313 0.000799 1.0499 0.11776 1.5332 0.31993 0.32866-0.74504 0.80826-1.404 1.3984-1.9353a3 2.9965 0 0 0 -2.934 -2.3972z"/>
 </g>
</svg>
