<svg xmlns="http://www.w3.org/2000/svg" width="24" height="24" version="1.1">
 <defs>
  <style id="current-color-scheme" type="text/css">
   .ColorScheme-Text { color: #e9ecf2; } .ColorScheme-Highlight { color: #1AD6AB; }
  </style>
  <linearGradient id="arrongin" x1="0%" x2="0%" y1="0%" y2="100%">
   <stop offset="0%" style="stop-color:#dd9b44"/>
   <stop offset="100%" style="stop-color:#ad6c16"/>
  </linearGradient>
  <linearGradient id="aurora" x1="0%" x2="0%" y1="0%" y2="100%">
   <stop offset="0%" style="stop-color:#09D4DF"/>
   <stop offset="100%" style="stop-color:#9269F4"/>
  </linearGradient>
  <linearGradient id="cyberneon" x1="0%" x2="0%" y1="0%" y2="100%">
   <stop offset="0" style="stop-color:#0abdc6"/>
   <stop offset="1" style="stop-color:#ea00d9"/>
  </linearGradient>
  <linearGradient id="fitdance" x1="0%" x2="0%" y1="0%" y2="100%">
   <stop offset="0%" style="stop-color:#1AD6AB"/>
   <stop offset="100%" style="stop-color:#329DB6"/>
  </linearGradient>
  <linearGradient id="oomox" x1="0%" x2="0%" y1="0%" y2="100%">
   <stop offset="0%" style="stop-color:#f2bac9"/>
   <stop offset="100%" style="stop-color:#d6c9de"/>
  </linearGradient>
  <linearGradient id="rainblue" x1="0%" x2="0%" y1="0%" y2="100%">
   <stop offset="0%" style="stop-color:#00F260"/>
   <stop offset="100%" style="stop-color:#0575E6"/>
  </linearGradient>
  <linearGradient id="sunrise" x1="0%" x2="0%" y1="0%" y2="100%">
   <stop offset="0%" style="stop-color:#FF8501"/>
   <stop offset="100%" style="stop-color:#FFCB01"/>
  </linearGradient>
  <linearGradient id="telinkrin" x1="0%" x2="0%" y1="0%" y2="100%">
   <stop offset="0%" style="stop-color:#b2ced6"/>
   <stop offset="100%" style="stop-color:#6da5b7"/>
  </linearGradient>
  <linearGradient id="60spsycho" x1="0%" x2="0%" y1="0%" y2="100%">
   <stop offset="0%" style="stop-color:#df5940"/>
   <stop offset="25%" style="stop-color:#d8d15f"/>
   <stop offset="50%" style="stop-color:#e9882a"/>
   <stop offset="100%" style="stop-color:#279362"/>
  </linearGradient>
  <linearGradient id="90ssummer" x1="0%" x2="0%" y1="0%" y2="100%">
   <stop offset="0%" style="stop-color:#f618c7"/>
   <stop offset="20%" style="stop-color:#94ffab"/>
   <stop offset="50%" style="stop-color:#fbfd54"/>
   <stop offset="100%" style="stop-color:#0f83ae"/>
  </linearGradient>
 </defs>
 <path fill="url(#oomox)" class="ColorScheme-Text" d="m 12,4 c -4.4182999,0 -7.9999999,3.5816996 -7.9999999,8 0,4.4183 3.5817,8 7.9999999,8 4.4183,0 8,-3.5817 8,-8 0,-4.4183004 -3.5817,-8 -8,-8 z m -1.484375,4.001953 c 0.135577,-0.0025 0.273043,-0.00125 0.40625,0 3.196934,0.043793 5.685547,1.3710939 5.685547,1.3710939 0.32387,0.1720431 0.478757,0.6868991 0.34375,1.0996091 -0.135016,0.41271 -0.551129,0.642746 -0.875,0.470703 0,0 -4.055029,-2.1406733 -8.1835939,-0.824218 -0.347652,0.145366 -0.785915,-0.135667 -0.875,-0.587891 -0.08907,-0.452224 0.170933,-0.9774967 0.53125,-1.0585939 1.017797,-0.3245495 2.017773,-0.4508522 2.9667969,-0.4707031 z m 0.435547,3 c 0.112731,-10e-4 0.212326,-0.0042 0.322266,0 2.638513,0.09188 4.466796,1.550781 4.466796,1.550781 0.234052,0.185402 0.328171,0.661373 0.207032,1.019532 -0.121139,0.358115 -0.441752,0.53892 -0.675782,0.353515 0,0 -2.907877,-2.344468 -6.6425779,-0.974609 -0.262497,0.124051 -0.553359,-0.122359 -0.617187,-0.53125 -0.06386,-0.40893 0.141317,-0.858788 0.412109,-0.929688 0.897365,-0.329138 1.7382149,-0.481181 2.5273439,-0.488281 z M 11.265625,14 c 1.291618,0.02495 2.442203,0.50401 3.542969,1.154297 0.164454,0.107427 0.243604,0.411344 0.152344,0.628906 -0.09126,0.217545 -0.337279,0.284734 -0.486329,0.140625 0,0 -2.036051,-1.658526 -5.0566399,-0.734375 -0.17338,0.07498 -0.372018,-0.06945 -0.41211,-0.314453 -0.04008,-0.245057 0.10336,-0.525057 0.283204,-0.560547 C 9.9993371,14.09714 10.660752,13.996 11.265625,14 Z"/>
</svg>
