<svg xmlns="http://www.w3.org/2000/svg" width="24" height="24" version="1.1">
 <defs>
  <style id="current-color-scheme" type="text/css">
   .ColorScheme-Text { color: #e9ecf2; } .ColorScheme-Highlight { color: #1AD6AB; }
  </style>
  <linearGradient id="arrongin" x1="0%" x2="0%" y1="0%" y2="100%">
   <stop offset="0%" style="stop-color:#dd9b44"/>
   <stop offset="100%" style="stop-color:#ad6c16"/>
  </linearGradient>
  <linearGradient id="aurora" x1="0%" x2="0%" y1="0%" y2="100%">
   <stop offset="0%" style="stop-color:#09D4DF"/>
   <stop offset="100%" style="stop-color:#9269F4"/>
  </linearGradient>
  <linearGradient id="cyberneon" x1="0%" x2="0%" y1="0%" y2="100%">
   <stop offset="0" style="stop-color:#0abdc6"/>
   <stop offset="1" style="stop-color:#ea00d9"/>
  </linearGradient>
  <linearGradient id="fitdance" x1="0%" x2="0%" y1="0%" y2="100%">
   <stop offset="0%" style="stop-color:#1AD6AB"/>
   <stop offset="100%" style="stop-color:#329DB6"/>
  </linearGradient>
  <linearGradient id="oomox" x1="0%" x2="0%" y1="0%" y2="100%">
   <stop offset="0%" style="stop-color:#f2bac9"/>
   <stop offset="100%" style="stop-color:#d6c9de"/>
  </linearGradient>
  <linearGradient id="rainblue" x1="0%" x2="0%" y1="0%" y2="100%">
   <stop offset="0%" style="stop-color:#00F260"/>
   <stop offset="100%" style="stop-color:#0575E6"/>
  </linearGradient>
  <linearGradient id="sunrise" x1="0%" x2="0%" y1="0%" y2="100%">
   <stop offset="0%" style="stop-color:#FF8501"/>
   <stop offset="100%" style="stop-color:#FFCB01"/>
  </linearGradient>
  <linearGradient id="telinkrin" x1="0%" x2="0%" y1="0%" y2="100%">
   <stop offset="0%" style="stop-color:#b2ced6"/>
   <stop offset="100%" style="stop-color:#6da5b7"/>
  </linearGradient>
  <linearGradient id="60spsycho" x1="0%" x2="0%" y1="0%" y2="100%">
   <stop offset="0%" style="stop-color:#df5940"/>
   <stop offset="25%" style="stop-color:#d8d15f"/>
   <stop offset="50%" style="stop-color:#e9882a"/>
   <stop offset="100%" style="stop-color:#279362"/>
  </linearGradient>
  <linearGradient id="90ssummer" x1="0%" x2="0%" y1="0%" y2="100%">
   <stop offset="0%" style="stop-color:#f618c7"/>
   <stop offset="20%" style="stop-color:#94ffab"/>
   <stop offset="50%" style="stop-color:#fbfd54"/>
   <stop offset="100%" style="stop-color:#0f83ae"/>
  </linearGradient>
 </defs>
 <g id="MPATH5" transform="matrix(0.35332121,0,0,0.3686551,3.6987178,3.3117217)">
  <path fill="url(#oomox)" class="ColorScheme-Text" d="m 15,0 -4,1.7089844 0,0.703125 0,0.3730468 c 2.5e-5,0.00527 0,0.010349 0,0.015625 l 0,5.8222657 0,1.1757812 C 11,10.699324 10.746638,11.50614 10.169922,12.085938 9.6098147,12.648648 8.8484334,13 8,13 6.2764444,13 5,11.571628 5,9.7988281 L 5,8.8125 5,4.6738281 1,6.453125 l 0,2.4375 c 0,1.0469808 0.1357925,2.005601 0.4082031,2.873047 0.2702908,0.867445 0.6896721,1.61352 1.2578125,2.240234 0.4812236,0.531969 1.0749412,0.96409 1.7773438,1.298828 l 0.1347656,0.04297 c 0.078412,0.04401 0.1561135,0.08793 0.2480469,0.125 C 5.6992286,15.822769 6.7376211,16 7.9375,16 L 7.93555,15.9961 c 1.2200183,0 2.2728,-0.170564 3.162109,-0.515625 0.889663,-0.342481 1.619585,-0.826043 2.197266,-1.453125 0.575207,-0.624871 1.005679,-1.377135 1.285156,-2.251953 0.279477,-0.874819 0.417969,-1.8378951 0.417969,-2.8867191 l 0,-0.1816407 C 14.998101,8.704304 15,8.701956 15,8.6992188 L 15,0 Z" transform="matrix(2.8302858,0,0,2.7125625,0.85271462,1.8669979)"/>
 </g>
</svg>
