<svg xmlns="http://www.w3.org/2000/svg" width="24" height="24" version="1.1">
 <defs>
  <style id="current-color-scheme" type="text/css">
   .ColorScheme-Text { color: #e9ecf2; } .ColorScheme-Highlight { color: #1AD6AB; }
  </style>
  <linearGradient id="arrongin" x1="0%" x2="0%" y1="0%" y2="100%">
   <stop offset="0%" style="stop-color:#dd9b44"/>
   <stop offset="100%" style="stop-color:#ad6c16"/>
  </linearGradient>
  <linearGradient id="aurora" x1="0%" x2="0%" y1="0%" y2="100%">
   <stop offset="0%" style="stop-color:#09D4DF"/>
   <stop offset="100%" style="stop-color:#9269F4"/>
  </linearGradient>
  <linearGradient id="cyberneon" x1="0%" x2="0%" y1="0%" y2="100%">
   <stop offset="0" style="stop-color:#0abdc6"/>
   <stop offset="1" style="stop-color:#ea00d9"/>
  </linearGradient>
  <linearGradient id="fitdance" x1="0%" x2="0%" y1="0%" y2="100%">
   <stop offset="0%" style="stop-color:#1AD6AB"/>
   <stop offset="100%" style="stop-color:#329DB6"/>
  </linearGradient>
  <linearGradient id="oomox" x1="0%" x2="0%" y1="0%" y2="100%">
   <stop offset="0%" style="stop-color:#f2bac9"/>
   <stop offset="100%" style="stop-color:#d6c9de"/>
  </linearGradient>
  <linearGradient id="rainblue" x1="0%" x2="0%" y1="0%" y2="100%">
   <stop offset="0%" style="stop-color:#00F260"/>
   <stop offset="100%" style="stop-color:#0575E6"/>
  </linearGradient>
  <linearGradient id="sunrise" x1="0%" x2="0%" y1="0%" y2="100%">
   <stop offset="0%" style="stop-color:#FF8501"/>
   <stop offset="100%" style="stop-color:#FFCB01"/>
  </linearGradient>
  <linearGradient id="telinkrin" x1="0%" x2="0%" y1="0%" y2="100%">
   <stop offset="0%" style="stop-color:#b2ced6"/>
   <stop offset="100%" style="stop-color:#6da5b7"/>
  </linearGradient>
  <linearGradient id="60spsycho" x1="0%" x2="0%" y1="0%" y2="100%">
   <stop offset="0%" style="stop-color:#df5940"/>
   <stop offset="25%" style="stop-color:#d8d15f"/>
   <stop offset="50%" style="stop-color:#e9882a"/>
   <stop offset="100%" style="stop-color:#279362"/>
  </linearGradient>
  <linearGradient id="90ssummer" x1="0%" x2="0%" y1="0%" y2="100%">
   <stop offset="0%" style="stop-color:#f618c7"/>
   <stop offset="20%" style="stop-color:#94ffab"/>
   <stop offset="50%" style="stop-color:#fbfd54"/>
   <stop offset="100%" style="stop-color:#0f83ae"/>
  </linearGradient>
 </defs>
 <g transform="translate(-152.00001,-680.28985)">
  <path fill="url(#oomox)" class="ColorScheme-Text" d="m 10,3.0039062 -0.5,1.03125 c 0.16191,-0.0133 0.3348,-0.03125 0.5,-0.03125 l 0.5,0 -0.5,-1 z m 0,2 c -2.76142,0 -5,2.2385901 -5,4.9999998 0,2.254 1.51261,4.12577 3.5625,4.75 0.46885,-0.67743 1.17975,-1.20533 1.96875,-1.4375 0.61973,-1.32203 1.97474,-2.3383 3.46875,-2.3125 0.30449,-0.005 0.58708,0.056 0.875,0.125 0.0845,-0.36435 0.125,-0.73495 0.125,-1.125 0,-2.7614097 -2.23858,-4.9999998 -5,-4.9999998 z m -4.9375,0.0625 0.34375,1.0625 C 5.6253,5.8696862 5.86578,5.6292063 6.125,5.4101562 l -1.0625,-0.34375 z m 9.875,0 -1.09375,0.375 -0.0625,0 c 0.13917,0.1109501 0.27498,0.22511 0.40625,0.34375 0.13127,0.1186401 0.25799,0.2417501 0.375,0.375 l 0.375,-1.09375 z M 4,9.5039062 3,10.003906 l 1.03125,0.5 C 4.01645,10.334596 4,10.177506 4,10.003906 4,9.976406 3.998,9.920306 4,9.8476562 4.006,9.7318263 4.02235,9.6154162 4.03125,9.5039062 l -0.03125,0 z m 11.96875,0 C 15.98355,9.6732162 16,9.8303063 16,10.003906 c 0,0.0275 0.002,0.0836 0,0.15625 -0.006,0.11583 -0.02235,0.23224 -0.03125,0.34375 l 0.03125,0 1,-0.5 -1.03125,-0.4999998 z M 14,12.003906 c -1.31168,0 -2.40482,0.85843 -2.8125,2.03125 C 9.95667,14.191126 9,15.230726 9,16.503906 c 0,1.38071 1.11929,2.5 2.5,2.5 l 5.5,0 c 1.10457,0 2,-0.89543 2,-2 0,-1.10457 -0.89543,-2 -2,-2 0,-1.65685 -1.34315,-3 -3,-3 z m -8.5625,1.84375 -0.375,1.09375 1.09375,-0.375 0.0625,0 c -0.13917,-0.11095 -0.27498,-0.22511 -0.40625,-0.34375 -0.13127,-0.11864 -0.25799,-0.24175 -0.375,-0.375 z" transform="translate(153.00001,681.28994)"/>
 </g>
</svg>
