<svg xmlns="http://www.w3.org/2000/svg" width="24" height="24" version="1.1">
 <defs>
  <style id="current-color-scheme" type="text/css">
   .ColorScheme-Text { color: #e9ecf2; } .ColorScheme-Highlight { color: #1AD6AB; }
  </style>
  <linearGradient id="arrongin" x1="0%" x2="0%" y1="0%" y2="100%">
   <stop offset="0%" style="stop-color:#dd9b44"/>
   <stop offset="100%" style="stop-color:#ad6c16"/>
  </linearGradient>
  <linearGradient id="aurora" x1="0%" x2="0%" y1="0%" y2="100%">
   <stop offset="0%" style="stop-color:#09D4DF"/>
   <stop offset="100%" style="stop-color:#9269F4"/>
  </linearGradient>
  <linearGradient id="cyberneon" x1="0%" x2="0%" y1="0%" y2="100%">
   <stop offset="0" style="stop-color:#0abdc6"/>
   <stop offset="1" style="stop-color:#ea00d9"/>
  </linearGradient>
  <linearGradient id="fitdance" x1="0%" x2="0%" y1="0%" y2="100%">
   <stop offset="0%" style="stop-color:#1AD6AB"/>
   <stop offset="100%" style="stop-color:#329DB6"/>
  </linearGradient>
  <linearGradient id="oomox" x1="0%" x2="0%" y1="0%" y2="100%">
   <stop offset="0%" style="stop-color:#f2bac9"/>
   <stop offset="100%" style="stop-color:#d6c9de"/>
  </linearGradient>
  <linearGradient id="rainblue" x1="0%" x2="0%" y1="0%" y2="100%">
   <stop offset="0%" style="stop-color:#00F260"/>
   <stop offset="100%" style="stop-color:#0575E6"/>
  </linearGradient>
  <linearGradient id="sunrise" x1="0%" x2="0%" y1="0%" y2="100%">
   <stop offset="0%" style="stop-color:#FF8501"/>
   <stop offset="100%" style="stop-color:#FFCB01"/>
  </linearGradient>
  <linearGradient id="telinkrin" x1="0%" x2="0%" y1="0%" y2="100%">
   <stop offset="0%" style="stop-color:#b2ced6"/>
   <stop offset="100%" style="stop-color:#6da5b7"/>
  </linearGradient>
  <linearGradient id="60spsycho" x1="0%" x2="0%" y1="0%" y2="100%">
   <stop offset="0%" style="stop-color:#df5940"/>
   <stop offset="25%" style="stop-color:#d8d15f"/>
   <stop offset="50%" style="stop-color:#e9882a"/>
   <stop offset="100%" style="stop-color:#279362"/>
  </linearGradient>
  <linearGradient id="90ssummer" x1="0%" x2="0%" y1="0%" y2="100%">
   <stop offset="0%" style="stop-color:#f618c7"/>
   <stop offset="20%" style="stop-color:#94ffab"/>
   <stop offset="50%" style="stop-color:#fbfd54"/>
   <stop offset="100%" style="stop-color:#0f83ae"/>
  </linearGradient>
 </defs>
 <g transform="translate(1,1)">
  <path fill="url(#oomox)" class="ColorScheme-Text" d="M 6 4 C 5.446 4 5 4.446 5 5 L 5 19 C 5 19.554 5.446 20 6 20 L 13.005859 20 C 13.005567 19.976987 12.999517 19.95472 13 19.931641 C 13.006994 19.610574 13.085278 19.29431 13.234375 19.005859 L 15.027344 15.529297 L 16.820312 12.050781 C 17.120153 11.469696 17.705995 11.043093 18.390625 11.001953 L 18.392578 11.001953 L 18.394531 11.001953 C 18.461249 10.998153 18.528973 10.998353 18.595703 11.001953 C 18.736193 11.009353 18.869191 11.044103 19 11.082031 L 19 5 C 19 4.446 18.554 4 18 4 L 6 4 z M 12 7 C 14.209139 7 16 8.790861 16 11 C 16 13.209139 14.209139 15 12 15 L 8 15 L 8 11 C 8 8.790861 9.790861 7 12 7 z M 12 9 C 10.89543 9 10 9.8954305 10 11 C 10 12.104569 10.895431 13 12 13 C 13.104569 13 14 12.104569 14 11 C 14 9.8954305 13.104569 9 12 9 z" transform="translate(-1,-1)"/>
 </g>
 <path fill="currentColor" class="ColorScheme-Highlight" d="M 18.451172 12 A 0.91368861 1.0229285 0 0 0 17.708984 12.509766 L 15.916016 15.988281 L 14.123047 19.464844 A 0.91368861 1.0229285 0 0 0 14 19.953125 A 0.91368861 1.0229285 0 0 0 14.914062 21 L 18.5 21 L 22.085938 21 A 0.91368861 1.0229285 0 0 0 22.876953 19.464844 L 21.083984 15.988281 L 19.291016 12.509766 A 0.91368861 1.0229285 0 0 0 18.542969 12 A 0.91368861 1.0229285 0 0 0 18.451172 12 z M 18 14 L 19 14 L 19 18 L 18 18 L 18 14 z M 18 19 L 19 19 L 19 20 L 18 20 L 18 19 z"/>
</svg>
