<svg xmlns="http://www.w3.org/2000/svg" width="16" height="16" version="1.1">
 <defs>
  <style id="current-color-scheme" type="text/css">
   .ColorScheme-Text { color: #e9ecf2; } .ColorScheme-Highlight { color: #5294e2; }
  </style>
  <linearGradient id="arrongin" x1="0%" x2="0%" y1="0%" y2="100%">
   <stop offset="0%" style="stop-color: #dd9b44; stop-opacity: 1"/>
   <stop offset="100%" style="stop-color: #ad6c16; stop-opacity: 1"/>
  </linearGradient>
  <linearGradient id="aurora" x1="0%" x2="0%" y1="0%" y2="100%">
   <stop offset="0%" style="stop-color: #09D4DF; stop-opacity: 1"/>
   <stop offset="100%" style="stop-color: #9269F4; stop-opacity: 1"/>
  </linearGradient>
  <linearGradient id="cyberneon" x1="0%" x2="0%" y1="0%" y2="100%">
    <stop offset="0" style="stop-color: #0abdc6; stop-opacity: 1"/>
    <stop offset="1" style="stop-color: #ea00d9; stop-opacity: 1"/>
  </linearGradient>
  <linearGradient id="fitdance" x1="0%" x2="0%" y1="0%" y2="100%">
   <stop offset="0%" style="stop-color: #1AD6AB; stop-opacity: 1"/>
   <stop offset="100%" style="stop-color: #329DB6; stop-opacity: 1"/>
  </linearGradient>
  <linearGradient id="oomox" x1="0%" x2="0%" y1="0%" y2="100%">
   <stop offset="0%" style="stop-color: #f2bac9; stop-opacity: 1"/>
   <stop offset="100%" style="stop-color: #d6c9de; stop-opacity: 1"/>
  </linearGradient>
  <linearGradient id="rainblue" x1="0%" x2="0%" y1="0%" y2="100%">
   <stop offset="0%" style="stop-color: #00F260; stop-opacity: 1"/>
   <stop offset="100%" style="stop-color: #0575E6; stop-opacity: 1"/>
  </linearGradient>
  <linearGradient id="sunrise" x1="0%" x2="0%" y1="0%" y2="100%">
   <stop offset="0%" style="stop-color:  #FF8501; stop-opacity: 1"/>
   <stop offset="100%" style="stop-color:  #FFCB01; stop-opacity: 1"/>
  </linearGradient>
  <linearGradient id="telinkrin" x1="0%" x2="0%" y1="0%" y2="100%">
   <stop offset="0%" style="stop-color:  #b2ced6; stop-opacity: 1"/>
   <stop offset="100%" style="stop-color:  #6da5b7; stop-opacity: 1"/>
  </linearGradient>
  <linearGradient id="60spsycho" x1="0%" x2="0%" y1="0%" y2="100%">
   <stop offset="0%" style="stop-color:  #df5940; stop-opacity: 1"/>
   <stop offset="25%" style="stop-color:  #d8d15f; stop-opacity: 1"/>
   <stop offset="50%" style="stop-color:  #e9882a; stop-opacity: 1"/>
   <stop offset="100%" style="stop-color:  #279362; stop-opacity: 1"/>
  </linearGradient>
  <linearGradient id="90ssummer" x1="0%" x2="0%" y1="0%" y2="100%">
   <stop offset="0%" style="stop-color:  #f618c7; stop-opacity: 1"/>
   <stop offset="20%" style="stop-color:  #94ffab; stop-opacity: 1"/>
   <stop offset="50%" style="stop-color:  #fbfd54; stop-opacity: 1"/>
   <stop offset="100%" style="stop-color:  #0f83ae; stop-opacity: 1"/>
  </linearGradient>
 </defs>
 <path fill="url(#oomox)" class="ColorScheme-Text" fill-rule="evenodd" d="M 3.733 13.333 C 3.733 12.892 4.092 12.533 4.533 12.533 C 4.975 12.533 5.333 12.892 5.333 13.333 C 5.333 13.775 4.975 14.133 4.533 14.133 C 4.092 14.133 3.733 13.775 3.733 13.333 L 3.733 13.333 L 3.733 13.333 L 3.733 13.333 L 3.733 13.333 L 3.733 13.333 L 3.733 13.333 Z M 6.933 13.867 C 6.933 13.278 7.411 12.8 8 12.8 C 8.589 12.8 9.067 13.278 9.067 13.867 C 9.067 14.455 8.589 14.933 8 14.933 C 7.411 14.933 6.933 14.455 6.933 13.867 L 6.933 13.867 L 6.933 13.867 L 6.933 13.867 L 6.933 13.867 Z M 10.4 13.333 C 10.4 12.892 10.758 12.533 11.2 12.533 C 11.642 12.533 12 12.892 12 13.333 C 12 13.775 11.642 14.133 11.2 14.133 C 10.758 14.133 10.4 13.775 10.4 13.333 L 10.4 13.333 L 10.4 13.333 Z M 1.6 6.341 L 1.6 1.346 C 1.6 0.603 2.203 0 2.946 0 L 13.054 0 C 13.797 0 14.4 0.603 14.4 1.346 L 14.4 6.341 L 14.4 11.454 L 14.4 11.454 L 14.4 12.859 C 14.4 14.593 12.993 16 11.259 16 L 4.741 16 C 3.007 16 1.6 14.593 1.6 12.859 L 1.6 11.454 L 1.6 6.341 L 1.6 6.341 L 1.6 6.341 L 1.6 6.341 L 1.6 6.341 L 1.6 6.341 L 1.6 6.341 L 1.6 6.341 Z M 3.6 1.6 L 12.4 1.6 C 12.621 1.6 12.8 1.779 12.8 2 L 12.8 11.333 C 12.8 11.554 12.621 11.733 12.4 11.733 L 3.6 11.733 C 3.379 11.733 3.2 11.554 3.2 11.333 L 3.2 2 C 3.2 1.779 3.379 1.6 3.6 1.6 Z"/>
</svg>
